Date,Price
2011-01-13,1.0
2011-01-14,1.0032
2011-01-17,1.0056
2011-01-18,1.0048
2011-01-19,1.0032
2011-01-20,1.0033
2011-01-21,1.0011
2011-01-24,1.0015
2011-01-25,1.0023
2011-01-26,1.0042
2011-01-27,1.0046
2011-01-28,1.005
2011-01-31,1.0066
2011-02-01,1.007
2011-02-02,1.0066
2011-02-03,1.0074
2011-02-04,1.0064
2011-02-07,1.0062
2011-02-08,1.0068
2011-02-09,1.0053
2011-02-10,1.0046
2011-02-11,1.0044
2011-02-14,1.0058
2011-02-15,1.0061
2011-02-16,1.0054
2011-02-17,1.006
2011-02-18,1.0066
2011-02-21,1.0063
2011-02-22,1.0091
2011-02-23,1.0108
2011-02-24,1.0132
2011-02-25,1.0154
2011-02-28,1.0156
2011-03-01,1.0136
2011-03-02,1.0153
2011-03-03,1.015
2011-03-04,1.0145
2011-03-07,1.0162
2011-03-08,1.0147
2011-03-09,1.0141
2011-03-10,1.0158
2011-03-11,1.0171
2011-03-14,1.0197
2011-03-15,1.0229
2011-03-16,1.0222
2011-03-17,1.0233
2011-03-18,1.0209
2011-03-21,1.0193
2011-03-22,1.0193
2011-03-23,1.0197
2011-03-24,1.0199
2011-03-25,1.0194
2011-03-28,1.0177
2011-03-29,1.0189
2011-03-30,1.0185
2011-03-31,1.017528
2011-04-01,1.016928
2011-04-04,1.0183280000000001
2011-04-05,1.018528
2011-04-06,1.017628
2011-04-07,1.016128
2011-04-08,1.016028
2011-04-11,1.014928
2011-04-12,1.014928
2011-04-13,1.013528
2011-04-14,1.013428
2011-04-15,1.013528
2011-04-18,1.015328
2011-04-19,1.017228
2011-04-20,1.015328
2011-04-21,1.0182280000000001
2011-04-26,1.019228
2011-04-27,1.019428
2011-04-28,1.021128
2011-04-29,1.025128
2011-04-30,1.025328
2011-05-02,1.025528
2011-05-03,1.025928
2011-05-04,1.027028
2011-05-05,1.031128
2011-05-06,1.031328
2011-05-09,1.0323280000000001
2011-05-10,1.032628
2011-05-11,1.031128
2011-05-12,1.032228
2011-05-13,1.033228
2011-05-16,1.035228
2011-05-17,1.035828
2011-05-18,1.0367279999999999
2011-05-19,1.037928
2011-05-20,1.037228
2011-05-23,1.039328
2011-05-24,1.037528
2011-05-25,1.038328
2011-05-26,1.037528
2011-05-27,1.039128
2011-05-30,1.039428
2011-05-31,1.0388279999999999
2011-06-01,1.038228
2011-06-02,1.040328
2011-06-03,1.0407279999999999
2011-06-07,1.0407279999999999
2011-06-08,1.041228
2011-06-09,1.041828
2011-06-10,1.043228
2011-06-13,1.045528
2011-06-14,1.045728
2011-06-15,1.045128
2011-06-16,1.047528
2011-06-17,1.048228
2011-06-20,1.047828
2011-06-21,1.049228
2011-06-22,1.048028
2011-06-23,1.047528
2011-06-24,1.047628
2011-06-27,1.050528
2011-06-28,1.0507279999999999
2011-06-29,1.049428
2011-06-30,1.0473729999999999
2011-07-01,1.045073
2011-07-04,1.044873
2011-07-05,1.0453729999999999
2011-07-08,1.0454729999999999
2011-07-11,1.047773
2011-07-12,1.051273
2011-07-13,1.051173
2011-07-14,1.050373
2011-07-15,1.050273
2011-07-18,1.049373
2011-07-19,1.048973
2011-07-20,1.0474729999999999
2011-07-21,1.046473
2011-07-22,1.044673
2011-07-25,1.0456729999999999
2011-07-26,1.046973
2011-07-27,1.047173
2011-07-28,1.0474729999999999
2011-07-29,1.050673
2011-07-31,1.050773
2011-08-01,1.050473
2011-08-02,1.052473
2011-08-03,1.0573730000000001
2011-08-04,1.057673
2011-08-05,1.063773
2011-08-08,1.066873
2011-08-09,1.067173
2011-08-10,1.064573
2011-08-11,1.065973
2011-08-12,1.065973
2011-08-15,1.065073
2011-08-16,1.063973
2011-08-17,1.0654730000000001
2011-08-18,1.066273
2011-08-19,1.068273
2011-08-22,1.068473
2011-08-23,1.066373
2011-08-24,1.065073
2011-08-25,1.064373
2011-08-26,1.065173
2011-08-29,1.064873
2011-08-30,1.064773
2011-08-31,1.065973
2011-09-01,1.065073
2011-09-02,1.066673
2011-09-05,1.070373
2011-09-06,1.073173
2011-09-07,1.070373
2011-09-08,1.069673
2011-09-09,1.069573
2011-09-12,1.072073
2011-09-13,1.072773
2011-09-14,1.072773
2011-09-15,1.075273
2011-09-16,1.072273
2011-09-19,1.074173
2011-09-20,1.075773
2011-09-21,1.075273
2011-09-22,1.079673
2011-09-23,1.082073
2011-09-26,1.082773
2011-09-27,1.080873
2011-09-28,1.0798729999999999
2011-09-29,1.080873
2011-09-30,1.0780729999999998
2011-10-03,1.078473
2011-10-04,1.081173
2011-10-05,1.0822729999999998
2011-10-06,1.079473
2011-10-07,1.0776729999999999
2011-10-10,1.076373
2011-10-11,1.075273
2011-10-12,1.075373
2011-10-13,1.072873
2011-10-14,1.074873
2011-10-17,1.071173
2011-10-18,1.072473
2011-10-19,1.0718729999999999
2011-10-20,1.0722729999999998
2011-10-21,1.0736729999999999
2011-10-25,1.075473
2011-10-26,1.0800729999999998
2011-10-27,1.0779729999999998
2011-10-28,1.075573
2011-10-31,1.077373
2011-11-01,1.078673
2011-11-02,1.079573
2011-11-03,1.0817729999999999
2011-11-04,1.080673
2011-11-07,1.081173
2011-11-08,1.081473
2011-11-09,1.0818729999999999
2011-11-10,1.086673
2011-11-11,1.087373
2011-11-14,1.087673
2011-11-15,1.093173
2011-11-16,1.096673
2011-11-17,1.096973
2011-11-18,1.0979729999999999
2011-11-21,1.097073
2011-11-22,1.096773
2011-11-23,1.098873
2011-11-24,1.098973
2011-11-25,1.097373
2011-11-28,1.094773
2011-11-29,1.093273
2011-11-30,1.092873
2011-12-01,1.091273
2011-12-02,1.090873
2011-12-05,1.0917729999999999
2011-12-06,1.092873
2011-12-07,1.0944729999999998
2011-12-08,1.0960729999999999
2011-12-09,1.0982729999999998
2011-12-12,1.0980729999999999
2011-12-13,1.099773
2011-12-14,1.1004729999999998
2011-12-15,1.105173
2011-12-16,1.102773
2011-12-19,1.103073
2011-12-20,1.102773
2011-12-21,1.100273
2011-12-22,1.101273
2011-12-23,1.101373
2011-12-28,1.102473
2011-12-29,1.103073
2011-12-30,1.104673
2012-01-04,1.102773
2012-01-05,1.102473
2012-01-06,1.102373
2012-01-09,1.102573
2012-01-10,1.101173
2012-01-11,1.100173
2012-01-12,1.101073
2012-01-13,1.098973
2012-01-16,1.102773
2012-01-17,1.100873
2012-01-18,1.100073
2012-01-19,1.102173
2012-01-20,1.1015730000000001
2012-01-23,1.102173
2012-01-24,1.100273
2012-01-25,1.0995730000000001
2012-01-26,1.100773
2012-01-27,1.1015730000000001
2012-01-30,1.102173
2012-01-31,1.104673
2012-02-01,1.106973
2012-02-02,1.105073
2012-02-03,1.105873
2012-02-07,1.105073
2012-02-08,1.101173
2012-02-09,1.0996730000000001
2012-02-10,1.0997730000000001
2012-02-12,1.0997730000000001
2012-02-13,1.099873
2012-02-14,1.099873
2012-02-15,1.098473
2012-02-16,1.099273
2012-02-17,1.0974730000000001
2012-02-20,1.092973
2012-02-21,1.093973
2012-02-22,1.094973
2012-02-23,1.093973
2012-02-24,1.092273
2012-02-27,1.093173
2012-02-28,1.095173
2012-02-29,1.094773
2012-03-01,1.093173
2012-03-02,1.092873
2012-03-05,1.094173
2012-03-06,1.095173
2012-03-07,1.096773
2012-03-08,1.0976730000000001
2012-03-09,1.097873
2012-03-12,1.100273
2012-03-13,1.099073
2012-03-14,1.098273
2012-03-15,1.094573
2012-03-16,1.096473
2012-03-19,1.095073
2012-03-20,1.094673
2012-03-21,1.094873
2012-03-22,1.097373
2012-03-23,1.098373
2012-03-26,1.098773
2012-03-27,1.098273
2012-03-28,1.099473
2012-03-29,1.101373
2012-03-30,1.103573
2012-03-31,1.103573
2012-04-02,1.102873
2012-04-03,1.104773
2012-04-04,1.104573
2012-04-05,1.104773
2012-04-10,1.108873
2012-04-11,1.109573
2012-04-12,1.108473
2012-04-13,1.109173
2012-04-16,1.111473
2012-04-17,1.111873
2012-04-18,1.110573
2012-04-19,1.111473
2012-04-20,1.1119729999999999
2012-04-23,1.113073
2012-04-24,1.115573
2012-04-26,1.1182729999999999
2012-04-27,1.118773
2012-04-30,1.1180729999999999
2012-05-01,1.1200729999999999
2012-05-02,1.121273
2012-05-03,1.125173
2012-05-04,1.125573
2012-05-07,1.129173
2012-05-08,1.128873
2012-05-09,1.128573
2012-05-10,1.127673
2012-05-11,1.126573
2012-05-14,1.127673
2012-05-15,1.131473
2012-05-16,1.1320729999999999
2012-05-17,1.1301729999999999
2012-05-18,1.136873
2012-05-21,1.135173
2012-05-22,1.1340729999999999
2012-05-23,1.135573
2012-05-24,1.134873
2012-05-25,1.133973
2012-05-28,1.1321729999999999
2012-05-29,1.131973
2012-05-30,1.131873
2012-05-31,1.136673
2012-06-01,1.1404729999999998
2012-06-05,1.141473
2012-06-06,1.138673
2012-06-07,1.135973
2012-06-08,1.1362729999999999
2012-06-11,1.133873
2012-06-12,1.135573
2012-06-13,1.134773
2012-06-14,1.137973
2012-06-15,1.1364729999999998
2012-06-18,1.1343729999999999
2012-06-19,1.136873
2012-06-20,1.134873
2012-06-21,1.132773
2012-06-22,1.133573
2012-06-25,1.135373
2012-06-26,1.137373
2012-06-27,1.137073
2012-06-28,1.137073
2012-06-29,1.134873
2012-06-30,1.134873
2012-07-02,1.131773
2012-07-03,1.1320729999999999
2012-07-04,1.131473
2012-07-05,1.133973
2012-07-06,1.135373
2012-07-09,1.138873
2012-07-10,1.138873
2012-07-11,1.1386729999999998
2012-07-12,1.141273
2012-07-13,1.143173
2012-07-16,1.1424729999999998
2012-07-17,1.143173
2012-07-18,1.143573
2012-07-19,1.143873
2012-07-20,1.1442729999999999
2012-07-23,1.147573
2012-07-24,1.147173
2012-07-25,1.1487729999999998
2012-07-26,1.1485729999999998
2012-07-27,1.143273
2012-07-30,1.139873
2012-07-31,1.1401729999999999
2012-08-01,1.139773
2012-08-02,1.138073
2012-08-03,1.139673
2012-08-06,1.1365729999999998
2012-08-07,1.135873
2012-08-08,1.135373
2012-08-09,1.1367729999999998
2012-08-10,1.139973
2012-08-13,1.1401729999999999
2012-08-14,1.139373
2012-08-15,1.139473
2012-08-16,1.1345729999999998
2012-08-17,1.1361729999999999
2012-08-20,1.136973
2012-08-21,1.137673
2012-08-22,1.139173
2012-08-23,1.140073
2012-08-24,1.141273
2012-08-27,1.142073
2012-08-28,1.143673
2012-08-29,1.1445729999999998
2012-08-30,1.147673
2012-08-31,1.1483729999999999
2012-09-03,1.151073
2012-09-04,1.1507729999999998
2012-09-05,1.1508729999999998
2012-09-06,1.1482729999999999
2012-09-07,1.145073
2012-09-10,1.147873
2012-09-11,1.147873
2012-09-12,1.147373
2012-09-13,1.1463729999999999
2012-09-14,1.145573
2012-09-17,1.143773
2012-09-18,1.145173
2012-09-19,1.145973
2012-09-20,1.1486729999999998
2012-09-21,1.148073
2012-09-24,1.150173
2012-09-25,1.1518730000000001
2012-09-26,1.152473
2012-09-27,1.1542729999999999
2012-09-28,1.1544729999999999
2012-09-30,1.1544729999999999
2012-10-01,1.155573
2012-10-02,1.156873
2012-10-03,1.159773
2012-10-04,1.157073
2012-10-05,1.156173
2012-10-08,1.1556730000000002
2012-10-09,1.1558730000000002
2012-10-10,1.156673
2012-10-11,1.156673
2012-10-12,1.1573730000000002
2012-10-15,1.159573
2012-10-16,1.1615730000000002
2012-10-17,1.1588729999999998
2012-10-18,1.1571729999999998
2012-10-19,1.1571729999999998
2012-10-23,1.1573730000000002
2012-10-24,1.1582729999999999
2012-10-25,1.156673
2012-10-26,1.156873
2012-10-29,1.1582729999999999
2012-10-30,1.161073
2012-10-31,1.160673
2012-11-01,1.160173
2012-11-02,1.158773
2012-11-05,1.1592729999999998
2012-11-06,1.1598730000000002
2012-11-07,1.159173
2012-11-08,1.161673
2012-11-09,1.162973
2012-11-12,1.164173
2012-11-13,1.1647729999999998
2012-11-14,1.1657730000000002
2012-11-15,1.1666729999999998
2012-11-16,1.167373
2012-11-19,1.166073
2012-11-20,1.165273
2012-11-21,1.1649729999999998
2012-11-22,1.163373
2012-11-23,1.163573
2012-11-26,1.164473
2012-11-27,1.164173
2012-11-28,1.1657730000000002
2012-11-29,1.1676730000000002
2012-11-30,1.1680730000000001
2012-12-03,1.1693729999999998
2012-12-04,1.1685729999999999
2012-12-05,1.169473
2012-12-06,1.1682730000000001
2012-12-07,1.1674730000000002
2012-12-10,1.1676730000000002
2012-12-11,1.168673
2012-12-12,1.167773
2012-12-13,1.167373
2012-12-14,1.1668729999999998
2012-12-17,1.1691729999999998
2012-12-18,1.169473
2012-12-19,1.169373
2012-12-20,1.1700730000000001
2012-12-21,1.170573
2012-12-24,1.170873
2012-12-27,1.170873
2012-12-28,1.171673
2012-12-31,1.172873
2013-01-03,1.1701730000000001
2013-01-04,1.168473
2013-01-07,1.168973
2013-01-08,1.170573
2013-01-09,1.1719730000000002
2013-01-10,1.1721730000000001
2013-01-11,1.171273
2013-01-14,1.1718730000000002
2013-01-15,1.171273
2013-01-16,1.1719730000000002
2013-01-17,1.173673
2013-01-18,1.172373
2013-01-21,1.172573
2013-01-22,1.1720730000000001
2013-01-23,1.1722730000000001
2013-01-24,1.172773
2013-01-25,1.1720730000000001
2013-01-28,1.1722730000000001
2013-01-29,1.168473
2013-01-30,1.168673
2013-01-31,1.168573
2013-02-01,1.167273
2013-02-04,1.164973
2013-02-05,1.165773
2013-02-07,1.1681730000000001
2013-02-08,1.1679730000000001
2013-02-11,1.1681730000000001
2013-02-12,1.167273
2013-02-13,1.1659730000000001
2013-02-14,1.163373
2013-02-15,1.162573
2013-02-18,1.160973
2013-02-19,1.160773
2013-02-20,1.1618730000000002
2013-02-21,1.1640730000000001
2013-02-22,1.164673
2013-02-25,1.165173
2013-02-26,1.1682730000000001
2013-02-27,1.170673
2013-02-28,1.169273
2013-03-01,1.170373
2013-03-04,1.1722730000000001
2013-03-05,1.170973
2013-03-06,1.169073
2013-03-07,1.169173
2013-03-08,1.1678730000000002
2013-03-11,1.166873
2013-03-12,1.167773
2013-03-13,1.168873
2013-03-14,1.1682730000000001
2013-03-15,1.170873
2013-03-18,1.1741730000000001
2013-03-19,1.172473
2013-03-20,1.173573
2013-03-21,1.171373
2013-03-22,1.173173
2013-03-25,1.172173
2013-03-26,1.173473
2013-03-27,1.176273
2013-03-28,1.179473
2013-03-31,1.179473
2013-04-02,1.179873
2013-04-03,1.178973
2013-04-04,1.1805729999999999
2013-04-05,1.183073
2013-04-08,1.184373
2013-04-09,1.183473
2013-04-10,1.185573
2013-04-11,1.185473
2013-04-12,1.186373
2013-04-15,1.188373
2013-04-16,1.188473
2013-04-17,1.1886729999999999
2013-04-18,1.190973
2013-04-19,1.191073
2013-04-22,1.1906729999999999
2013-04-23,1.192473
2013-04-24,1.193473
2013-04-26,1.193173
2013-04-29,1.1945729999999999
2013-04-30,1.195173
2013-05-01,1.1946729999999999
2013-05-02,1.196273
2013-05-03,1.1968729999999999
2013-05-06,1.195373
2013-05-07,1.195773
2013-05-08,1.196373
2013-05-09,1.194173
2013-05-10,1.1926729999999999
2013-05-13,1.191473
2013-05-14,1.191773
2013-05-15,1.1905729999999999
2013-05-16,1.192073
2013-05-17,1.193873
2013-05-20,1.192073
2013-05-21,1.191573
2013-05-22,1.191773
2013-05-23,1.189873
2013-05-24,1.1905729999999999
2013-05-27,1.191373
2013-05-28,1.190273
2013-05-29,1.186973
2013-05-30,1.188073
2013-05-31,1.189573
2013-06-04,1.189073
2013-06-05,1.189173
2013-06-06,1.189773
2013-06-07,1.191473
2013-06-10,1.189073
2013-06-11,1.187873
2013-06-12,1.185173
2013-06-13,1.185273
2013-06-14,1.185573
2013-06-17,1.185973
2013-06-18,1.185473
2013-06-19,1.184273
2013-06-20,1.176373
2013-06-21,1.1747729999999998
2013-06-24,1.169373
2013-06-25,1.172773
2013-06-26,1.170573
2013-06-27,1.171773
2013-06-28,1.172973
2013-06-30,1.172973
2013-07-01,1.171073
2013-07-02,1.171173
2013-07-03,1.169873
2013-07-04,1.167173
2013-07-05,1.166873
2013-07-08,1.162873
2013-07-09,1.165373
2013-07-10,1.167273
2013-07-11,1.169873
2013-07-12,1.1704729999999999
2013-07-15,1.170873
2013-07-16,1.170973
2013-07-17,1.1718730000000002
2013-07-18,1.1737730000000002
2013-07-19,1.173573
2013-07-22,1.1760730000000001
2013-07-23,1.175273
2013-07-24,1.175373
2013-07-25,1.171073
2013-07-26,1.170073
2013-07-29,1.171073
2013-07-30,1.171973
2013-07-31,1.171173
2013-08-01,1.171773
2013-08-02,1.168973
2013-08-05,1.173073
2013-08-06,1.171473
2013-08-07,1.170873
2013-08-08,1.170773
2013-08-09,1.1685729999999999
2013-08-12,1.169573
2013-08-13,1.168473
2013-08-14,1.1657730000000002
2013-08-15,1.161273
2013-08-16,1.163173
2013-08-19,1.1605729999999999
2013-08-20,1.162673
2013-08-21,1.162573
2013-08-22,1.159973
2013-08-23,1.1617730000000002
2013-08-26,1.162773
2013-08-27,1.1642730000000001
2013-08-28,1.165673
2013-08-29,1.165173
2013-08-30,1.1659730000000001
2013-08-31,1.1659730000000001
2013-09-02,1.164673
2013-09-03,1.162673
2013-09-04,1.1605729999999999
2013-09-05,1.1619730000000001
2013-09-06,1.1603729999999999
2013-09-09,1.162373
2013-09-10,1.162273
2013-09-11,1.160273
2013-09-12,1.160173
2013-09-13,1.159073
2013-09-16,1.1619730000000001
2013-09-17,1.161173
2013-09-18,1.1598730000000002
2013-09-19,1.1638730000000002
2013-09-20,1.163473
2013-09-23,1.164473
2013-09-24,1.166073
2013-09-25,1.166673
2013-09-26,1.167573
2013-09-27,1.167073
2013-09-30,1.168973
2013-10-01,1.169073
2013-10-02,1.1682730000000001
2013-10-03,1.168473
2013-10-04,1.167273
2013-10-07,1.1661730000000001
2013-10-08,1.164573
2013-10-09,1.165873
2013-10-10,1.163373
2013-10-11,1.1636730000000002
2013-10-14,1.1643729999999999
2013-10-15,1.163273
2013-10-16,1.1621730000000001
2013-10-17,1.165173
2013-10-18,1.166673
2013-10-21,1.1682730000000001
2013-10-22,1.1680730000000001
2013-10-23,1.170873
2013-10-24,1.1722730000000001
2013-10-25,1.174273
2013-10-29,1.176173
2013-10-30,1.175973
2013-10-31,1.174873
2013-11-01,1.175573
2013-11-04,1.1743730000000001
2013-11-05,1.1743730000000001
2013-11-06,1.172773
2013-11-07,1.173273
2013-11-08,1.1741730000000001
2013-11-11,1.1723729999999999
2013-11-12,1.1722730000000001
2013-11-13,1.1723729999999999
2013-11-14,1.173873
2013-11-15,1.174573
2013-11-18,1.175273
2013-11-19,1.1758730000000002
2013-11-20,1.175473
2013-11-21,1.173373
2013-11-22,1.172973
2013-11-25,1.1725729999999999
2013-11-26,1.173273
2013-11-27,1.1741730000000001
2013-11-28,1.173573
2013-11-29,1.175073
2013-11-30,1.175073
2013-12-02,1.175773
2013-12-03,1.174973
2013-12-04,1.174573
2013-12-05,1.172673
2013-12-06,1.1737730000000002
2013-12-09,1.174873
2013-12-10,1.174273
2013-12-11,1.1744729999999999
2013-12-12,1.1737730000000002
2013-12-13,1.173273
2013-12-16,1.174773
2013-12-17,1.175573
2013-12-18,1.175873
2013-12-19,1.1741730000000001
2013-12-20,1.175173
2013-12-23,1.174973
2013-12-24,1.174773
2013-12-27,1.175073
2013-12-30,1.175373
2013-12-31,1.175873
2014-01-03,1.175173
2014-01-06,1.1760730000000001
2014-01-07,1.177073
2014-01-08,1.177873
2014-01-09,1.177173
2014-01-10,1.1780730000000001
2014-01-13,1.179673
2014-01-14,1.179073
2014-01-15,1.179073
2014-01-16,1.1803730000000001
2014-01-17,1.1821730000000001
2014-01-20,1.182673
2014-01-21,1.181673
2014-01-22,1.181673
2014-01-23,1.181673
2014-01-24,1.183373
2014-01-27,1.183873
2014-01-28,1.183973
2014-01-29,1.182973
2014-01-30,1.185173
2014-01-31,1.183073
2014-02-03,1.183973
2014-02-04,1.185373
2014-02-05,1.184573
2014-02-07,1.184473
2014-02-10,1.185273
2014-02-11,1.184973
2014-02-12,1.184473
2014-02-13,1.184573
2014-02-14,1.185073
2014-02-17,1.185573
2014-02-18,1.186673
2014-02-19,1.187273
2014-02-20,1.187473
2014-02-21,1.186973
2014-02-24,1.188073
2014-02-25,1.187973
2014-02-26,1.188773
2014-02-27,1.1882730000000001
2014-02-28,1.188073
2014-03-03,1.188973
2014-03-04,1.189273
2014-03-05,1.188073
2014-03-06,1.186973
2014-03-07,1.185473
2014-03-10,1.186073
2014-03-11,1.186973
2014-03-12,1.187473
2014-03-13,1.186973
2014-03-14,1.188073
2014-03-17,1.188873
2014-03-18,1.186973
2014-03-19,1.187773
2014-03-20,1.186673
2014-03-21,1.186673
2014-03-24,1.187073
2014-03-25,1.187173
2014-03-26,1.186573
2014-03-27,1.187373
2014-03-28,1.187173
2014-03-31,1.187173
2014-04-01,1.1863730000000001
2014-04-02,1.185673
2014-04-03,1.185573
2014-04-04,1.185873
2014-04-07,1.187273
2014-04-08,1.187073
2014-04-09,1.187873
2014-04-10,1.187373
2014-04-11,1.187873
2014-04-14,1.189073
2014-04-15,1.189173
2014-04-16,1.190773
2014-04-17,1.190873
2014-04-22,1.189873
2014-04-23,1.190873
2014-04-24,1.1920730000000002
2014-04-28,1.1944730000000001
2014-04-29,1.194573
2014-04-30,1.195273
2014-05-01,1.1961730000000002
2014-05-02,1.1961730000000002
2014-05-05,1.197573
2014-05-06,1.197373
2014-05-07,1.199373
2014-05-08,1.200673
2014-05-09,1.201473
2014-05-12,1.201473
2014-05-13,1.199973
2014-05-14,1.2002730000000001
2014-05-15,1.201373
2014-05-16,1.2024730000000001
2014-05-19,1.203073
2014-05-20,1.203473
2014-05-21,1.2045730000000001
2014-05-22,1.202973
2014-05-23,1.203173
2014-05-26,1.2045730000000001
2014-05-27,1.205373
2014-05-28,1.205973
2014-05-29,1.208173
2014-05-30,1.2064730000000001
2014-05-31,1.2064730000000001
2014-06-03,1.205873
2014-06-04,1.203973
2014-06-05,1.2043730000000001
2014-06-06,1.204673
2014-06-09,1.2044730000000001
2014-06-10,1.203873
2014-06-11,1.203273
2014-06-12,1.200973
2014-06-13,1.2003730000000001
2014-06-16,1.2005730000000001
2014-06-17,1.201773
2014-06-18,1.200073
2014-06-19,1.202873
2014-06-20,1.203173
2014-06-23,1.202973
2014-06-24,1.2021730000000002
2014-06-25,1.202773
2014-06-26,1.201273
2014-06-27,1.202673
2014-06-30,1.203573
2014-07-01,1.2022730000000001
2014-07-02,1.203073
2014-07-03,1.202673
2014-07-04,1.202073
2014-07-07,1.201973
2014-07-08,1.201273
2014-07-09,1.202673
2014-07-10,1.203273
2014-07-11,1.204973
2014-07-14,1.204973
2014-07-15,1.2041730000000002
2014-07-16,1.206973
2014-07-17,1.207473
2014-07-18,1.209673
2014-07-21,1.209173
2014-07-22,1.210873
2014-07-23,1.211673
2014-07-24,1.2125730000000001
2014-07-25,1.211673
2014-07-28,1.2126730000000001
2014-07-29,1.2125730000000001
2014-07-30,1.213373
2014-07-31,1.212173
2014-08-01,1.212173
2014-08-04,1.213473
2014-08-05,1.213573
2014-08-06,1.212973
2014-08-07,1.213673
2014-08-08,1.216173
2014-08-11,1.2146730000000001
2014-08-12,1.215073
2014-08-13,1.215073
2014-08-14,1.2162730000000002
2014-08-15,1.217073
2014-08-18,1.218973
2014-08-19,1.217973
2014-08-20,1.2165730000000001
2014-08-21,1.215173
2014-08-22,1.215673
2014-08-25,1.2166730000000001
2014-08-26,1.218873
2014-08-27,1.219573
2014-08-28,1.220173
2014-08-29,1.2204730000000001
2014-08-31,1.2204730000000001
2014-09-01,1.2203730000000002
2014-09-02,1.2204730000000001
2014-09-03,1.2184730000000001
2014-09-04,1.2183730000000002
2014-09-05,1.217773
2014-09-08,1.2184730000000001
2014-09-09,1.217173
2014-09-10,1.2165730000000001
2014-09-11,1.2183730000000002
2014-09-12,1.217973
2014-09-15,1.2186730000000001
2014-09-16,1.220173
2014-09-17,1.2205730000000001
2014-09-18,1.219573
2014-09-19,1.218973
2014-09-22,1.2206730000000001
2014-09-23,1.221473
2014-09-24,1.221073
2014-09-25,1.221773
2014-09-26,1.223473
2014-09-29,1.223873
2014-09-30,1.223273
2014-10-01,1.223273
2014-10-02,1.225173
2014-10-03,1.224173
2014-10-06,1.224073
2014-10-07,1.224973
2014-10-08,1.226173
2014-10-09,1.227673
2014-10-10,1.227573
2014-10-13,1.229373
2014-10-14,1.229873
2014-10-15,1.2305730000000001
2014-10-16,1.232473
2014-10-17,1.2307730000000001
2014-10-20,1.229573
2014-10-21,1.230873
2014-10-22,1.2305730000000001
2014-10-23,1.232373
2014-10-24,1.231673
2014-10-28,1.232873
2014-10-29,1.232773
2014-10-30,1.232873
2014-10-31,1.233573
2014-11-03,1.234073
2014-11-04,1.234373
2014-11-05,1.233873
2014-11-06,1.233473
2014-11-07,1.232473
2014-11-10,1.234573
2014-11-11,1.233473
2014-11-12,1.232573
2014-11-13,1.231573
2014-11-14,1.232573
2014-11-17,1.233473
2014-11-18,1.233073
2014-11-19,1.233773
2014-11-20,1.233773
2014-11-21,1.234073
2014-11-24,1.234373
2014-11-25,1.236073
2014-11-26,1.237473
2014-11-27,1.238373
2014-11-28,1.239173
2014-11-30,1.239173
2014-12-01,1.240573
2014-12-02,1.239473
2014-12-03,1.239773
2014-12-04,1.240373
2014-12-05,1.241073
2014-12-08,1.240673
2014-12-09,1.241173
2014-12-10,1.241973
2014-12-11,1.2428730000000001
2014-12-12,1.243873
2014-12-15,1.245373
2014-12-16,1.245173
2014-12-17,1.246673
2014-12-18,1.245773
2014-12-19,1.244173
2014-12-22,1.245673
2014-12-23,1.245273
2014-12-24,1.244573
2014-12-29,1.245173
2014-12-30,1.247073
2014-12-31,1.248273
2015-01-05,1.250073
2015-01-06,1.2508730000000001
2015-01-07,1.252373
2015-01-08,1.251073
2015-01-09,1.250673
2015-01-10,1.2710730000000001
2015-01-12,1.252273
2015-01-13,1.254573
2015-01-14,1.255273
2015-01-15,1.255373
2015-01-16,1.257973
2015-01-19,1.258373
2015-01-20,1.257073
2015-01-21,1.258573
2015-01-22,1.2609730000000001
2015-01-23,1.260473
2015-01-26,1.260773
2015-01-27,1.262373
2015-01-28,1.262673
2015-01-29,1.266373
2015-01-30,1.266473
2015-01-31,1.266473
2015-02-02,1.267873
2015-02-03,1.267973
2015-02-04,1.266373
2015-02-05,1.267873
2015-02-09,1.264673
2015-02-10,1.264073
2015-02-11,1.2629730000000001
2015-02-12,1.263973
2015-02-13,1.265773
2015-02-16,1.264873
2015-02-17,1.2650730000000001
2015-02-18,1.262673
2015-02-19,1.263573
2015-02-20,1.2629730000000001
2015-02-23,1.262573
2015-02-24,1.264173
2015-02-25,1.264673
2015-02-26,1.266273
2015-02-27,1.265873
2015-02-28,1.265873
2015-03-02,1.266573
2015-03-03,1.266273
2015-03-04,1.264473
2015-03-05,1.264973
2015-03-06,1.265373
2015-03-09,1.263273
2015-03-10,1.263873
2015-03-11,1.265773
2015-03-12,1.266273
2015-03-13,1.265873
2015-03-16,1.266773
2015-03-17,1.268173
2015-03-18,1.268473
2015-03-19,1.271173
2015-03-20,1.270473
2015-03-23,1.270973
2015-03-24,1.271273
2015-03-25,1.2724730000000002
2015-03-26,1.271673
2015-03-27,1.269673
2015-03-30,1.2709730000000001
2015-03-31,1.271673
2015-04-01,1.2725730000000002
2015-04-02,1.273973
2015-04-07,1.275573
2015-04-08,1.2745730000000002
2015-04-09,1.2743730000000002
2015-04-10,1.2740730000000002
2015-04-13,1.275573
2015-04-14,1.2764730000000002
2015-04-15,1.2764730000000002
2015-04-16,1.2745730000000002
2015-04-17,1.275273
2015-04-20,1.2743730000000002
2015-04-21,1.2743730000000002
2015-04-22,1.273573
2015-04-23,1.2730730000000001
2015-04-24,1.273173
2015-04-28,1.273573
2015-04-29,1.273473
2015-04-30,1.2725730000000002
2015-05-01,1.2724730000000002
2015-05-04,1.2724730000000002
2015-05-05,1.271473
2015-05-06,1.271173
2015-05-07,1.269773
2015-05-08,1.271773
2015-05-11,1.2740730000000002
2015-05-12,1.2721730000000002
2015-05-13,1.271273
2015-05-14,1.269773
2015-05-15,1.271873
2015-05-18,1.273773
2015-05-19,1.2721730000000002
2015-05-20,1.271373
2015-05-21,1.271873
2015-05-22,1.2719730000000002
2015-05-25,1.271773
2015-05-26,1.271273
2015-05-27,1.2722730000000002
2015-05-28,1.273473
2015-05-29,1.2761730000000002
2015-05-31,1.2761730000000002
2015-06-02,1.2760730000000002
2015-06-03,1.2741730000000002
2015-06-04,1.2709730000000001
2015-06-05,1.2709730000000001
2015-06-08,1.269773
2015-06-09,1.271273
2015-06-10,1.2704730000000002
2015-06-12,1.2746730000000002
2015-06-15,1.275773
2015-06-16,1.2763730000000002
2015-06-17,1.2768730000000001
2015-06-18,1.281473
2015-06-19,1.2822730000000002
2015-06-22,1.2828730000000002
2015-06-23,1.2803730000000002
2015-06-24,1.279473
2015-06-25,1.2808730000000002
2015-06-26,1.2810730000000001
2015-06-29,1.283873
2015-06-30,1.2830730000000001
2015-07-01,1.282273
2015-07-02,1.284073
2015-07-03,1.285373
2015-07-06,1.287373
2015-07-07,1.288373
2015-07-08,1.291873
2015-07-09,1.291373
2015-07-10,1.288273
2015-07-13,1.287473
2015-07-14,1.286073
2015-07-15,1.2866730000000002
2015-07-16,1.291673
2015-07-17,1.291973
2015-07-20,1.2932730000000001
2015-07-21,1.2929730000000001
2015-07-22,1.293773
2015-07-23,1.294473
2015-07-24,1.296473
2015-07-27,1.298073
2015-07-28,1.296373
2015-07-29,1.2951730000000001
2015-07-30,1.293773
2015-07-31,1.2967730000000002
2015-08-03,1.297673
2015-08-04,1.2992730000000001
2015-08-05,1.297673
2015-08-06,1.296173
2015-08-07,1.2966730000000002
2015-08-10,1.297873
2015-08-11,1.298073
2015-08-12,1.3006730000000002
2015-08-13,1.2989730000000002
2015-08-14,1.2986730000000002
2015-08-17,1.2991730000000001
2015-08-18,1.2985730000000002
2015-08-19,1.297873
2015-08-20,1.300173
2015-08-21,1.301573
2015-08-24,1.303773
2015-08-25,1.301973
2015-08-26,1.302573
2015-08-27,1.301773
2015-08-28,1.3010730000000001
2015-09-01,1.3032730000000001
2015-09-02,1.301473
2015-09-03,1.3008730000000002
2015-09-04,1.3011730000000001
2015-09-07,1.3012730000000001
2015-09-08,1.3010730000000001
2015-09-09,1.299673
2015-09-10,1.302473
2015-09-11,1.3027730000000002
2015-09-14,1.303673
2015-09-15,1.3033730000000001
2015-09-16,1.301873
2015-09-17,1.300273
2015-09-18,1.302173
2015-09-21,1.304173
2015-09-22,1.3028730000000002
2015-09-23,1.305673
2015-09-24,1.3041730000000002
2015-09-25,1.3023730000000002
2015-09-28,1.3027730000000002
2015-09-29,1.3047730000000002
2015-09-30,1.3044730000000002
2015-10-01,1.3040730000000003
2015-10-02,1.303673
2015-10-05,1.3052730000000001
2015-10-06,1.303573
2015-10-07,1.3031730000000001
2015-10-08,1.3028730000000002
2015-10-09,1.3021730000000002
2015-10-12,1.301973
2015-10-13,1.3030730000000001
2015-10-14,1.303473
2015-10-15,1.305473
2015-10-16,1.3050730000000001
2015-10-19,1.3061730000000003
2015-10-20,1.3053730000000001
2015-10-21,1.303973
2015-10-22,1.3053730000000001
2015-10-23,1.305773
2015-10-27,1.305573
2015-10-28,1.307573
2015-10-29,1.3072730000000001
2015-10-30,1.305773
2015-10-31,1.305773
2015-11-02,1.305973
2015-11-03,1.303973
2015-11-04,1.3033730000000001
2015-11-05,1.3029730000000002
2015-11-06,1.3042730000000002
2015-11-09,1.3006730000000002
2015-11-10,1.2988730000000002
2015-11-11,1.3002730000000002
2015-11-12,1.2985730000000002
2015-11-13,1.2989730000000002
2015-11-16,1.3009730000000002
2015-11-17,1.3009730000000002
2015-11-18,1.3011730000000001
2015-11-19,1.3000730000000003
2015-11-20,1.3006730000000002
2015-11-23,1.3001730000000002
2015-11-24,1.3010730000000001
2015-11-25,1.3010730000000001
2015-11-26,1.3025730000000002
2015-11-27,1.3025730000000002
2015-11-30,1.3021730000000002
2015-12-01,1.301573
2015-12-02,1.3030730000000001
2015-12-03,1.3029730000000002
2015-12-04,1.3005730000000002
2015-12-07,1.3008730000000002
2015-12-08,1.3013730000000001
2015-12-09,1.301873
2015-12-10,1.301973
2015-12-11,1.3003730000000002
2015-12-14,1.301773
2015-12-15,1.2990730000000001
2015-12-16,1.2968730000000002
2015-12-17,1.297373
2015-12-18,1.299873
2015-12-21,1.299473
2015-12-22,1.298673
2015-12-23,1.297573
2015-12-24,1.2969730000000002
2015-12-29,1.298173
2015-12-30,1.298373
2015-12-31,1.298673
2016-01-05,1.3013730000000001
2016-01-06,1.304273
2016-01-07,1.306073
2016-01-08,1.3050730000000001
2016-01-11,1.3070730000000002
2016-01-12,1.306373
2016-01-13,1.3069730000000002
2016-01-14,1.3089730000000002
2016-01-15,1.308373
2016-01-18,1.310273
2016-01-19,1.310473
2016-01-20,1.313773
2016-01-21,1.311773
2016-01-22,1.3113730000000001
2016-01-25,1.311673
2016-01-26,1.311673
2016-01-27,1.311973
2016-01-28,1.312473
2016-01-29,1.3131730000000001
2016-01-31,1.3131730000000001
2016-02-01,1.3134730000000001
2016-02-02,1.314173
2016-02-03,1.316773
2016-02-04,1.3154730000000001
2016-02-05,1.315873
2016-02-09,1.319673
2016-02-10,1.318873
2016-02-11,1.319873
2016-02-12,1.320273
2016-02-15,1.318473
2016-02-16,1.317973
2016-02-17,1.318273
2016-02-18,1.3171730000000001
2016-02-19,1.319573
2016-02-22,1.3194730000000001
2016-02-23,1.320173
2016-02-24,1.322073
2016-02-25,1.3231730000000002
2016-02-26,1.324073
2016-02-29,1.324573
2016-03-01,1.325673
2016-03-02,1.322073
2016-03-03,1.3213730000000001
2016-03-04,1.320973
2016-03-07,1.320573
2016-03-08,1.321873
2016-03-09,1.3230730000000002
2016-03-10,1.3292730000000001
2016-03-11,1.326873
2016-03-14,1.3255730000000001
2016-03-15,1.3253730000000001
2016-03-16,1.324073
2016-03-17,1.326073
2016-03-18,1.327673
2016-03-21,1.327973
2016-03-22,1.3275730000000001
2016-03-23,1.326073
2016-03-24,1.326673
2016-03-29,1.326273
2016-03-30,1.330073
2016-03-31,1.3315730000000001
2016-04-01,1.330973
2016-04-04,1.334173
2016-04-05,1.334073
2016-04-06,1.334673
2016-04-07,1.334473
2016-04-08,1.3355730000000001
2016-04-11,1.335673
2016-04-12,1.334873
2016-04-13,1.332673
2016-04-14,1.334173
2016-04-15,1.333873
2016-04-18,1.335773
2016-04-19,1.334073
2016-04-20,1.3353730000000001
2016-04-21,1.334073
2016-04-22,1.334973
2016-04-26,1.3333730000000001
2016-04-27,1.334473
2016-04-28,1.3355730000000001
2016-04-29,1.335873
2016-04-30,1.335873
2016-05-02,1.335673
2016-05-03,1.3335730000000001
2016-05-04,1.3372730000000002
2016-05-05,1.3393730000000001
2016-05-06,1.343973
2016-05-09,1.3435730000000001
2016-05-10,1.3451730000000002
2016-05-11,1.344573
2016-05-12,1.3434730000000001
2016-05-13,1.342673
2016-05-16,1.344173
2016-05-17,1.342573
2016-05-18,1.342273
2016-05-19,1.3396730000000001
2016-05-20,1.340473
2016-05-23,1.3392730000000002
2016-05-24,1.340473
2016-05-25,1.340373
2016-05-26,1.3432730000000002
2016-05-27,1.345073
2016-05-30,1.343773
2016-05-31,1.3431730000000002
2016-06-01,1.342673
2016-06-02,1.343973
2016-06-03,1.3452730000000002
2016-06-07,1.347073
2016-06-08,1.3455730000000001
2016-06-09,1.3436730000000001
2016-06-10,1.344473
2016-06-13,1.346073
2016-06-14,1.348173
2016-06-15,1.3472730000000002
2016-06-16,1.348873
2016-06-17,1.348273
2016-06-20,1.3473730000000002
2016-06-21,1.346373
2016-06-22,1.3452730000000002
2016-06-23,1.344973
2016-06-24,1.3517730000000001
2016-06-27,1.351273
2016-06-28,1.3518730000000003
2016-06-29,1.351073
2016-06-30,1.3509730000000002
2016-07-01,1.352373
2016-07-04,1.3534730000000001
2016-07-05,1.354473
2016-07-06,1.3570730000000002
2016-07-07,1.356773
2016-07-08,1.355973
2016-07-11,1.355973
2016-07-12,1.3545730000000002
2016-07-13,1.3534730000000001
2016-07-14,1.3555730000000001
2016-07-15,1.3545730000000002
2016-07-18,1.3558730000000003
2016-07-19,1.3585730000000003
2016-07-20,1.3577730000000003
2016-07-21,1.360173
2016-07-22,1.3612730000000002
2016-07-25,1.3610730000000002
2016-07-26,1.3612730000000002
2016-07-27,1.3595730000000001
2016-07-28,1.360773
2016-07-29,1.3618730000000001
2016-07-31,1.3618730000000001
2016-08-01,1.3631730000000002
2016-08-02,1.3629730000000002
2016-08-03,1.3621730000000003
2016-08-04,1.362673
2016-08-05,1.3640730000000003
2016-08-08,1.3627730000000002
2016-08-09,1.364373
2016-08-10,1.3657730000000003
2016-08-11,1.366073
2016-08-12,1.3658730000000001
2016-08-15,1.367073
2016-08-16,1.3669730000000002
2016-08-17,1.3663730000000003
2016-08-18,1.3671730000000002
2016-08-19,1.3659730000000003
2016-08-22,1.3642730000000003
2016-08-23,1.365373
2016-08-24,1.3656730000000001
2016-08-25,1.3661730000000003
2016-08-26,1.3663730000000003
2016-08-29,1.3658730000000001
2016-08-30,1.3667730000000002
2016-08-31,1.366673
2016-09-01,1.366273
2016-09-02,1.366273
2016-09-05,1.3656730000000001
2016-09-06,1.3652730000000002
2016-09-07,1.367073
2016-09-08,1.3667730000000002
2016-09-09,1.364573
2016-09-12,1.3617730000000003
2016-09-13,1.3614730000000002
2016-09-14,1.359973
2016-09-15,1.3602730000000003
2016-09-16,1.359973
2016-09-19,1.3598730000000003
2016-09-20,1.359273
2016-09-21,1.3591730000000002
2016-09-22,1.362073
2016-09-23,1.3636730000000001
2016-09-26,1.3646730000000002
2016-09-28,1.3661730000000003
2016-09-29,1.3654730000000002
2016-09-30,1.3682730000000003
2016-10-03,1.3664730000000003
2016-10-04,1.3634730000000002
2016-10-05,1.3610730000000002
2016-10-06,1.3601730000000003
2016-10-07,1.3596730000000001
2016-10-10,1.3604730000000003
2016-10-11,1.3605730000000003
2016-10-12,1.3592730000000002
2016-10-13,1.3617730000000001
2016-10-14,1.3609730000000002
2016-10-17,1.3597730000000001
2016-10-18,1.3561730000000003
2016-10-19,1.3562730000000003
2016-10-20,1.3569730000000002
2016-10-21,1.3574730000000002
2016-10-25,1.3573730000000002
2016-10-27,1.3546730000000002
2016-10-28,1.3525730000000002
2016-10-31,1.3530730000000002
2016-11-02,1.3507730000000002
2016-11-03,1.3510730000000002
2016-11-04,1.3492730000000002
2016-11-07,1.3480730000000003
2016-11-08,1.3469730000000002
2016-11-09,1.3502730000000003
2016-11-10,1.3416730000000001
2016-11-14,1.3353730000000001
2016-11-15,1.3366730000000002
2016-11-16,1.3374730000000001
2016-11-17,1.3411730000000002
2016-11-18,1.3368730000000002
2016-11-21,1.3374730000000001
2016-11-22,1.3394730000000001
2016-11-23,1.3375730000000001
2016-11-24,1.3351730000000002
2016-11-25,1.335673
2016-11-28,1.3387730000000002
2016-11-29,1.3392730000000002
2016-11-30,1.337873
2016-12-01,1.335873
2016-12-02,1.3339730000000003
2016-12-05,1.3363730000000003
2016-12-07,1.3352730000000002
2016-12-08,1.3374730000000001
2016-12-09,1.3340730000000003
2016-12-12,1.3332730000000002
2016-12-13,1.333673
2016-12-14,1.333773
2016-12-15,1.3292730000000001
2016-12-16,1.328173
2016-12-19,1.3269730000000002
2016-12-20,1.327973
2016-12-21,1.3272730000000001
2016-12-22,1.3268730000000002
2016-12-23,1.3259730000000003
2016-12-28,1.3252730000000001
2016-12-29,1.3286730000000002
2016-12-30,1.3308730000000002
2017-01-04,1.3324730000000002
2017-01-05,1.3350730000000002
2017-01-06,1.3365730000000002
2017-01-09,1.3348730000000002
2017-01-10,1.3375730000000001
2017-01-11,1.3372730000000002
2017-01-12,1.339873
2017-01-13,1.3386730000000002
2017-01-16,1.3387730000000002
2017-01-17,1.3390730000000002
2017-01-18,1.3394730000000001
2017-01-19,1.3367730000000002
2017-01-20,1.335773
2017-01-23,1.336173
2017-01-24,1.3370730000000002
2017-01-25,1.336273
2017-01-26,1.3337730000000003
2017-01-27,1.3324730000000002
2017-01-30,1.3328730000000002
2017-01-31,1.333873
2017-02-01,1.334673
2017-02-02,1.3341730000000003
2017-02-03,1.3343730000000003
2017-02-07,1.3367730000000002
2017-02-08,1.337773
2017-02-09,1.3413730000000001
2017-02-10,1.340173
2017-02-14,1.340173
2017-02-15,1.3386730000000002
2017-02-16,1.3373730000000001
2017-02-17,1.338073
2017-02-20,1.3395730000000001
2017-02-21,1.339873
2017-02-22,1.339873
2017-02-23,1.3415730000000001
2017-02-24,1.3424730000000002
2017-02-27,1.3433730000000002
2017-02-28,1.3425730000000002
2017-03-01,1.3413730000000001
2017-03-02,1.3408730000000002
2017-03-03,1.3410730000000002
2017-03-06,1.3412730000000002
2017-03-07,1.3412730000000002
2017-03-08,1.3409730000000002
2017-03-09,1.3396730000000001
2017-03-10,1.3388730000000002
2017-03-15,1.3410730000000002
2017-03-16,1.3445730000000002
2017-03-17,1.3436730000000001
2017-03-20,1.345773
2017-03-21,1.346173
2017-03-23,1.3449730000000002
2017-03-24,1.3447730000000002
2017-03-27,1.3467730000000002
2017-03-28,1.3463730000000003
2017-03-29,1.3454730000000001
2017-03-30,1.3466730000000002
2017-03-31,1.346273
2017-04-03,1.3474730000000001
2017-04-04,1.349973
2017-04-05,1.349973
2017-04-06,1.3508730000000002
2017-04-07,1.352173
2017-04-10,1.3509730000000002
2017-04-11,1.3527730000000002
2017-04-12,1.3534730000000001
2017-04-13,1.3548730000000002
2017-04-18,1.353973
2017-04-19,1.3552730000000002
2017-04-20,1.354073
2017-04-21,1.3534730000000001
2017-04-24,1.351873
2017-04-26,1.352173
2017-04-27,1.3524730000000003
2017-04-28,1.3533730000000002
2017-05-01,1.353973
2017-05-02,1.353973
2017-05-03,1.3552730000000002
2017-05-04,1.354173
2017-05-05,1.3537730000000001
2017-05-08,1.3530730000000002
2017-05-09,1.352173
2017-05-10,1.3531730000000002
2017-05-11,1.356073
2017-05-12,1.3584730000000003
2017-05-15,1.360273
2017-05-16,1.359973
2017-05-17,1.3605730000000003
2017-05-18,1.361973
2017-05-19,1.362273
2017-05-22,1.3617730000000001
2017-05-23,1.3627730000000002
2017-05-24,1.362173
2017-05-25,1.3628730000000002
2017-05-26,1.364273
2017-05-29,1.3634730000000002
2017-05-30,1.364073
2017-05-31,1.3655730000000001
2017-06-01,1.3669730000000002
2017-06-02,1.365973
2017-06-06,1.3673730000000002
2017-06-07,1.368073
2017-06-08,1.3671730000000002
2017-06-09,1.3669730000000002
2017-06-12,1.3669730000000002
2017-06-13,1.3669730000000002
2017-06-14,1.3668730000000002
2017-06-15,1.3692730000000002
2017-06-16,1.3678730000000001
2017-06-19,1.3676730000000001
2017-06-20,1.3668730000000002
2017-06-21,1.3674730000000002
2017-06-22,1.367973
2017-06-23,1.3686730000000003
2017-06-26,1.3686730000000003
2017-06-27,1.3687730000000002
2017-06-28,1.3664730000000003
2017-06-29,1.364173
2017-06-30,1.3607730000000002
2017-07-03,1.3588730000000002
2017-07-04,1.360273
2017-07-05,1.361973
2017-07-06,1.3628730000000002
2017-07-07,1.360373
2017-07-10,1.360373
2017-07-11,1.3608730000000002
2017-07-12,1.362073
2017-07-13,1.363973
2017-07-14,1.3632730000000002
2017-07-17,1.364073
2017-07-18,1.3647730000000002
2017-07-19,1.3653730000000002
2017-07-20,1.3652730000000002
2017-07-21,1.3666730000000002
2017-07-24,1.3667730000000002
2017-07-25,1.3664730000000003
2017-07-26,1.3655730000000001
2017-07-27,1.3669730000000002
2017-07-28,1.3666730000000002
2017-07-31,1.3670730000000002
2017-08-01,1.3658730000000001
2017-08-02,1.3670730000000002
2017-08-03,1.3687730000000002
2017-08-04,1.3707730000000002
2017-08-07,1.370473
2017-08-08,1.372173
2017-08-09,1.3736730000000001
2017-08-10,1.372373
2017-08-11,1.3745730000000003
2017-08-14,1.373973
2017-08-15,1.3725730000000003
2017-08-16,1.372473
2017-08-17,1.3736730000000001
2017-08-18,1.374273
2017-08-21,1.3737730000000001
2017-08-22,1.3734730000000002
2017-08-23,1.3726730000000003
2017-08-24,1.3730730000000002
2017-08-25,1.3735730000000002
2017-08-28,1.3737730000000001
2017-08-29,1.3750730000000002
2017-08-30,1.3738730000000001
2017-08-31,1.3733730000000002
2017-09-01,1.374373
2017-09-04,1.376073
2017-09-05,1.3757730000000001
2017-09-06,1.3785730000000003
2017-09-07,1.3776730000000001
2017-09-08,1.3787730000000002
2017-09-11,1.3779730000000001
2017-09-12,1.378073
2017-09-13,1.3768730000000002
2017-09-14,1.3747730000000002
2017-09-15,1.3737730000000001
2017-09-18,1.371973
2017-09-19,1.3710730000000002
2017-09-20,1.370073
2017-09-21,1.3697730000000001
2017-09-22,1.3716730000000001
2017-09-25,1.3730730000000002
2017-09-26,1.3745730000000003
2017-09-27,1.3737730000000001
2017-09-28,1.3730730000000002
2017-09-29,1.3728730000000002
2017-10-02,1.372373
2017-10-03,1.3727730000000002
2017-10-04,1.3732730000000002
2017-10-05,1.374273
2017-10-06,1.3735730000000002
2017-10-09,1.3736730000000001
2017-10-10,1.3732730000000002
2017-10-11,1.3738730000000001
2017-10-12,1.3746730000000003
2017-10-13,1.3750730000000002
2017-10-16,1.376373
2017-10-17,1.376273
2017-10-18,1.3770730000000002
2017-10-19,1.376273
2017-10-20,1.3770730000000002
2017-10-24,1.3775730000000002
2017-10-25,1.3770730000000002
2017-10-26,1.3769730000000002
2017-10-27,1.376373
2017-10-30,1.378073
2017-10-31,1.3797730000000001
2017-11-01,1.3793730000000002
2017-11-02,1.3806730000000003
2017-11-03,1.3816730000000002
2017-11-06,1.3832730000000002
2017-11-07,1.3816730000000002
2017-11-08,1.3812730000000002
2017-11-09,1.3786730000000003
2017-11-10,1.3784730000000003
2017-11-13,1.3785730000000003
2017-11-14,1.3786730000000003
2017-11-15,1.380273
2017-11-16,1.3816730000000002
2017-11-17,1.3818730000000001
2017-11-20,1.3831730000000002
2017-11-21,1.3832730000000002
2017-11-22,1.384273
2017-11-23,1.3849730000000002
2017-11-24,1.3847730000000003
2017-11-27,1.384373
2017-11-28,1.3849730000000002
2017-11-29,1.386373
2017-11-30,1.3871730000000002
2017-12-01,1.3875730000000002
2017-12-04,1.3870730000000002
2017-12-05,1.3859730000000001
2017-12-06,1.3868730000000002
2017-12-07,1.3870730000000002
2017-12-08,1.3868730000000002
2017-12-11,1.3858730000000001
2017-12-12,1.3854730000000002
2017-12-13,1.386273
2017-12-14,1.3877730000000001
2017-12-15,1.388573
2017-12-18,1.3884730000000003
2017-12-19,1.388573
2017-12-20,1.388573
2017-12-21,1.3878730000000004
2017-12-22,1.3878730000000004
2017-12-27,1.3879730000000001
2017-12-28,1.388573
2017-12-29,1.3892730000000002
2018-01-03,1.388173
2018-01-04,1.388773
2018-01-05,1.3897730000000004
2018-01-08,1.3892730000000002
2018-01-09,1.388773
2018-01-10,1.3874730000000004
2018-01-11,1.387273
2018-01-12,1.3876730000000004
2018-01-15,1.387073
2018-01-16,1.387073
2018-01-17,1.3871730000000002
2018-01-18,1.3859730000000003
2018-01-19,1.3842730000000003
2018-01-22,1.3846730000000003
2018-01-23,1.384773
2018-01-24,1.3859730000000003
2018-01-25,1.3876730000000004
2018-01-26,1.3880730000000003
2018-01-29,1.3884730000000003
2018-01-30,1.3876730000000004
2018-01-31,1.3882730000000003
2018-02-01,1.3880730000000003
2018-02-02,1.3876730000000004
2018-02-05,1.386873
2018-02-07,1.3878730000000004
2018-02-08,1.3880730000000003
2018-02-09,1.3884730000000003
2018-02-12,1.3878730000000004
2018-02-13,1.3884730000000003
2018-02-14,1.3890730000000002
2018-02-15,1.3874730000000004
2018-02-16,1.388373
2018-02-19,1.389173
2018-02-20,1.388573
2018-02-21,1.3892730000000002
2018-02-22,1.3888730000000002
2018-02-23,1.389373
2018-02-26,1.3907730000000003
2018-02-27,1.390673
2018-02-28,1.3899730000000003
2018-03-01,1.3903730000000003
2018-03-02,1.3911730000000002
2018-03-05,1.3907730000000003
2018-03-06,1.3890730000000002
2018-03-07,1.389173
2018-03-08,1.389373
2018-03-09,1.3901730000000003
2018-03-12,1.3888730000000002
2018-03-13,1.388973
2018-03-14,1.390273
2018-03-15,1.3907730000000003
2018-03-16,1.3915730000000002
2018-03-19,1.391273
2018-03-20,1.3918730000000004
2018-03-21,1.391473
2018-03-22,1.392173
2018-03-23,1.3935730000000002
2018-03-26,1.3932730000000002
2018-03-27,1.3929730000000002
2018-03-28,1.3954730000000002
2018-03-29,1.3951730000000002
2018-04-03,1.3954730000000002
2018-04-04,1.3939730000000001
2018-04-05,1.3931730000000002
2018-04-06,1.3928730000000002
2018-04-09,1.3934730000000002
2018-04-10,1.3930730000000002
2018-04-11,1.3929730000000002
2018-04-12,1.3930730000000002
2018-04-13,1.3919730000000001
2018-04-16,1.3917730000000001
2018-04-17,1.392273
2018-04-18,1.3930730000000002
2018-04-19,1.392373
2018-04-20,1.3919730000000001
2018-04-23,1.3908730000000002
2018-04-24,1.3918730000000001
2018-04-26,1.3906730000000003
2018-04-27,1.392373
2018-04-30,1.3939730000000001
2018-05-01,1.3950730000000002
2018-05-02,1.3944730000000003
2018-05-03,1.3946730000000003
2018-05-04,1.3950730000000002
2018-05-07,1.3958730000000001
2018-05-08,1.396173
2018-05-09,1.3952730000000002
2018-05-10,1.3973730000000002
2018-05-11,1.398473
2018-05-14,1.3995730000000002
2018-05-15,1.3987730000000003
2018-05-16,1.3971730000000002
2018-05-17,1.3960730000000001
2018-05-18,1.3955730000000002
2018-05-21,1.3971730000000002
2018-05-22,1.3972730000000002
2018-05-23,1.3985730000000003
2018-05-24,1.3994730000000002
2018-05-25,1.3995730000000002
2018-05-28,1.4001730000000001
2018-05-29,1.400273
2018-05-30,1.4009730000000002
2018-05-31,1.4006730000000003
2018-06-01,1.4000730000000001
2018-06-05,1.3992730000000002
2018-06-06,1.3988730000000003
2018-06-07,1.3971730000000002
2018-06-08,1.398273
2018-06-11,1.398473
2018-06-12,1.3985730000000003
2018-06-13,1.398473
2018-06-14,1.3994730000000002
2018-06-15,1.4005730000000003
2018-06-18,1.4011730000000002
2018-06-19,1.4021730000000001
2018-06-20,1.4015730000000002
2018-06-21,1.400573
2018-06-22,1.4014730000000002
2018-06-25,1.4020730000000001
2018-06-26,1.402673
2018-06-27,1.403473
2018-06-28,1.4052730000000002
2018-06-29,1.406473
2018-07-02,1.4069730000000003
2018-07-03,1.4076730000000004
2018-07-04,1.4076730000000004
2018-07-05,1.4075730000000002
2018-07-06,1.4063730000000003
2018-07-09,1.4063730000000003
2018-07-10,1.4056730000000002
2018-07-11,1.4060730000000001
2018-07-12,1.4063730000000003
2018-07-13,1.406873
2018-07-16,1.4080730000000004
2018-07-17,1.4058730000000002
2018-07-18,1.4071730000000002
2018-07-19,1.4078730000000004
2018-07-20,1.408973
2018-07-23,1.408373
2018-07-24,1.4077730000000002
2018-07-25,1.4082730000000003
2018-07-26,1.4084730000000003
2018-07-27,1.4095730000000004
2018-07-30,1.4097730000000004
2018-07-31,1.409173
2018-08-01,1.4090730000000002
2018-08-02,1.408573
2018-08-03,1.409173
2018-08-06,1.4107730000000003
2018-08-07,1.411473
2018-08-08,1.4111730000000002
2018-08-09,1.4156730000000004
2018-08-10,1.418873
2018-08-13,1.4189730000000003
2018-08-14,1.4181730000000003
2018-08-15,1.4185730000000003
2018-08-16,1.4181730000000003
2018-08-17,1.4179730000000004
2018-08-20,1.4185730000000003
2018-08-21,1.4185730000000003
2018-08-22,1.4189730000000003
2018-08-23,1.4193730000000002
2018-08-24,1.4195730000000002
2018-08-27,1.4193730000000002
2018-08-28,1.419073
2018-08-29,1.419073
2018-08-30,1.421573
2018-08-31,1.4219730000000004
2018-09-03,1.422873
2018-09-04,1.423073
2018-09-05,1.4227730000000003
2018-09-06,1.4235730000000002
2018-09-07,1.4236730000000004
2018-09-10,1.423073
2018-09-11,1.4231730000000002
2018-09-12,1.4229730000000003
2018-09-13,1.423473
2018-09-14,1.4236730000000004
2018-09-17,1.4231730000000002
2018-09-18,1.4220730000000001
2018-09-19,1.421173
2018-09-20,1.4196730000000004
2018-09-21,1.4196730000000004
2018-09-24,1.4199730000000002
2018-09-25,1.419473
2018-09-26,1.4193730000000002
2018-09-27,1.4202730000000003
2018-09-28,1.4210730000000003
2018-10-01,1.4215730000000004
2018-10-02,1.4214730000000002
2018-10-03,1.422873
2018-10-04,1.4220730000000001
2018-10-05,1.4223730000000003
2018-10-08,1.421373
2018-10-09,1.421373
2018-10-10,1.4216730000000002
2018-10-11,1.4222730000000001
2018-10-12,1.4215730000000004
2018-10-15,1.422873
2018-10-16,1.4214730000000002
2018-10-17,1.4220730000000001
2018-10-18,1.4217730000000004
2018-10-19,1.422473
2018-10-23,1.422873
2018-10-24,1.4235730000000002
2018-10-25,1.425373
2018-10-26,1.4261730000000004
2018-10-29,1.4271730000000002
2018-10-30,1.427073
2018-10-31,1.4261730000000004
2018-11-01,1.4250730000000003
2018-11-02,1.4243730000000001
2018-11-05,1.423073
2018-11-06,1.4229730000000003
2018-11-07,1.4183730000000003
2018-11-08,1.4161730000000001
2018-11-09,1.415273
2018-11-12,1.415473
2018-11-13,1.4157730000000002
2018-11-14,1.4164730000000003
2018-11-15,1.417173
2018-11-16,1.4182730000000001
2018-11-19,1.4196730000000004
2018-11-20,1.418873
2018-11-21,1.4191730000000002
2018-11-22,1.4199730000000002
2018-11-23,1.420773
2018-11-26,1.4214730000000002
2018-11-27,1.4221730000000004
2018-11-28,1.423073
2018-11-29,1.4235730000000002
2018-11-30,1.4242730000000003
2018-12-03,1.4237730000000002
2018-12-04,1.4256730000000002
2018-12-05,1.4269730000000003
2018-12-06,1.4278730000000004
2018-12-07,1.4282730000000003
2018-12-10,1.429373
2018-12-11,1.4294730000000002
2018-12-12,1.4288730000000003
2018-12-13,1.4278730000000002
2018-12-14,1.4283730000000001
2018-12-17,1.4290730000000003
2018-12-18,1.4295730000000002
2018-12-19,1.4302730000000001
2018-12-20,1.4339730000000002
2018-12-21,1.4330730000000003
2018-12-24,1.4331730000000003
2018-12-27,1.4329730000000003
2018-12-28,1.4335730000000002
2018-12-31,1.4345730000000003
2019-01-03,1.4375730000000002
2019-01-04,1.4366730000000003
2019-01-07,1.4353730000000002
2019-01-08,1.4351730000000003
2019-01-09,1.4347730000000003
2019-01-10,1.4368730000000003
2019-01-11,1.4366730000000003
2019-01-14,1.4376730000000002
2019-01-15,1.4381730000000001
2019-01-16,1.4394730000000002
2019-01-17,1.4390730000000003
2019-01-18,1.4376730000000002
2019-01-21,1.4379730000000002
2019-01-22,1.4377730000000002
2019-01-23,1.4375730000000002
2019-01-24,1.4379730000000002
2019-01-25,1.4393730000000002
2019-01-28,1.4396730000000002
2019-01-29,1.4391730000000003
2019-01-30,1.4390730000000003
2019-01-31,1.4408730000000003
