Date,Price
2007-10-01,1.0
2007-10-16,1.0
2007-10-17,1.0012
2007-10-18,1.0037
2007-10-19,1.00271
2007-10-23,1.003
2007-10-24,1.0023
2007-10-25,1.0005
2007-10-26,1.0004
2007-10-29,1.002
2007-10-30,1.0029
2007-10-31,1.0038
2007-11-01,1.0008
2007-11-02,1.005
2007-11-05,1.0069
2007-11-06,1.0081
2007-11-07,1.0088
2007-11-08,1.0084
2007-11-09,1.0089
2007-11-12,1.0076
2007-11-13,1.0087
2007-11-14,1.012
2007-11-15,1.0125
2007-11-16,1.0107
2007-11-19,1.0126
2007-11-20,1.0096
2007-11-21,1.0093
2007-11-22,1.0072
2007-11-23,1.0079
2007-11-26,1.0095
2007-11-27,1.005
2007-11-28,1.008
2007-11-29,1.0086
2007-11-30,1.0099
2007-12-03,1.0114
2007-12-04,1.012
2007-12-05,1.0144
2007-12-06,1.013
2007-12-07,1.0121
2007-12-10,1.008
2007-12-11,1.0067
2007-12-12,1.0134
2007-12-13,1.0114
2007-12-14,1.007
2007-12-17,1.0089
2007-12-18,1.0104
2007-12-19,1.0102
2007-12-20,1.0105
2007-12-21,1.0129
2007-12-24,1.0143
2007-12-27,1.0143
2007-12-28,1.017
2007-12-31,1.0282441
2008-01-03,1.0147441
2008-01-04,1.0144441
2008-01-07,1.0149441000000001
2008-01-08,1.0141441
2008-01-09,1.0130441000000001
2008-01-10,1.0149441000000001
2008-01-11,1.0163441
2008-01-14,1.0162441
2008-01-15,1.0171441
2008-01-16,1.0139441
2008-01-17,1.0174441
2008-01-18,1.0148441000000001
2008-01-21,1.0164441
2008-01-22,1.0119441
2008-01-23,1.0052441
2008-01-24,1.0100441
2008-01-25,1.0138441
2008-01-29,1.0144441
2008-01-30,1.0158441
2008-01-31,1.0164441
2008-02-01,1.0180441
2008-02-04,1.0193441
2008-02-05,1.0199441
2008-02-07,1.0206441
2008-02-08,1.0222441
2008-02-11,1.0232441
2008-02-12,1.0250441000000001
2008-02-13,1.0251441000000001
2008-02-14,1.0232441
2008-02-15,1.0223441
2008-02-18,1.0242441
2008-02-19,1.0229441000000001
2008-02-20,1.0220441
2008-02-21,1.0126441
2008-02-22,1.0158441
2008-02-25,1.0172441
2008-02-26,1.0179441
2008-02-27,1.0201441
2008-02-28,1.0210441000000001
2008-02-29,1.0039441
2008-03-03,0.9990441
2008-03-04,1.0015441
2008-03-05,1.0040441
2008-03-06,1.0067441
2008-03-07,1.0039441
2008-03-10,1.0044441
2008-03-11,1.0025441
2008-03-12,1.0050440999999999
2008-03-13,1.0054441
2008-03-14,1.0079441
2008-03-17,1.0028441
2008-03-18,1.0037441
2008-03-19,1.0083441
2008-03-20,1.0074441
2008-03-25,1.0136441
2008-03-26,1.0151441
2008-03-27,1.0178441
2008-03-28,1.0187441
2008-03-31,1.0526497
2008-04-01,1.0242497
2008-04-02,1.0255497
2008-04-03,1.0256497
2008-04-04,1.0260497
2008-04-07,1.0277497
2008-04-08,1.0279497
2008-04-09,1.0282497
2008-04-10,1.0290496999999998
2008-04-11,1.0308496999999999
2008-04-14,1.0319497
2008-04-15,1.0326497
2008-04-16,1.0329496999999999
2008-04-17,1.0321497
2008-04-18,1.0321497
2008-04-21,1.0328496999999999
2008-04-22,1.0347496999999999
2008-04-23,1.0354497
2008-04-24,1.0352497
2008-04-28,1.0328496999999999
2008-04-29,1.0361497
2008-04-30,1.0375497
2008-05-01,1.0383497
2008-05-02,1.0389496999999999
2008-05-05,1.0408497
2008-05-06,1.0418497
2008-05-07,1.0412497
2008-05-08,1.0457497
2008-05-09,1.0462497
2008-05-12,1.0476497
2008-05-13,1.0487497000000001
2008-05-14,1.0487497000000001
2008-05-15,1.0511497
2008-05-16,1.0518497
2008-05-19,1.0529497
2008-05-20,1.0534497
2008-05-21,1.0535497
2008-05-22,1.0538497
2008-05-23,1.0532497
2008-05-26,1.0549497
2008-05-27,1.0560497
2008-05-28,1.0563497
2008-05-29,1.0555497
2008-05-31,1.0552497
2008-06-03,1.0578497
2008-06-04,1.0581497
2008-06-05,1.0597497
2008-06-06,1.0601497
2008-06-09,1.0616497
2008-06-10,1.0632497
2008-06-11,1.0633497
2008-06-12,1.0645497
2008-06-13,1.0592497
2008-06-16,1.0631497
2008-06-17,1.0622497
2008-06-18,1.0636497
2008-06-19,1.0632497
2008-06-20,1.0632497
2008-06-23,1.0653497
2008-06-24,1.0660497
2008-06-25,1.0652497
2008-06-26,1.0632497
2008-06-27,1.0630497
2008-06-30,1.1037817
2008-07-01,1.0608817
2008-07-02,1.0609817
2008-07-03,1.0613817
2008-07-04,1.0624817
2008-07-07,1.0645817
2008-07-08,1.0633817
2008-07-09,1.0641817
2008-07-10,1.0641817
2008-07-11,1.0648817
2008-07-14,1.0675817
2008-07-15,1.0682817
2008-07-16,1.0687817
2008-07-17,1.0695817
2008-07-18,1.0698817
2008-07-21,1.0689817
2008-07-22,1.0695817
2008-07-23,1.0703817
2008-07-24,1.0707817
2008-07-25,1.0717817
2008-07-28,1.0726817
2008-07-29,1.0740817
2008-07-30,1.0748817
2008-07-31,1.0767817
2008-08-01,1.0764817
2008-08-04,1.0777817
2008-08-05,1.0779817
2008-08-06,1.0788817
2008-08-07,1.0798817
2008-08-08,1.0798817
2008-08-11,1.0809817
2008-08-12,1.0817817
2008-08-13,1.0811817
2008-08-14,1.0825817
2008-08-15,1.0826817
2008-08-18,1.0832817
2008-08-19,1.0829817
2008-08-20,1.0855817
2008-08-21,1.0859817
2008-08-22,1.0869817000000002
2008-08-25,1.0885817
2008-08-26,1.0888817
2008-08-27,1.0894817
2008-08-28,1.0889817000000002
2008-08-31,1.0897817
2008-09-01,1.0903817
2008-09-02,1.0909817000000002
2008-09-03,1.0913817000000001
2008-09-04,1.0917817
2008-09-05,1.0902817
2008-09-08,1.0931817000000001
2008-09-09,1.0945817
2008-09-10,1.0948817
2008-09-11,1.0964817
2008-09-12,1.0976817
2008-09-15,1.0970817000000002
2008-09-16,1.0917817
2008-09-17,1.0984817
2008-09-18,1.0960817
2008-09-19,1.0966817
2008-09-22,1.0883817
2008-09-23,1.0898817
2008-09-24,1.0913817000000001
2008-09-25,1.0922817
2008-09-26,1.0939817
2008-09-29,1.0933817000000001
2008-09-30,1.0928587
2008-10-01,1.0993487
2008-10-02,1.1001487
2008-10-03,1.0972487
2008-10-06,1.0940487
2008-10-07,1.0901486999999999
2008-10-08,1.0899486999999999
2008-10-09,1.0914487
2008-10-10,1.0922486999999999
2008-10-13,1.0843487
2008-10-14,1.0720486999999999
2008-10-15,1.0804487
2008-10-16,1.0814487
2008-10-17,1.0844487
2008-10-20,1.0850487
2008-10-21,1.0880486999999999
2008-10-22,1.0903487
2008-10-23,1.0899486999999999
2008-10-24,1.0922486999999999
2008-10-28,1.0930487
2008-10-29,1.0893487
2008-10-30,1.0879486999999999
2008-10-31,1.0838486999999999
2008-11-03,1.0807487
2008-11-04,1.0875487
2008-11-05,1.0952487
2008-11-06,1.0959487
2008-11-07,1.0993487
2008-11-10,1.0996487
2008-11-11,1.1024487
2008-11-12,1.1038487
2008-11-13,1.1096487
2008-11-14,1.1095487
2008-11-17,1.1156487
2008-11-18,1.1136487
2008-11-19,1.1059487
2008-11-20,1.0937487
2008-11-21,1.0683487
2008-11-24,1.0809487
2008-11-25,1.0819486999999999
2008-11-26,1.0783487
2008-11-27,1.0710487
2008-11-30,1.0705887
2008-12-01,1.0681486999999998
2008-12-02,1.0479486999999998
2008-12-03,1.0480487
2008-12-04,1.0493487
2008-12-05,1.0476486999999999
2008-12-08,1.0446487
2008-12-09,1.0404487
2008-12-10,1.0482487
2008-12-11,1.0518486999999999
2008-12-12,1.0571487
2008-12-15,1.0582487
2008-12-16,1.0614487
2008-12-17,1.0558486999999999
2008-12-18,1.0521487
2008-12-19,1.0469487
2008-12-22,1.0512487
2008-12-23,1.0528487
2008-12-24,1.0527487
2008-12-29,1.0551487
2008-12-30,1.0523487
2008-12-31,1.0510067
2009-01-05,1.0620067
2009-01-06,1.0584067
2009-01-07,1.0607067000000001
2009-01-08,1.0610067
2009-01-09,1.0651067
2009-01-12,1.0673067
2009-01-13,1.0694067
2009-01-14,1.0709067
2009-01-15,1.0717067
2009-01-16,1.0735067
2009-01-19,1.0761067
2009-01-20,1.0740067
2009-01-21,1.0761067
2009-01-22,1.0713067
2009-01-23,1.0702067
2009-01-27,1.0689067
2009-01-28,1.0739067
2009-01-29,1.0694067
2009-01-30,1.0572067
2009-01-31,1.0573067
2009-02-02,1.0596067
2009-02-03,1.0677067
2009-02-04,1.0587067000000001
2009-02-05,1.0567067
2009-02-09,1.0502067
2009-02-10,1.0481067
2009-02-11,1.0625067
2009-02-12,1.0657067
2009-02-13,1.0657067
2009-02-16,1.0661067
2009-02-17,1.0691067
2009-02-18,1.0707067000000001
2009-02-19,1.0708067000000001
2009-02-20,1.0725067
2009-02-23,1.0749067
2009-02-24,1.0760067
2009-02-25,1.0771067
2009-02-26,1.0754067
2009-02-27,1.0746067
2009-02-28,1.0748067000000001
2009-03-02,1.0768067000000001
2009-03-03,1.0782067
2009-03-04,1.0778067
2009-03-05,1.0744067
2009-03-06,1.0736067
2009-03-09,1.0757067
2009-03-10,1.0770067
2009-03-11,1.0781067
2009-03-12,1.0765067
2009-03-13,1.0774067
2009-03-16,1.0813067
2009-03-17,1.0837067
2009-03-18,1.0853067
2009-03-19,1.0764067
2009-03-20,1.0773067
2009-03-23,1.0790067
2009-03-24,1.0800067
2009-03-25,1.0803067
2009-03-26,1.0666067000000001
2009-03-27,1.0717067
2009-03-30,1.0744067
2009-03-31,1.0748067000000001
2009-04-01,1.0761067
2009-04-02,1.0767067000000001
2009-04-03,1.0766067
2009-04-06,1.0721067
2009-04-07,1.0720067
2009-04-08,1.0751067
2009-04-09,1.0743067
2009-04-14,1.0773067
2009-04-15,1.0788067000000001
2009-04-16,1.0827067000000001
2009-04-17,1.0832067
2009-04-20,1.0839067
2009-04-21,1.0848067000000001
2009-04-22,1.0852067
2009-04-23,1.0865067
2009-04-24,1.0867067
2009-04-27,1.0886067
2009-04-28,1.0900067
2009-04-29,1.0889067000000001
2009-04-30,1.0891067
2009-05-01,1.0883067
2009-05-04,1.0883067
2009-05-05,1.0901067
2009-05-06,1.0919067
2009-05-07,1.0903067
2009-05-08,1.0832067
2009-05-11,1.0882067
2009-05-12,1.0889067000000001
2009-05-13,1.0903067
2009-05-14,1.0871067
2009-05-15,1.0886067
2009-05-18,1.0945067
2009-05-19,1.0959067
2009-05-20,1.0963067
2009-05-21,1.0948067000000001
2009-05-22,1.0924067
2009-05-25,1.0920067
2009-05-26,1.0932067
2009-05-27,1.0911067
2009-05-28,1.0761067
2009-05-29,1.0829067
2009-05-31,1.0836067
2009-06-02,1.0870067
2009-06-03,1.0897067
2009-06-04,1.0907067
2009-06-05,1.0914067
2009-06-08,1.0845067
2009-06-09,1.0897067
2009-06-10,1.0924067
2009-06-11,1.0901067
2009-06-12,1.0944067
2009-06-15,1.0968067000000001
2009-06-16,1.0923067
2009-06-17,1.0919067
2009-06-18,1.0939067
2009-06-19,1.0950067
2009-06-22,1.0993067
2009-06-23,1.1005067
2009-06-24,1.0999067
2009-06-25,1.1016067
2009-06-26,1.1018067
2009-06-29,1.1055067
2009-06-30,1.1008067
2009-07-01,1.1038067
2009-07-02,1.1044067
2009-07-03,1.1060067
2009-07-06,1.1063067
2009-07-07,1.1087067
2009-07-08,1.1090067000000001
2009-07-09,1.1023067
2009-07-10,1.1053067
2009-07-13,1.1033067
2009-07-14,1.1077067
2009-07-15,1.1101067
2009-07-16,1.1087067
2009-07-17,1.1094067
2009-07-20,1.1088067
2009-07-21,1.1107067
2009-07-22,1.1117067
2009-07-23,1.1145067
2009-07-24,1.1131067
2009-07-27,1.1147067
2009-07-28,1.1153066999999999
2009-07-29,1.1173066999999999
2009-07-30,1.1201067
2009-07-31,1.1215067
2009-08-03,1.1213066999999999
2009-08-04,1.1245067
2009-08-05,1.1248067
2009-08-06,1.1215067
2009-08-07,1.1219067
2009-08-10,1.1208067
2009-08-11,1.1244067
2009-08-12,1.1225067
2009-08-13,1.1300067
2009-08-14,1.1293066999999999
2009-08-17,1.1286067
2009-08-18,1.1275066999999999
2009-08-19,1.1291067
2009-08-20,1.1229067
2009-08-21,1.1224067
2009-08-24,1.1268067
2009-08-25,1.1273066999999999
2009-08-26,1.1273066999999999
2009-08-27,1.1339067
2009-08-28,1.1353067
2009-08-31,1.1372067
2009-09-01,1.1380067
2009-09-02,1.1377067
2009-09-03,1.1349067
2009-09-04,1.1371067
2009-09-07,1.1403067
2009-09-08,1.1416066999999999
2009-09-09,1.1417067
2009-09-10,1.1418067
2009-09-11,1.1423067
2009-09-14,1.1436066999999999
2009-09-15,1.1445067
2009-09-16,1.1444067
2009-09-17,1.1456066999999999
2009-09-18,1.1464067
2009-09-21,1.1476066999999999
2009-09-22,1.1490067
2009-09-23,1.1497066999999999
2009-09-24,1.1477067
2009-09-25,1.1486067
2009-09-28,1.1500067
2009-09-29,1.1514067
2009-09-30,1.1496066999999999
2009-10-01,1.1492067
2009-10-02,1.1466067
2009-10-05,1.1530067
2009-10-06,1.1539067
2009-10-07,1.1558067
2009-10-08,1.1557066999999999
2009-10-09,1.1570067
2009-10-12,1.1554067
2009-10-13,1.1572067
2009-10-14,1.1584067
2009-10-15,1.1567067
2009-10-16,1.1565067
2009-10-19,1.1597066999999999
2009-10-20,1.1612067
2009-10-21,1.1623067
2009-10-22,1.1621067
2009-10-23,1.1620067
2009-10-27,1.1582067
2009-10-28,1.1625067
2009-10-29,1.1640067
2009-10-30,1.1632067
2009-10-31,1.1633067
2009-11-02,1.1662067
2009-11-03,1.1676066999999999
2009-11-04,1.1685067
2009-11-05,1.1705067
2009-11-06,1.1655067
2009-11-09,1.1691067
2009-11-10,1.1729067
2009-11-11,1.1735067
2009-11-12,1.1738066999999999
2009-11-13,1.1741067
2009-11-16,1.1752067
2009-11-17,1.1745067
2009-11-18,1.1751067
2009-11-19,1.1780067
2009-11-20,1.1787067
2009-11-23,1.1802067
2009-11-24,1.1805067
2009-11-25,1.1805067
2009-11-26,1.1808067
2009-11-27,1.1812067
2009-11-30,1.1815067
2009-12-01,1.1808067
2009-12-02,1.1831067
2009-12-03,1.1823067
2009-12-04,1.1815067
2009-12-07,1.1797066999999999
2009-12-08,1.1820067
2009-12-09,1.1823067
2009-12-10,1.1820067
2009-12-11,1.1827067
2009-12-14,1.1829067
2009-12-15,1.1829067
2009-12-16,1.1821067
2009-12-17,1.1821067
2009-12-18,1.1808067
2009-12-21,1.1846067
2009-12-22,1.1792067
2009-12-23,1.1752067
2009-12-24,1.1782067
2009-12-29,1.1744067
2009-12-30,1.1780067
2009-12-31,1.1800067
2010-01-05,1.1816067
2010-01-06,1.1861067
2010-01-07,1.1910067
2010-01-08,1.1927067
2010-01-11,1.1953067
2010-01-12,1.1971067
2010-01-13,1.1981066999999999
2010-01-14,1.2013067
2010-01-15,1.2017067
2010-01-18,1.2011067
2010-01-19,1.2016067
2010-01-20,1.2033067
2010-01-21,1.2030067
2010-01-22,1.2013067
2010-01-25,1.2033067
2010-01-26,1.2041066999999999
2010-01-27,1.2047067
2010-01-28,1.2062067
2010-01-29,1.2092067
2010-01-31,1.2095067
2010-02-02,1.2103067
2010-02-03,1.2111067
2010-02-04,1.2102067
2010-02-05,1.2113067
2010-02-08,1.2119067
2010-02-09,1.2127067
2010-02-10,1.2138067
2010-02-11,1.2088067
2010-02-12,1.2087067
2010-02-15,1.2102067
2010-02-16,1.2109067
2010-02-17,1.2114067
2010-02-18,1.2093067
2010-02-19,1.2078067
2010-02-22,1.2097067
2010-02-23,1.2104067
2010-02-24,1.2110067
2010-02-25,1.2115067
2010-02-26,1.2125067
2010-02-28,1.2128067
2010-03-01,1.2134067
2010-03-02,1.2137067
2010-03-03,1.2140066999999999
2010-03-04,1.2152067
2010-03-05,1.2154067
2010-03-08,1.2173067
2010-03-09,1.2172067
2010-03-10,1.2178067
2010-03-11,1.2184067
2010-03-12,1.2187067
2010-03-15,1.2198067
2010-03-16,1.2203067
2010-03-17,1.2206067
2010-03-18,1.2132067
2010-03-19,1.2137067
2010-03-22,1.2146067
2010-03-23,1.2150067
2010-03-24,1.2156067
2010-03-25,1.2148067
2010-03-26,1.2140066999999999
2010-03-29,1.2171067
2010-03-30,1.2171067
2010-03-31,1.2171577
2010-04-01,1.2181577
2010-04-06,1.2148577
2010-04-07,1.2166577
2010-04-08,1.2299577
2010-04-09,1.2307577
2010-04-12,1.2327577
2010-04-13,1.2329577
2010-04-14,1.2325576999999999
2010-04-15,1.2269577
2010-04-16,1.2275577
2010-04-19,1.2272577
2010-04-20,1.2284576999999999
2010-04-21,1.2291577
2010-04-22,1.2262577
2010-04-23,1.2276577
2010-04-26,1.2288577
2010-04-27,1.2293577
2010-04-28,1.2278577
2010-04-29,1.2296577
2010-04-30,1.2303576999999999
2010-05-03,1.2300577
2010-05-04,1.2311577
2010-05-05,1.2288577
2010-05-06,1.2255577
2010-05-07,1.2138577
2010-05-10,1.2170577
2010-05-11,1.2189577
2010-05-12,1.2201577
2010-05-13,1.2173577
2010-05-14,1.2194577
2010-05-17,1.2165576999999999
2010-05-18,1.2222577
2010-05-19,1.2122576999999999
2010-05-20,1.2142576999999999
2010-05-21,1.2090577
2010-05-24,1.2079577
2010-05-25,1.2090577
2010-05-26,1.2056577
2010-05-27,1.2088577
2010-05-28,1.2029577
2010-05-31,1.2073577
2010-06-01,1.2086577
2010-06-02,1.2113577
2010-06-03,1.2097577
2010-06-04,1.2099577
2010-06-08,1.2164576999999999
2010-06-09,1.2170577
2010-06-10,1.2171577
2010-06-11,1.2183576999999999
2010-06-14,1.2214577
2010-06-15,1.2235577
2010-06-16,1.2226577
2010-06-17,1.2248577
2010-06-18,1.2255577
2010-06-21,1.2268577
2010-06-22,1.2284576999999999
2010-06-23,1.2254577
2010-06-24,1.2260577
2010-06-25,1.2278577
2010-06-28,1.2292577
2010-06-29,1.2279577
2010-06-30,1.2236577
2010-07-01,1.2239577
2010-07-02,1.2238577
2010-07-05,1.2266577
2010-07-06,1.2279577
2010-07-07,1.2280577
2010-07-08,1.2293577
2010-07-09,1.2296577
2010-07-12,1.2312577
2010-07-13,1.2355577
2010-07-14,1.2348577
2010-07-15,1.2363577
2010-07-16,1.2359577
2010-07-19,1.2361577
2010-07-20,1.2409577
2010-07-21,1.2403577
2010-07-22,1.2360577
2010-07-23,1.2392577
2010-07-26,1.2435577
2010-07-27,1.2443577
2010-07-28,1.2454577
2010-07-29,1.2474577
2010-07-30,1.2483577
2010-07-31,1.2484577
2010-08-02,1.2471577
2010-08-03,1.2462577
2010-08-04,1.2458577
2010-08-05,1.2494577
2010-08-06,1.2476577
2010-08-09,1.2474577
2010-08-10,1.2471577
2010-08-11,1.2450577
2010-08-12,1.2401577
2010-08-13,1.2464577
2010-08-16,1.2392577
2010-08-17,1.2327577
2010-08-18,1.2373577
2010-08-19,1.2408577
2010-08-20,1.2395577
2010-08-23,1.2412577
2010-08-24,1.2425576999999999
2010-08-25,1.2411577
2010-08-26,1.2411577
2010-08-27,1.2418577
2010-08-30,1.2378577
2010-08-31,1.2575577
2010-09-01,1.2568576999999999
2010-09-02,1.2579577
2010-09-03,1.2566576999999999
2010-09-06,1.2503577
2010-09-07,1.2548576999999999
2010-09-08,1.2583577
2010-09-09,1.2586576999999999
2010-09-10,1.2537577
2010-09-13,1.2534577
2010-09-14,1.2590577
2010-09-15,1.2582577
2010-09-16,1.2648576999999999
2010-09-17,1.2656577
2010-09-20,1.2665577
2010-09-21,1.2674577
2010-09-22,1.2636577
2010-09-23,1.2665577
2010-09-24,1.2684577
2010-09-27,1.2699577
2010-09-28,1.2707576999999999
2010-09-29,1.2680577
2010-09-30,1.2717676999999998
2010-10-01,1.2724677
2010-10-04,1.2736676999999998
2010-10-05,1.2718677
2010-10-06,1.2731677000000001
2010-10-07,1.2685677000000002
2010-10-08,1.2687677000000002
2010-10-11,1.2709677
2010-10-12,1.2710677000000001
2010-10-13,1.2731677000000001
2010-10-14,1.2741677
2010-10-15,1.2750677000000001
2010-10-18,1.2745677
2010-10-19,1.2763677000000002
2010-10-20,1.2784677000000002
2010-10-21,1.2799676999999998
2010-10-22,1.2794677
2010-10-26,1.2807677000000002
2010-10-27,1.2785677
2010-10-28,1.2730677
2010-10-29,1.2789677
2010-10-31,1.2793676999999999
2010-11-01,1.2801676999999998
2010-11-02,1.2829677
2010-11-03,1.2848677
2010-11-04,1.2824677000000002
2010-11-05,1.2839676999999998
2010-11-08,1.2861677
2010-11-09,1.2874677
2010-11-10,1.2864677000000002
2010-11-11,1.2894676999999999
2010-11-12,1.2894676999999999
2010-11-15,1.2850677
2010-11-16,1.2690677
2010-11-17,1.2807677000000002
2010-11-18,1.2783677
2010-11-19,1.2788677000000002
2010-11-22,1.2829677
2010-11-23,1.2839676999999998
2010-11-24,1.2845677000000002
2010-11-25,1.2844677
2010-11-26,1.2859677
2010-11-29,1.2886677
2010-11-30,1.2906677000000002
2010-12-01,1.2911677
2010-12-02,1.2919676999999998
2010-12-03,1.2923676999999998
2010-12-06,1.2937677
2010-12-07,1.2974677
2010-12-08,1.2915676999999999
2010-12-09,1.2813677
2010-12-10,1.2884677
2010-12-13,1.2817677
2010-12-14,1.2878677
2010-12-15,1.2680677
2010-12-16,1.2652676999999999
2010-12-17,1.2690677
2010-12-20,1.2703677
2010-12-21,1.2746677000000002
2010-12-22,1.2741677
2010-12-23,1.2780676999999998
2010-12-24,1.2769677000000001
2010-12-29,1.2806677
2010-12-30,1.2822676999999998
2010-12-31,1.2840726999999998
2011-01-05,1.2867726999999998
2011-01-06,1.2872727
2011-01-07,1.2886726999999998
2011-01-10,1.2905726999999998
2011-01-11,1.2922726999999998
2011-01-12,1.2949727000000002
2011-01-13,1.2918726999999999
2011-01-14,1.2934727000000001
2011-01-17,1.2956727
2011-01-18,1.2972727000000002
2011-01-19,1.2964726999999998
2011-01-20,1.2979726999999999
2011-01-21,1.2955727000000001
2011-01-24,1.2985726999999998
2011-01-25,1.2992727
2011-01-26,1.3023726999999998
2011-01-27,1.3015727
2011-01-28,1.3026727
2011-01-31,1.3035727000000001
2011-02-01,1.3046726999999998
2011-02-02,1.3032727
2011-02-03,1.3043727
2011-02-04,1.3019726999999999
2011-02-07,1.2991727000000002
2011-02-08,1.3017727
2011-02-09,1.2945726999999998
2011-02-10,1.2994727
2011-02-11,1.2994727
2011-02-14,1.3043727
2011-02-15,1.3057727
2011-02-16,1.3059726999999999
2011-02-17,1.3077727000000001
2011-02-18,1.3069727000000002
2011-02-21,1.3088726999999998
2011-02-22,1.3125727
2011-02-23,1.3079727
2011-02-24,1.3121727
2011-02-25,1.3129727
2011-02-28,1.3126726999999998
2011-03-01,1.3144727
2011-03-02,1.3155727000000002
2011-03-03,1.3199727
2011-03-04,1.3197727000000001
2011-03-07,1.3234727
2011-03-08,1.3237727000000001
2011-03-09,1.3239727000000001
2011-03-10,1.3242726999999999
2011-03-11,1.3213727
2011-03-14,1.3262727
2011-03-15,1.3273727000000002
2011-03-16,1.3260727
2011-03-17,1.3192727
2011-03-18,1.3226727
2011-03-21,1.3232727
2011-03-22,1.3243727
2011-03-23,1.3259727
2011-03-24,1.3271727000000002
2011-03-25,1.3252727000000002
2011-03-28,1.3250726999999998
2011-03-29,1.3281727
2011-03-30,1.3269726999999998
2011-03-31,1.3287837
2011-04-01,1.3285837
2011-04-04,1.3321837
2011-04-05,1.3337837000000001
2011-04-06,1.3341837
2011-04-07,1.3316837000000001
2011-04-08,1.3321837
2011-04-11,1.3320837
2011-04-12,1.3324837
2011-04-13,1.3326837
2011-04-14,1.3325837
2011-04-15,1.3327837
2011-04-18,1.3341837
2011-04-19,1.3355837
2011-04-20,1.3340837
2011-04-21,1.3368837
2011-04-26,1.3387837
2011-04-27,1.3372837
2011-04-28,1.3406837
2011-04-29,1.3412837
2011-04-30,1.3417837000000001
2011-05-02,1.3421837
2011-05-03,1.3431837
2011-05-04,1.3442837
2011-05-05,1.3445837
2011-05-06,1.3410837
2011-05-09,1.3415837
2011-05-10,1.3438837000000001
2011-05-11,1.3473837
2011-05-12,1.3452837
2011-05-13,1.3478837000000001
2011-05-16,1.3486837
2011-05-17,1.3482837
2011-05-18,1.3469837
2011-05-19,1.3516837
2011-05-20,1.3512837
2011-05-23,1.3514837
2011-05-24,1.3512837
2011-05-25,1.3515837
2011-05-26,1.3520837
2011-05-27,1.3491837
2011-05-30,1.3509837
2011-05-31,1.3512837
2011-06-01,1.3513837
2011-06-02,1.3436837
2011-06-03,1.3507837
2011-06-07,1.3507837
2011-06-08,1.3521837
2011-06-09,1.3498837000000001
2011-06-10,1.3548837
2011-06-13,1.3574837
2011-06-14,1.3582837
2011-06-15,1.3594837
2011-06-16,1.3607837
2011-06-17,1.3604837
2011-06-20,1.3622837
2011-06-21,1.3641837
2011-06-22,1.3649837
2011-06-23,1.3641837
2011-06-24,1.3626837
2011-06-27,1.3640837000000001
2011-06-28,1.3686837
2011-06-29,1.3697837
2011-06-30,1.3672837
2011-07-01,1.3653837
2011-07-04,1.3664836999999999
2011-07-05,1.3675837
2011-07-08,1.3716837
2011-07-11,1.3715837
2011-07-12,1.3668837
2011-07-13,1.3644836999999999
2011-07-14,1.3664836999999999
2011-07-15,1.3696837
2011-07-18,1.3695837
2011-07-19,1.3718837
2011-07-20,1.3691837
2011-07-21,1.3723836999999999
2011-07-22,1.3715837
2011-07-25,1.3744836999999999
2011-07-26,1.3756837
2011-07-27,1.3766836999999998
2011-07-28,1.3769837
2011-07-29,1.3795837
2011-07-31,1.3797837
2011-08-01,1.3757837
2011-08-02,1.3699837
2011-08-03,1.3560837
2011-08-04,1.3570837
2011-08-05,1.3246837
2011-08-08,1.3350837
2011-08-09,1.3114837
2011-08-10,1.3063837
2011-08-11,1.2800836999999998
2011-08-12,1.2954837
2011-08-15,1.2947837
2011-08-16,1.2945837
2011-08-17,1.2929837
2011-08-18,1.2932837
2011-08-19,1.2882837
2011-08-22,1.2875836999999999
2011-08-23,1.2896836999999999
2011-08-24,1.2888837
2011-08-25,1.2865837
2011-08-26,1.2882837
2011-08-29,1.2885837
2011-08-30,1.2884837
2011-08-31,1.2899836999999998
2011-09-01,1.2910837
2011-09-02,1.2936836999999999
2011-09-05,1.2952837
2011-09-06,1.2969837
2011-09-07,1.2924837
2011-09-08,1.2950837
2011-09-09,1.2965837
2011-09-12,1.2989837
2011-09-13,1.3006837
2011-09-14,1.3013837
2011-09-15,1.3035837
2011-09-16,1.3016836999999999
2011-09-19,1.3033837
2011-09-20,1.3062836999999998
2011-09-21,1.3072837
2011-09-22,1.3103837
2011-09-23,1.3090837
2011-09-26,1.3105837
2011-09-27,1.3087837
2011-09-28,1.3091837
2011-09-29,1.3108837
2011-09-30,1.3101837
2011-10-03,1.3120837
2011-10-04,1.3133837000000002
2011-10-05,1.3177837000000001
2011-10-06,1.3166837
2011-10-07,1.3148837
2011-10-10,1.3120837
2011-10-11,1.3115837000000001
2011-10-12,1.3089837
2011-10-13,1.3060837
2011-10-14,1.3112837000000002
2011-10-17,1.3080837
2011-10-18,1.3123837
2011-10-19,1.3134837000000001
2011-10-20,1.3149837
2011-10-21,1.3161837
2011-10-25,1.3191837
2011-10-26,1.3213837000000002
2011-10-27,1.3226837
2011-10-28,1.3175837000000001
2011-10-31,1.3207837
2011-11-01,1.3234837000000002
2011-11-02,1.3235837000000001
2011-11-03,1.3242837
2011-11-04,1.3292837
2011-11-07,1.3234837000000002
2011-11-08,1.3259837
2011-11-09,1.3257837000000001
2011-11-10,1.3254837000000002
2011-11-11,1.3293837
2011-11-14,1.3302837
2011-11-15,1.3366837
2011-11-16,1.3376837000000001
2011-11-17,1.3386837
2011-11-18,1.3406837
2011-11-21,1.3426837
2011-11-22,1.3427837
2011-11-23,1.3438837000000001
2011-11-24,1.3436837000000001
2011-11-25,1.3442837
2011-11-28,1.3399837
2011-11-29,1.3386837
2011-11-30,1.3389837
2011-12-01,1.3378837000000001
2011-12-02,1.3374837000000002
2011-12-05,1.3393837
2011-12-06,1.3402837
2011-12-07,1.3427837
2011-12-08,1.3439837000000001
2011-12-09,1.3473837
2011-12-12,1.3484837
2011-12-13,1.3493837
2011-12-14,1.3505837
2011-12-15,1.3528837
2011-12-16,1.3516837000000002
2011-12-19,1.3522837
2011-12-20,1.3512837
2011-12-21,1.3521836999999999
2011-12-22,1.3532837
2011-12-23,1.3543836999999999
2011-12-28,1.3551837
2011-12-29,1.3568837
2011-12-30,1.3575837
2012-01-04,1.3574837
2012-01-05,1.3570837
2012-01-06,1.3569837
2012-01-09,1.3579837
2012-01-10,1.3568837
2012-01-11,1.3566837
2012-01-12,1.3575837
2012-01-13,1.3566837
2012-01-16,1.3600837
2012-01-17,1.3594837
2012-01-18,1.3594837
2012-01-19,1.3610837
2012-01-20,1.3607837
2012-01-23,1.3616837
2012-01-24,1.3603836999999999
2012-01-25,1.3597837
2012-01-26,1.3628837
2012-01-27,1.3633837
2012-01-30,1.3645837
2012-01-31,1.3658837
2012-02-01,1.3660837
2012-02-02,1.3662836999999999
2012-02-03,1.3664836999999999
2012-02-07,1.3675837
2012-02-08,1.3653837
2012-02-09,1.3643836999999999
2012-02-10,1.3651837
2012-02-12,1.3651837
2012-02-13,1.3667837
2012-02-14,1.3668837
2012-02-15,1.3661837
2012-02-16,1.3674837
2012-02-17,1.3662836999999999
2012-02-20,1.3634837
2012-02-21,1.3645837
2012-02-22,1.3647837
2012-02-23,1.3651837
2012-02-24,1.3642836999999999
2012-02-27,1.3653837
2012-02-28,1.3666837
2012-02-29,1.3667837
2012-03-01,1.3662836999999999
2012-03-02,1.3665836999999998
2012-03-05,1.3686837
2012-03-06,1.3699837
2012-03-07,1.3712837
2012-03-08,1.3722836999999999
2012-03-09,1.3725836999999999
2012-03-12,1.3739837
2012-03-13,1.3737837
2012-03-14,1.3715837
2012-03-15,1.3625837
2012-03-16,1.3637837
2012-03-19,1.3637837
2012-03-20,1.3549837
2012-03-21,1.3618837
2012-03-22,1.3644836999999999
2012-03-23,1.3680837
2012-03-26,1.3704836999999999
2012-03-27,1.3705837
2012-03-28,1.3705837
2012-03-29,1.3715837000000002
2012-03-30,1.3724837
2012-03-31,1.3724837
2012-04-02,1.3746837
2012-04-03,1.3770837
2012-04-04,1.3795837000000002
2012-04-05,1.3798837000000002
2012-04-10,1.3778837000000002
2012-04-11,1.3806837
2012-04-12,1.3775837000000002
2012-04-13,1.3805837
2012-04-16,1.3785837
2012-04-17,1.3812837
2012-04-18,1.3798837000000002
2012-04-19,1.3813837
2012-04-20,1.3797837000000002
2012-04-23,1.3825837
2012-04-24,1.3816837000000002
2012-04-26,1.3876837000000002
2012-04-27,1.3868837
2012-04-30,1.3872837
2012-05-01,1.3879837000000002
2012-05-02,1.3913837
2012-05-03,1.3928837
2012-05-04,1.3934837
2012-05-07,1.3944837
2012-05-08,1.3954837
2012-05-09,1.3938837000000002
2012-05-10,1.3933837
2012-05-11,1.3926837
2012-05-14,1.3929837
2012-05-15,1.3925837
2012-05-16,1.3939837000000002
2012-05-17,1.3916837000000002
2012-05-18,1.3918837000000002
2012-05-21,1.3935837
2012-05-22,1.3946837
2012-05-23,1.3967837
2012-05-24,1.3956837
2012-05-25,1.3964837
2012-05-28,1.3958837000000002
2012-05-29,1.3968837
2012-05-30,1.3970837
2012-05-31,1.3935837
2012-06-01,1.3903837000000001
2012-06-05,1.3917837000000002
2012-06-06,1.3922837000000001
2012-06-07,1.3907837
2012-06-08,1.3926837
2012-06-11,1.3917837000000002
2012-06-12,1.3930837
2012-06-13,1.3926837
2012-06-14,1.3964837
2012-06-15,1.3963837000000001
2012-06-18,1.3969837
2012-06-19,1.3994837
2012-06-20,1.3984837
2012-06-21,1.3971837
2012-06-22,1.3985837
2012-06-25,1.3999837000000002
2012-06-26,1.4019837000000002
2012-06-27,1.4024837
2012-06-28,1.4031837
2012-06-29,1.4009837
2012-06-30,1.4009837
2012-07-02,1.3996837000000002
2012-07-03,1.4001837000000001
2012-07-04,1.4000837000000002
2012-07-05,1.4022837000000001
2012-07-06,1.4032837
2012-07-09,1.4056837
2012-07-10,1.4062837000000001
2012-07-11,1.4061837000000001
2012-07-12,1.4080837000000002
2012-07-13,1.4096837
2012-07-16,1.4100837000000002
2012-07-17,1.4109837
2012-07-18,1.4119837000000002
2012-07-19,1.4124837000000001
2012-07-20,1.4130837
2012-07-23,1.4155837
2012-07-24,1.4147837
2012-07-25,1.4160837000000002
2012-07-26,1.4166837
2012-07-27,1.4130837
2012-07-30,1.4111837
2012-07-31,1.4117837000000002
2012-08-01,1.4115837
2012-08-02,1.4108837
2012-08-03,1.4123837000000001
2012-08-06,1.4109837
2012-08-07,1.4104837000000001
2012-08-08,1.4100837000000002
2012-08-09,1.4122837000000001
2012-08-10,1.4152837
2012-08-13,1.4162837000000001
2012-08-14,1.4163837000000001
2012-08-15,1.4148837
2012-08-16,1.4073837
2012-08-17,1.4085837
2012-08-20,1.4109837
2012-08-21,1.4123837000000001
2012-08-22,1.4142837000000001
2012-08-23,1.4148837
2012-08-24,1.4146837
2012-08-27,1.4165837000000001
2012-08-28,1.4169837
2012-08-29,1.4176837
2012-08-30,1.4196837
2012-08-31,1.4197837
2012-09-03,1.4210837
2012-09-04,1.4209837
2012-09-05,1.4225837000000001
2012-09-06,1.4221837000000002
2012-09-07,1.4210837
2012-09-10,1.4235837
2012-09-11,1.4237837
2012-09-12,1.4233837
2012-09-13,1.4230837
2012-09-14,1.4229837
2012-09-17,1.4189837
2012-09-18,1.4218837000000002
2012-09-19,1.4231837
2012-09-20,1.4256837
2012-09-21,1.4258837000000002
2012-09-24,1.4277837
2012-09-25,1.4285837000000001
2012-09-26,1.4274837
2012-09-27,1.4278837000000002
2012-09-28,1.4287837
2012-09-30,1.4287837
2012-10-01,1.4301837000000002
2012-10-02,1.4309837
2012-10-03,1.4339837000000002
2012-10-04,1.4323837000000001
2012-10-05,1.4320837000000002
2012-10-08,1.4316837
2012-10-09,1.4317837
2012-10-10,1.4331837
2012-10-11,1.4337837
2012-10-12,1.4342837000000002
2012-10-15,1.4362837000000002
2012-10-16,1.4378837000000002
2012-10-17,1.4362837000000002
2012-10-18,1.4343837000000002
2012-10-19,1.4348837
2012-10-23,1.4366837000000001
2012-10-24,1.4378837000000002
2012-10-25,1.4361837000000002
2012-10-26,1.4367837
2012-10-29,1.4383837000000002
2012-10-30,1.4405837000000001
2012-10-31,1.4401837000000002
2012-11-01,1.4399837000000002
2012-11-02,1.4396837
2012-11-05,1.4403837000000002
2012-11-06,1.4413837
2012-11-07,1.4411837
2012-11-08,1.4434837
2012-11-09,1.4433837
2012-11-12,1.4443837000000002
2012-11-13,1.4457837
2012-11-14,1.4465837000000001
2012-11-15,1.4473837
2012-11-16,1.4478837
2012-11-19,1.4475837
2012-11-20,1.4481837000000002
2012-11-21,1.4481837000000002
2012-11-22,1.4474837
2012-11-23,1.4483837000000002
2012-11-26,1.4494837
2012-11-27,1.4497837
2012-11-28,1.4512837
2012-11-29,1.4533837
2012-11-30,1.4541837000000002
2012-12-03,1.4554837
2012-12-04,1.4549837
2012-12-05,1.4564837000000002
2012-12-06,1.4557837
2012-12-07,1.4549837
2012-12-10,1.4556837
2012-12-11,1.4565837000000001
2012-12-12,1.4556837
2012-12-13,1.4552837
2012-12-14,1.4544837000000002
2012-12-17,1.4571837
2012-12-18,1.4566837000000001
2012-12-19,1.4564837
2012-12-20,1.4574837
2012-12-21,1.4582837
2012-12-24,1.4591837
2012-12-27,1.4598837
2012-12-28,1.4604837
2012-12-31,1.4617837
2013-01-03,1.4596837
2013-01-04,1.4569837
2013-01-07,1.4579837
2013-01-08,1.4587837
2013-01-09,1.4597837
2013-01-10,1.4595837
2013-01-11,1.4588837
2013-01-14,1.4591837
2013-01-15,1.4588837
2013-01-16,1.4595837
2013-01-17,1.4611837
2013-01-18,1.4600837
2013-01-21,1.4616837
2013-01-22,1.4617837
2013-01-23,1.4624837
2013-01-24,1.4635837
2013-01-25,1.4626837
2013-01-28,1.4628837
2013-01-29,1.4593837
2013-01-30,1.4590837
2013-01-31,1.4595837
2013-02-01,1.4588837
2013-02-04,1.4573837
2013-02-05,1.4601837
2013-02-07,1.4622837
2013-02-08,1.4623837
2013-02-11,1.4629837
2013-02-12,1.4622837
2013-02-13,1.4616837
2013-02-14,1.4605837
2013-02-15,1.4611837
2013-02-18,1.4597837
2013-02-19,1.4604837
2013-02-20,1.4618837
2013-02-21,1.4636837
2013-02-22,1.4640837
2013-02-25,1.4647837
2013-02-26,1.4657837
2013-02-27,1.4680837
2013-02-28,1.4668837
2013-03-01,1.4675837
2013-03-04,1.4685837
2013-03-05,1.4685837
2013-03-06,1.4675837
2013-03-07,1.4681837
2013-03-08,1.4674837
2013-03-11,1.4666837
2013-03-12,1.4672837
2013-03-13,1.4694837
2013-03-14,1.4694837
2013-03-15,1.4711837
2013-03-18,1.4737837
2013-03-19,1.4729837
2013-03-20,1.4733837
2013-03-21,1.4722837
2013-03-22,1.4734837
2013-03-25,1.4735837
2013-03-26,1.4746837000000002
2013-03-27,1.4765837000000002
2013-03-28,1.4779837000000002
2013-03-31,1.4779837000000002
2013-04-02,1.4789837000000001
2013-04-03,1.4788837000000001
2013-04-04,1.4796837
2013-04-05,1.4806837000000002
2013-04-08,1.4790837000000001
2013-04-09,1.4809837000000001
2013-04-10,1.4820837000000002
2013-04-11,1.4824837000000002
2013-04-12,1.4835837
2013-04-15,1.4857837
2013-04-16,1.4852837
2013-04-17,1.4861837000000002
2013-04-18,1.4877837
2013-04-19,1.4882837000000002
2013-04-22,1.4887837000000002
2013-04-23,1.4901837000000002
2013-04-24,1.4913837
2013-04-26,1.4919837
2013-04-29,1.4933837
2013-04-30,1.4940837
2013-05-01,1.4940837
2013-05-02,1.4951837000000001
2013-05-03,1.4958837
2013-05-06,1.4950837000000001
2013-05-07,1.4957837
2013-05-08,1.4962837000000002
2013-05-09,1.4951837000000001
2013-05-10,1.4943837000000002
2013-05-13,1.4933837
2013-05-14,1.4939837
2013-05-15,1.4906837000000002
2013-05-16,1.4933837
2013-05-17,1.4942837000000002
2013-05-20,1.4935837
2013-05-21,1.4937837
2013-05-22,1.4952837
2013-05-23,1.4902837000000002
2013-05-24,1.4928837000000001
2013-05-27,1.4945837000000002
2013-05-28,1.4926837000000002
2013-05-29,1.4791837
2013-05-30,1.4851837
2013-05-31,1.4878837
2013-06-04,1.4893837
2013-06-05,1.4891837
2013-06-06,1.4911837000000001
2013-06-07,1.4922837000000002
2013-06-10,1.4911837000000001
2013-06-11,1.4899837
2013-06-12,1.4890837000000001
2013-06-13,1.4889837000000001
2013-06-14,1.4910837000000001
2013-06-17,1.4929837000000001
2013-06-18,1.4928837000000001
2013-06-19,1.4929837000000001
2013-06-20,1.4814837
2013-06-21,1.4740837000000002
2013-06-24,1.4609837
2013-06-25,1.4657837
2013-06-26,1.4599837
2013-06-27,1.4655837
2013-06-28,1.4690837
2013-06-30,1.4690837
2013-07-01,1.4680837
2013-07-02,1.4705837
2013-07-03,1.4704837
2013-07-04,1.4711837
2013-07-05,1.4706837
2013-07-08,1.4553837
2013-07-09,1.4646837
2013-07-10,1.4663837
2013-07-11,1.4753837
2013-07-12,1.4712837
2013-07-15,1.4735837
2013-07-16,1.4727837
2013-07-17,1.4733837
2013-07-18,1.4753837
2013-07-19,1.4757837
2013-07-22,1.4781837
2013-07-23,1.4777837
2013-07-24,1.4782837
2013-07-25,1.4746837
2013-07-26,1.4739837
2013-07-29,1.4758837
2013-07-30,1.4765837
2013-07-31,1.4771837
2013-08-01,1.4783837
2013-08-02,1.4733837
2013-08-05,1.4773837
2013-08-06,1.4783837
2013-08-07,1.4786837
2013-08-08,1.4784837
2013-08-09,1.4763837
2013-08-12,1.4781837
2013-08-13,1.4779837
2013-08-14,1.4761837
2013-08-15,1.4731837
2013-08-16,1.4756837
2013-08-19,1.4723837
2013-08-20,1.4714837
2013-08-21,1.4736837
2013-08-22,1.4670837
2013-08-23,1.4720837
2013-08-26,1.4761837
2013-08-27,1.4781837
2013-08-28,1.4761837
2013-08-29,1.4779837
2013-08-30,1.4785837
2013-08-31,1.4785837
2013-09-02,1.4789837000000001
2013-09-03,1.4781837
2013-09-04,1.4778837
2013-09-05,1.4792837
2013-09-06,1.4742837
2013-09-09,1.4779837
2013-09-10,1.4791837
2013-09-11,1.4788837000000001
2013-09-12,1.4811837
2013-09-13,1.4805837
2013-09-16,1.4835837
2013-09-17,1.4831837
2013-09-18,1.4823837
2013-09-19,1.4776837
2013-09-20,1.4804837
2013-09-23,1.4812837
2013-09-24,1.4828837000000001
2013-09-25,1.4818837000000002
2013-09-26,1.4814837
2013-09-27,1.4821837000000002
2013-09-30,1.4818837000000002
2013-10-01,1.4825837000000002
2013-10-02,1.4839837000000002
2013-10-03,1.4842837000000002
2013-10-04,1.4839837000000002
2013-10-07,1.4840837000000002
2013-10-08,1.4832837
2013-10-09,1.4848837000000001
2013-10-10,1.4834837
2013-10-11,1.4836837
2013-10-14,1.4848837000000001
2013-10-15,1.4843837000000002
2013-10-16,1.4830837000000001
2013-10-17,1.4862837000000002
2013-10-18,1.4872837
2013-10-21,1.4889837000000001
2013-10-22,1.4891837
2013-10-23,1.4907837000000002
2013-10-24,1.4916837
2013-10-25,1.4938837000000003
2013-10-29,1.4959837000000002
2013-10-30,1.4960837000000002
2013-10-31,1.4955837
2013-11-01,1.4963837000000002
2013-11-04,1.4953837
2013-11-05,1.4956837
2013-11-06,1.4933837
2013-11-07,1.4947837000000002
2013-11-08,1.4961837000000002
2013-11-11,1.4907837000000002
2013-11-12,1.4908837000000001
2013-11-13,1.4907837000000002
2013-11-14,1.4943837000000002
2013-11-15,1.4946837000000002
2013-11-18,1.4958837000000003
2013-11-19,1.4960837000000002
2013-11-20,1.4954837
2013-11-21,1.4916837
2013-11-22,1.4921837000000002
2013-11-25,1.4931837000000001
2013-11-26,1.4942837000000002
2013-11-27,1.4954837
2013-11-28,1.4951837000000001
2013-11-29,1.4967837000000002
2013-11-30,1.4967837000000002
2013-12-02,1.4978837000000003
2013-12-03,1.4976837
2013-12-04,1.4970837000000001
2013-12-05,1.4951837000000001
2013-12-06,1.4952837
2013-12-09,1.4976837
2013-12-10,1.4979837000000003
2013-12-11,1.4987837000000002
2013-12-12,1.4976837
2013-12-13,1.4970837000000001
2013-12-16,1.4999837000000003
2013-12-17,1.4995837
2013-12-18,1.5002837
2013-12-19,1.4984837
2013-12-20,1.5002837
2013-12-23,1.5014837
2013-12-24,1.5006837
2013-12-27,1.5002837
2013-12-30,1.5009837000000001
2013-12-31,1.5022837
2014-01-03,1.5024837
2014-01-06,1.5039837
2014-01-07,1.5053837
2014-01-08,1.5063837
2014-01-09,1.5059837
2014-01-10,1.5071837000000001
2014-01-13,1.5085837
2014-01-14,1.5076837
2014-01-15,1.5082837
2014-01-16,1.5095837
2014-01-17,1.5107837
2014-01-20,1.5113837
2014-01-21,1.5107837
2014-01-22,1.5108837000000002
2014-01-23,1.5111837000000001
2014-01-24,1.5120837
2014-01-27,1.5124837
2014-01-28,1.5122837
2014-01-29,1.5119837
2014-01-30,1.5115837
2014-01-31,1.5095837
2014-02-03,1.5108837000000002
2014-02-04,1.5085837
2014-02-05,1.5087837
2014-02-07,1.5095837
2014-02-10,1.5110837000000001
2014-02-11,1.5116837
2014-02-12,1.5107837
2014-02-13,1.5097837
2014-02-14,1.5118837
2014-02-17,1.5126837
2014-02-18,1.5141837
2014-02-19,1.5151837000000001
2014-02-20,1.5154837
2014-02-21,1.5150837000000001
2014-02-24,1.5166837
2014-02-25,1.5167837
2014-02-26,1.5177837
2014-02-27,1.5172837000000001
2014-02-28,1.5168837
2014-03-03,1.5180837
2014-03-04,1.5181837
2014-03-05,1.5171837000000001
2014-03-06,1.5165837
2014-03-07,1.5153837000000001
2014-03-10,1.5159837
2014-03-11,1.5170837000000001
2014-03-12,1.5177837
2014-03-13,1.5166837
2014-03-14,1.5175837
2014-03-17,1.5187837
2014-03-18,1.5180837
2014-03-19,1.5187837
2014-03-20,1.5182837
2014-03-21,1.5182837
2014-03-24,1.5191837000000001
2014-03-25,1.5195837
2014-03-26,1.5188837000000002
2014-03-27,1.5198837000000003
2014-03-28,1.5195837
2014-03-31,1.5197837
2014-04-01,1.5190837000000001
2014-04-02,1.5188837000000002
2014-04-03,1.5185837000000002
2014-04-04,1.5191837000000001
2014-04-07,1.5213837000000001
2014-04-08,1.5213837000000001
2014-04-09,1.5224837000000002
2014-04-10,1.5220837000000003
2014-04-11,1.5226837000000002
2014-04-14,1.5231837000000001
2014-04-15,1.5237837
2014-04-16,1.5251837000000001
2014-04-17,1.5253837000000001
2014-04-22,1.5260837000000003
2014-04-23,1.5264837000000002
2014-04-24,1.5276837
2014-04-28,1.5294837000000001
2014-04-29,1.5296837
2014-04-30,1.5300837000000003
2014-05-01,1.5307837000000002
2014-05-02,1.5308837000000002
2014-05-05,1.5321837000000003
2014-05-06,1.5322837000000002
2014-05-07,1.5336837
2014-05-08,1.5350837000000002
2014-05-09,1.5353837000000001
2014-05-12,1.5359837000000003
2014-05-13,1.5351837000000002
2014-05-14,1.5352837000000001
2014-05-15,1.5356837
2014-05-16,1.5356837
2014-05-19,1.5373837000000001
2014-05-20,1.5386837000000002
2014-05-21,1.5395837
2014-05-22,1.5392837000000001
2014-05-23,1.5399837000000003
2014-05-26,1.5412837000000001
2014-05-27,1.5424837000000002
2014-05-28,1.5427837000000002
2014-05-29,1.5434837000000001
2014-05-30,1.5425837000000002
2014-05-31,1.5425837000000002
2014-06-03,1.5428837000000002
2014-06-04,1.5411837000000002
2014-06-05,1.5415837000000001
2014-06-06,1.5423837000000002
2014-06-09,1.5426837000000002
2014-06-10,1.5424837000000002
2014-06-11,1.5420837000000003
2014-06-12,1.5398837
2014-06-13,1.5400837000000003
2014-06-16,1.5403837000000002
2014-06-17,1.5413837000000001
2014-06-18,1.5401837000000003
2014-06-19,1.5427837000000002
2014-06-20,1.5433837000000001
2014-06-23,1.5434837000000001
2014-06-24,1.5427837000000002
2014-06-25,1.5433837000000001
2014-06-26,1.5421837000000003
2014-06-27,1.5424837000000002
2014-06-30,1.5433837000000001
2014-07-01,1.5424837000000002
2014-07-02,1.5436837
2014-07-03,1.5436837
2014-07-04,1.5432837000000001
2014-07-07,1.5434837000000001
2014-07-08,1.5431837000000002
2014-07-09,1.5445837000000002
2014-07-10,1.5449837000000002
2014-07-11,1.5462837000000003
2014-07-14,1.5464837000000002
2014-07-15,1.5462837000000003
2014-07-16,1.5486837000000002
2014-07-17,1.5491837000000002
2014-07-18,1.5504837000000002
2014-07-21,1.5504837000000002
2014-07-22,1.5518837
2014-07-23,1.5519837
2014-07-24,1.5531837000000002
2014-07-25,1.5527837000000002
2014-07-28,1.5536837000000001
2014-07-29,1.5540837000000003
2014-07-30,1.5544837000000002
2014-07-31,1.5539837
2014-08-01,1.5540837000000003
2014-08-04,1.5558837
2014-08-05,1.5561837000000003
2014-08-06,1.5559837
2014-08-07,1.5563837000000003
2014-08-08,1.5577837
2014-08-11,1.5568837000000002
2014-08-12,1.5573837000000001
2014-08-13,1.5578837
2014-08-14,1.5585837000000002
2014-08-15,1.5589837000000002
2014-08-18,1.5592837000000002
2014-08-19,1.5593837000000002
2014-08-20,1.5591837000000002
2014-08-21,1.5586837000000002
2014-08-22,1.5591837000000002
2014-08-25,1.5603837000000003
2014-08-26,1.5622837000000003
2014-08-27,1.5629837000000002
2014-08-28,1.5633837000000002
2014-08-29,1.5631837000000002
2014-08-31,1.5631837000000002
2014-09-01,1.5631837000000002
2014-09-02,1.5637837
2014-09-03,1.5621837000000003
2014-09-04,1.5622837000000003
2014-09-05,1.5619837
2014-09-08,1.5627837000000002
2014-09-09,1.5620837000000003
2014-09-10,1.5615837000000001
2014-09-11,1.5625837000000002
2014-09-12,1.5626837000000002
2014-09-15,1.5617837
2014-09-16,1.5647837000000002
2014-09-17,1.5649837000000002
2014-09-18,1.5637837
2014-09-19,1.5646837000000002
2014-09-22,1.5672837000000002
2014-09-23,1.5682837000000003
2014-09-24,1.5678837
2014-09-25,1.5691837000000002
2014-09-26,1.5703837
2014-09-29,1.5708837
2014-09-30,1.5702837
2014-10-01,1.5703837
2014-10-02,1.5701837
2014-10-03,1.5708837
2014-10-06,1.5706837
2014-10-07,1.5717837000000001
2014-10-08,1.5699837
2014-10-09,1.5702837
2014-10-10,1.5726837
2014-10-13,1.5716837000000001
2014-10-14,1.5718837
2014-10-15,1.5667837
2014-10-16,1.5592837000000002
2014-10-17,1.5468837000000002
2014-10-20,1.5524837
2014-10-21,1.5565837
2014-10-22,1.5577837
2014-10-23,1.5597837
2014-10-24,1.5591837000000002
2014-10-28,1.5621837
2014-10-29,1.5621837
2014-10-30,1.5615837000000001
2014-10-31,1.5630837000000002
2014-11-03,1.5636837000000001
2014-11-04,1.5643837
2014-11-05,1.5641837
2014-11-06,1.5637837
2014-11-07,1.5627837
2014-11-10,1.5655837000000001
2014-11-11,1.5651837000000002
2014-11-12,1.5645837
2014-11-13,1.5643837
2014-11-14,1.5654837000000001
2014-11-17,1.5660837
2014-11-18,1.5659837
2014-11-19,1.5663837
2014-11-20,1.5668837
2014-11-21,1.5675837000000001
2014-11-24,1.5677837000000001
2014-11-25,1.5694837000000001
2014-11-26,1.5700837
2014-11-27,1.5706837
2014-11-28,1.5713837000000002
2014-11-30,1.5713837000000002
2014-12-01,1.5708837
2014-12-02,1.5717837000000001
2014-12-03,1.5728837
2014-12-04,1.5735837000000001
2014-12-05,1.5741837
2014-12-08,1.5740837
2014-12-09,1.5750837000000002
2014-12-10,1.5753837000000002
2014-12-11,1.5749837
2014-12-12,1.5760837
2014-12-15,1.5736837000000001
2014-12-16,1.5756837000000001
2014-12-17,1.5745837
2014-12-18,1.5770837000000002
2014-12-19,1.5777837000000001
2014-12-22,1.5793837000000002
2014-12-23,1.5793837000000002
2014-12-24,1.5785837
2014-12-29,1.5803837
2014-12-30,1.5830837000000002
2014-12-31,1.5837837000000001
2015-01-05,1.5852837000000002
2015-01-06,1.5845837
2015-01-07,1.5793837000000002
2015-01-08,1.5789837
2015-01-09,1.5810837000000002
2015-01-10,1.6268837
2015-01-12,1.5809837
2015-01-13,1.5810837000000002
2015-01-14,1.5808837
2015-01-15,1.5784837
2015-01-16,1.5706837
2015-01-19,1.5778837000000001
2015-01-20,1.5825837
2015-01-21,1.5774837000000002
2015-01-22,1.5832837000000002
2015-01-23,1.5850837000000002
2015-01-26,1.5843837
2015-01-27,1.5885837
2015-01-28,1.5889837
2015-01-29,1.5889837
2015-01-30,1.5907837
2015-01-31,1.5907837
2015-02-02,1.5865837
2015-02-03,1.5905837
2015-02-04,1.5916837000000001
2015-02-05,1.5932837000000002
2015-02-09,1.5886837
2015-02-10,1.5887837
2015-02-11,1.5868837
2015-02-12,1.5876837000000001
2015-02-13,1.5904837
2015-02-16,1.5875837000000002
2015-02-17,1.5880837
2015-02-18,1.5784837
2015-02-19,1.5825837
2015-02-20,1.5812837000000002
2015-02-23,1.5798837000000001
2015-02-24,1.5866837
2015-02-25,1.5869837
2015-02-26,1.5885837
2015-02-27,1.5895837000000002
2015-02-28,1.5895837000000002
2015-03-02,1.5909837
2015-03-03,1.5924837
2015-03-04,1.5908837
2015-03-05,1.5920837
2015-03-06,1.5927837
2015-03-09,1.5878837000000001
2015-03-10,1.5920837
2015-03-11,1.5945837
2015-03-12,1.5955837000000002
2015-03-13,1.5960837
2015-03-16,1.5968837
2015-03-17,1.5985837
2015-03-18,1.5987837
2015-03-19,1.5971837000000002
2015-03-20,1.5991837000000002
2015-03-23,1.5980837
2015-03-24,1.5985837
2015-03-25,1.5975837000000002
2015-03-26,1.6004837
2015-03-27,1.6014837000000002
2015-03-30,1.6024837
2015-03-31,1.6037837000000001
2015-04-01,1.6048837
2015-04-02,1.6042837
2015-04-07,1.6098837000000001
2015-04-08,1.6094837000000002
2015-04-09,1.6092837000000002
2015-04-10,1.6096837000000002
2015-04-13,1.6112837000000002
2015-04-14,1.6125837
2015-04-15,1.6124837
2015-04-16,1.6115837000000002
2015-04-17,1.6128837
2015-04-20,1.6121837
2015-04-21,1.6126837
2015-04-22,1.6121837
2015-04-23,1.6117837000000002
2015-04-24,1.6125837
2015-04-28,1.6138837000000001
2015-04-29,1.6136837000000002
2015-04-30,1.6122837
2015-05-01,1.6128837
2015-05-04,1.6108837
2015-05-05,1.6093837000000002
2015-05-06,1.6091837000000002
2015-05-07,1.6041837
2015-05-08,1.6068837
2015-05-11,1.6076837000000002
2015-05-12,1.6059837000000001
2015-05-13,1.6054837000000002
2015-05-14,1.6048837
2015-05-15,1.6083837
2015-05-18,1.6090837
2015-05-19,1.6105837
2015-05-20,1.6089837
2015-05-21,1.6117837000000002
2015-05-22,1.6123837
2015-05-25,1.6126837
2015-05-26,1.6134837000000002
2015-05-27,1.6126837
2015-05-28,1.6136837000000002
2015-05-29,1.6163837
2015-05-31,1.6163837
2015-06-02,1.6185837
2015-06-03,1.6177837000000002
2015-06-04,1.6124837
2015-06-05,1.6144837
2015-06-08,1.6115837000000002
2015-06-09,1.6144837
2015-06-10,1.6135837000000002
2015-06-12,1.6163837
2015-06-15,1.6181837000000001
2015-06-16,1.6199837000000001
2015-06-17,1.6186837
2015-06-18,1.6227837
2015-06-19,1.6247837
2015-06-22,1.6249837
2015-06-23,1.6246837
2015-06-24,1.6239837000000001
2015-06-25,1.6255837
2015-06-26,1.6262837
2015-06-29,1.6275837000000002
2015-06-30,1.6278837000000004
2015-07-01,1.6275837000000002
2015-07-02,1.6299837000000004
2015-07-03,1.6321837000000001
2015-07-06,1.6340837000000001
2015-07-07,1.6341837000000003
2015-07-08,1.6360837000000004
2015-07-09,1.6350837
2015-07-10,1.6338837000000002
2015-07-13,1.6315837000000002
2015-07-14,1.6291837
2015-07-15,1.6321837000000001
2015-07-16,1.6376837000000002
2015-07-17,1.6388837
2015-07-20,1.6406837000000003
2015-07-21,1.6404837000000003
2015-07-22,1.6417837
2015-07-23,1.6421837000000004
2015-07-24,1.6433837000000002
2015-07-27,1.6445837
2015-07-28,1.6427837000000003
2015-07-29,1.6428837
2015-07-30,1.6429837000000003
2015-07-31,1.6454837000000002
2015-08-03,1.6448837000000003
2015-08-04,1.6451837
2015-08-05,1.6468837
2015-08-06,1.6462837000000001
2015-08-07,1.6470837
2015-08-10,1.6479837000000002
2015-08-11,1.6493837
2015-08-12,1.6505837000000003
2015-08-13,1.6494837000000002
2015-08-14,1.6496837000000002
2015-08-17,1.6505837000000003
2015-08-18,1.6506837
2015-08-19,1.6500837000000002
2015-08-20,1.6516837
2015-08-21,1.6519837000000002
2015-08-24,1.6526837000000003
2015-08-25,1.6497837
2015-08-26,1.6535837
2015-08-27,1.6537837
2015-08-28,1.6538837000000002
2015-09-01,1.6568837000000003
2015-09-02,1.6559837000000002
2015-09-03,1.6552837
2015-09-04,1.6567837
2015-09-07,1.6579837000000004
2015-09-08,1.6586837
2015-09-09,1.6575837
2015-09-10,1.6603837000000001
2015-09-11,1.6606837000000003
2015-09-14,1.6621837000000004
2015-09-15,1.6625837000000003
2015-09-16,1.6612837000000003
2015-09-17,1.6599837000000002
2015-09-18,1.6626837
2015-09-21,1.6639837000000002
2015-09-22,1.6642837000000004
2015-09-23,1.6658837000000002
2015-09-24,1.6653837000000002
2015-09-25,1.6634837000000002
2015-09-28,1.6647837
2015-09-29,1.6659837000000002
2015-09-30,1.6641837000000002
2015-10-01,1.6643837000000001
2015-10-02,1.6645837
2015-10-05,1.6661837000000002
2015-10-06,1.6669837000000003
2015-10-07,1.6667837
2015-10-08,1.6682837000000001
2015-10-09,1.6683837000000001
2015-10-12,1.6684837000000001
2015-10-13,1.6700837000000002
2015-10-14,1.6700837000000002
2015-10-15,1.6706837
2015-10-16,1.6708837
2015-10-19,1.6720837000000002
2015-10-20,1.6714837000000002
2015-10-21,1.6709837000000003
2015-10-22,1.6726837
2015-10-23,1.6728837
2015-10-27,1.6733837000000003
2015-10-28,1.6749837000000003
2015-10-29,1.6748837
2015-10-30,1.6724837000000001
2015-10-31,1.6724837000000001
2015-11-02,1.6738837000000002
2015-11-03,1.6716837000000002
2015-11-04,1.6713837000000002
2015-11-05,1.6706837
2015-11-06,1.6720837000000002
2015-11-09,1.6653837000000002
2015-11-10,1.6636837000000002
2015-11-11,1.6671837000000003
2015-11-12,1.6663837000000001
2015-11-13,1.6668837
2015-11-16,1.6711837000000003
2015-11-17,1.6721837000000002
2015-11-18,1.6734837000000002
2015-11-19,1.6728837
2015-11-20,1.6733837000000003
2015-11-23,1.6737837000000002
2015-11-24,1.6749837000000003
2015-11-25,1.6751837000000003
2015-11-26,1.6764837000000001
2015-11-27,1.6765837000000001
2015-11-30,1.6765837000000001
2015-12-01,1.6762837000000002
2015-12-02,1.6760837000000002
2015-12-03,1.6770837000000003
2015-12-04,1.6757837000000002
2015-12-07,1.6770837000000003
2015-12-08,1.6771837000000003
2015-12-09,1.6774837000000002
2015-12-10,1.6775837000000002
2015-12-11,1.6766837
2015-12-14,1.6768837
2015-12-15,1.6751837000000003
2015-12-16,1.6748837
2015-12-17,1.6751837
2015-12-18,1.6796837000000002
2015-12-21,1.6789837
2015-12-22,1.6784837000000001
2015-12-23,1.6779837000000002
2015-12-24,1.6782837000000002
2015-12-29,1.6796837000000002
2015-12-30,1.6794837000000002
2015-12-31,1.6806837000000001
2016-01-05,1.6829837
2016-01-06,1.6848837
2016-01-07,1.6858837000000002
2016-01-08,1.6854837000000003
2016-01-11,1.6868837
2016-01-12,1.6877837000000002
2016-01-13,1.6870837
2016-01-14,1.6850837
2016-01-15,1.6866837000000001
2016-01-18,1.6852837
2016-01-19,1.6870837
2016-01-20,1.6908837
2016-01-21,1.6844837000000001
2016-01-22,1.6880837000000002
2016-01-25,1.6911837
2016-01-26,1.6910837
2016-01-27,1.6916837000000002
2016-01-28,1.6925837000000001
2016-01-29,1.6938837000000002
2016-01-31,1.6938837000000002
2016-02-01,1.6920837000000002
2016-02-02,1.6948837
2016-02-03,1.6921837000000002
2016-02-04,1.6922837000000002
2016-02-05,1.6922837000000002
2016-02-09,1.6884837000000001
2016-02-10,1.6862837000000002
2016-02-11,1.6857837000000002
2016-02-12,1.6778837000000002
2016-02-15,1.6837837000000002
2016-02-16,1.6859837000000002
2016-02-17,1.6893837
2016-02-18,1.6893837
2016-02-19,1.6885837000000001
2016-02-22,1.6880837000000002
2016-02-23,1.6912837
2016-02-24,1.6928837
2016-02-25,1.6927837000000001
2016-02-26,1.6937837000000002
2016-02-29,1.6968837
2016-03-01,1.6976837000000002
2016-03-02,1.6941837000000002
2016-03-03,1.6941837000000002
2016-03-04,1.6955837000000002
2016-03-07,1.6957837000000002
2016-03-08,1.6963837000000002
2016-03-09,1.6988837
2016-03-10,1.7033837
2016-03-11,1.7016837000000002
2016-03-14,1.6993837
2016-03-15,1.7014837
2016-03-16,1.7013837
2016-03-17,1.7051837
2016-03-18,1.7075837
2016-03-21,1.7087837000000001
2016-03-22,1.7086837000000001
2016-03-23,1.7080837000000004
2016-03-24,1.7087837000000001
2016-03-29,1.7087837000000001
2016-03-30,1.7103837000000004
2016-03-31,1.7121837000000002
2016-04-01,1.7112837
2016-04-04,1.7143837000000004
2016-04-05,1.7148837000000001
2016-04-06,1.7127837000000001
2016-04-07,1.7143837000000004
2016-04-08,1.7123837000000002
2016-04-11,1.7147837000000004
2016-04-12,1.7158837
2016-04-13,1.7155837000000003
2016-04-14,1.7168837000000003
2016-04-15,1.7171837
2016-04-18,1.7183837000000004
2016-04-19,1.7178837000000002
2016-04-20,1.7190837
2016-04-21,1.7180837000000002
2016-04-22,1.7184837000000002
2016-04-26,1.7179837
2016-04-27,1.7177837
2016-04-28,1.7200837
2016-04-29,1.7207837000000001
2016-04-30,1.7207837000000001
2016-05-02,1.7208837000000003
2016-05-03,1.7197837000000002
2016-05-04,1.7214837000000003
2016-05-05,1.7223837000000004
2016-05-06,1.7252837000000003
2016-05-09,1.7266837000000002
2016-05-10,1.7276837
2016-05-11,1.7270837
2016-05-12,1.7255837
2016-05-13,1.7262837000000002
2016-05-16,1.7269837000000003
2016-05-17,1.7269837000000003
2016-05-18,1.7268837000000001
2016-05-19,1.7236837
2016-05-20,1.7254837000000003
2016-05-23,1.7254837000000003
2016-05-24,1.7265837000000004
2016-05-25,1.7257837
2016-05-26,1.7277837000000003
2016-05-27,1.7303837000000004
2016-05-30,1.7293837
2016-05-31,1.7293837
2016-06-01,1.7296837000000003
2016-06-02,1.7305837000000004
2016-06-03,1.7318837
2016-06-07,1.7333837
2016-06-08,1.7318837
2016-06-09,1.7303837000000004
2016-06-10,1.7303837000000004
2016-06-13,1.7295837
2016-06-14,1.7299837
2016-06-15,1.7297837
2016-06-16,1.7290837000000003
2016-06-17,1.7287837000000001
2016-06-20,1.7306837000000002
2016-06-21,1.7319837000000002
2016-06-22,1.7313837000000003
2016-06-23,1.7317837000000003
2016-06-24,1.7370837000000001
2016-06-27,1.7353837000000003
2016-06-28,1.7265837000000002
2016-06-29,1.7267837000000001
2016-06-30,1.7314837000000003
2016-07-01,1.7331837000000003
2016-07-04,1.7319837000000002
2016-07-05,1.7337837000000003
2016-07-06,1.7288837000000001
2016-07-07,1.7287837000000001
2016-07-08,1.7307837000000001
2016-07-11,1.7296837000000003
2016-07-12,1.7348837000000001
2016-07-13,1.7352837000000003
2016-07-14,1.7374837000000003
2016-07-15,1.7370837000000001
2016-07-18,1.7366837000000002
2016-07-19,1.7394837000000003
2016-07-20,1.7408837000000001
2016-07-21,1.7424837000000002
2016-07-22,1.7444837000000002
2016-07-25,1.7449837000000001
2016-07-26,1.7456837000000003
2016-07-27,1.7451837000000001
2016-07-28,1.7460837000000002
2016-07-29,1.7475837000000003
2016-07-31,1.7475837000000003
2016-08-01,1.7483837000000002
2016-08-02,1.7491837000000001
2016-08-03,1.7488837000000002
2016-08-04,1.7496837000000003
2016-08-05,1.7508837000000002
2016-08-08,1.7507837000000002
2016-08-09,1.7522837000000002
2016-08-10,1.7536837000000003
2016-08-11,1.7533837000000003
2016-08-12,1.7539837000000003
2016-08-15,1.7552837000000001
2016-08-16,1.7556837000000003
2016-08-17,1.7554837000000003
2016-08-18,1.7561837000000002
2016-08-19,1.7557837000000003
2016-08-22,1.7547837000000002
2016-08-23,1.7554837000000003
2016-08-24,1.7559837000000003
2016-08-25,1.7566837000000002
2016-08-26,1.7571837000000001
2016-08-29,1.7567837000000002
2016-08-30,1.7575837000000003
2016-08-31,1.7576837000000003
2016-09-01,1.7574837000000003
2016-09-02,1.7579837000000003
2016-09-05,1.7580837000000002
2016-09-06,1.7583837000000002
2016-09-07,1.7595837000000003
2016-09-08,1.7595837000000003
2016-09-09,1.7587837000000002
2016-09-12,1.7557837000000003
2016-09-13,1.7557837000000003
2016-09-14,1.7538837000000003
2016-09-15,1.7549837000000001
2016-09-16,1.7552837000000001
2016-09-19,1.7553837000000003
2016-09-20,1.7557837000000003
2016-09-21,1.7564837000000002
2016-09-22,1.7595837000000003
2016-09-23,1.7611837000000001
2016-09-26,1.7621837000000002
2016-09-28,1.7620837000000003
2016-09-29,1.7620837000000003
2016-09-30,1.7637837000000003
2016-10-03,1.7636837000000003
2016-10-04,1.7621837000000002
2016-10-05,1.7607837000000002
2016-10-06,1.7592837000000003
2016-10-07,1.7594837000000003
2016-10-10,1.7606837000000002
2016-10-11,1.7614837000000003
2016-10-12,1.7590837000000001
2016-10-13,1.7605837000000002
2016-10-14,1.7614837000000003
2016-10-17,1.7599837000000003
2016-10-18,1.7590837000000001
2016-10-19,1.7598837000000003
2016-10-20,1.7607837000000002
2016-10-21,1.7616837000000003
2016-10-25,1.7625837000000002
2016-10-27,1.7608837000000002
2016-10-28,1.7589837000000001
2016-10-31,1.7598837000000003
2016-11-02,1.7581837000000002
2016-11-03,1.7582837000000002
2016-11-04,1.7573837000000003
2016-11-07,1.7567837000000002
2016-11-08,1.7562837000000002
2016-11-09,1.7579837000000003
2016-11-10,1.7409837000000001
2016-11-14,1.7253837000000003
2016-11-15,1.7110837000000003
2016-11-16,1.7125837000000002
2016-11-17,1.7175837000000003
2016-11-18,1.7075837000000003
2016-11-21,1.7014837000000003
2016-11-22,1.7049837000000003
2016-11-23,1.7024837000000002
2016-11-24,1.7004837000000002
2016-11-25,1.7018837000000002
2016-11-28,1.7034837000000003
2016-11-29,1.7081837000000002
2016-11-30,1.7081837000000002
2016-12-01,1.7034837000000003
2016-12-02,1.6984837000000002
2016-12-05,1.7036837000000002
2016-12-07,1.7047837000000003
2016-12-08,1.7066837000000001
2016-12-09,1.7056837000000002
2016-12-12,1.7036837000000002
2016-12-13,1.7040837000000002
2016-12-14,1.7045837000000001
2016-12-15,1.6978837000000002
2016-12-16,1.6956837000000002
2016-12-19,1.6966837000000001
2016-12-20,1.7016837000000002
2016-12-21,1.7004837000000002
2016-12-22,1.7010837
2016-12-23,1.7024837000000002
2016-12-28,1.7021837000000002
2016-12-29,1.7054837000000003
2016-12-30,1.7081837000000002
2017-01-04,1.7088837000000001
2017-01-05,1.7101837000000002
2017-01-06,1.7093837000000003
2017-01-09,1.7116837000000003
2017-01-10,1.7116837000000003
2017-01-11,1.7117837000000002
2017-01-12,1.7127837000000001
2017-01-13,1.7129837
2017-01-16,1.7150837
2017-01-17,1.7156837000000003
2017-01-18,1.7133837000000003
2017-01-19,1.7149837
2017-01-20,1.7146837000000001
2017-01-23,1.7159837000000002
2017-01-24,1.7173837000000003
2017-01-25,1.7170837
2017-01-26,1.7141837000000002
2017-01-27,1.7146837000000001
2017-01-30,1.7162837000000002
2017-01-31,1.7174837000000003
2017-02-01,1.7186837000000001
2017-02-02,1.7187837000000001
2017-02-03,1.7194837000000003
2017-02-07,1.7218837000000002
2017-02-08,1.7218837000000002
2017-02-09,1.7229837000000001
2017-02-10,1.7239837000000002
2017-02-14,1.7257837000000003
2017-02-15,1.7248837000000001
2017-02-16,1.7241837000000002
2017-02-17,1.7250837
2017-02-20,1.7265837000000002
2017-02-21,1.7276837000000003
2017-02-22,1.7277837000000003
2017-02-23,1.7290837000000001
2017-02-24,1.7295837000000003
2017-02-27,1.7291837
2017-02-28,1.7307837000000001
2017-03-01,1.7302837000000002
2017-03-02,1.7298837000000002
2017-03-03,1.7303837000000002
2017-03-06,1.7312837
2017-03-07,1.7316837000000003
2017-03-08,1.7311837
2017-03-09,1.7293837000000003
2017-03-10,1.7287837000000001
2017-03-15,1.7312837
2017-03-16,1.7322837000000002
2017-03-17,1.7331837
2017-03-20,1.7343837000000002
2017-03-21,1.7343837000000002
2017-03-23,1.7190837
2017-03-24,1.7203837000000002
2017-03-27,1.7219837000000002
2017-03-28,1.7209837000000001
2017-03-29,1.7223837000000002
2017-03-30,1.7225837000000002
2017-03-31,1.7239837000000002
2017-04-03,1.7250837
2017-04-04,1.7248837000000001
2017-04-05,1.7256837000000003
2017-04-06,1.7265837000000002
2017-04-07,1.7277837000000003
2017-04-10,1.7281837000000002
2017-04-11,1.7295837000000003
2017-04-12,1.7291837
2017-04-13,1.7292837
2017-04-18,1.7297837000000003
2017-04-19,1.7270837
2017-04-20,1.7286837000000002
2017-04-21,1.7304837000000002
2017-04-24,1.7297837000000003
2017-04-26,1.7335837000000003
2017-04-27,1.7339837000000002
2017-04-28,1.7350837000000001
2017-05-01,1.7357837000000003
2017-05-02,1.7358837000000003
2017-05-03,1.7364837000000002
2017-05-04,1.7363837000000002
2017-05-05,1.7359837000000002
2017-05-08,1.7361837000000002
2017-05-09,1.7356837000000003
2017-05-10,1.7362837000000002
2017-05-11,1.7384837000000002
2017-05-12,1.7409837000000001
2017-05-15,1.7429837000000001
2017-05-16,1.7426837000000002
2017-05-17,1.7429837000000001
2017-05-18,1.7413837
2017-05-19,1.7425837000000002
2017-05-22,1.7428837000000001
2017-05-23,1.7439837000000002
2017-05-24,1.7442837000000002
2017-05-25,1.7447837000000002
2017-05-26,1.7463837000000002
2017-05-29,1.7460837000000002
2017-05-30,1.7466837000000002
2017-05-31,1.7470837000000001
2017-06-01,1.7482837000000002
2017-06-02,1.7482837000000002
2017-06-06,1.7495837000000003
2017-06-07,1.7496837000000003
2017-06-08,1.7497837000000003
2017-06-09,1.7503837000000002
2017-06-12,1.7506837000000002
2017-06-13,1.7510837000000001
2017-06-14,1.7511837000000001
2017-06-15,1.7525837000000002
2017-06-16,1.7520837000000002
2017-06-19,1.7521837000000002
2017-06-20,1.7515837000000003
2017-06-21,1.7522837000000002
2017-06-22,1.7526837000000004
2017-06-23,1.7529837000000001
2017-06-26,1.7532837000000003
2017-06-27,1.7534837000000003
2017-06-28,1.7520837
2017-06-29,1.7504837000000002
2017-06-30,1.7478837
2017-07-03,1.7465837000000004
2017-07-04,1.7464837000000002
2017-07-05,1.7477837000000003
2017-07-06,1.7488837000000004
2017-07-07,1.7468837000000002
2017-07-10,1.7466837000000002
2017-07-11,1.7484837000000004
2017-07-12,1.7501837
2017-07-13,1.7519837000000003
2017-07-14,1.7519837000000003
2017-07-17,1.7533837
2017-07-18,1.7539837
2017-07-19,1.7543837
2017-07-20,1.7544837000000002
2017-07-21,1.7559837000000003
2017-07-24,1.7560837
2017-07-25,1.7559837000000003
2017-07-26,1.7556837
2017-07-27,1.7566837000000004
2017-07-28,1.7570837000000004
2017-07-31,1.7579837
2017-08-01,1.7573837
2017-08-02,1.7577837
2017-08-03,1.7590837000000001
2017-08-04,1.7606837000000004
2017-08-07,1.7614837000000003
2017-08-08,1.7623837
2017-08-09,1.7633837000000003
2017-08-10,1.7613837
2017-08-11,1.7631837000000004
2017-08-14,1.7635837000000003
2017-08-15,1.7636837
2017-08-16,1.7637837000000003
2017-08-17,1.7646837000000004
2017-08-18,1.7654837000000003
2017-08-21,1.7652837000000003
2017-08-22,1.7643837000000002
2017-08-23,1.7649837000000002
2017-08-24,1.7640837
2017-08-25,1.7660837000000003
2017-08-28,1.7666837000000002
2017-08-29,1.7673837000000003
2017-08-30,1.7644837
2017-08-31,1.7649837000000002
2017-09-01,1.7659837
2017-09-04,1.7695837
2017-09-05,1.7699837
2017-09-06,1.7660837000000003
2017-09-07,1.7672837000000001
2017-09-08,1.7637837000000003
2017-09-11,1.7647837000000002
2017-09-12,1.7691837000000001
2017-09-13,1.7683837000000002
2017-09-14,1.7668837000000002
2017-09-15,1.7666837000000002
2017-09-18,1.7658837000000003
2017-09-19,1.7646837000000004
2017-09-20,1.7635837000000003
2017-09-21,1.7621837000000002
2017-09-22,1.7642837000000002
2017-09-25,1.7658837000000003
2017-09-26,1.7672837000000001
2017-09-27,1.7662837000000002
2017-09-28,1.7646837000000002
2017-09-29,1.7646837000000002
2017-10-02,1.7643837000000002
2017-10-03,1.7634837000000003
2017-10-04,1.7641837000000002
2017-10-05,1.7648837000000002
2017-10-06,1.7646837000000002
2017-10-09,1.7648837000000002
2017-10-10,1.7652837000000001
2017-10-11,1.7653837000000001
2017-10-12,1.7665837000000002
2017-10-13,1.7686837000000002
2017-10-16,1.7707837000000002
2017-10-17,1.7708837000000002
2017-10-18,1.7714837
2017-10-19,1.7702837000000002
2017-10-20,1.7722837000000002
2017-10-24,1.7714837
2017-10-25,1.7685837000000002
2017-10-26,1.7669837000000002
2017-10-27,1.7674837000000003
2017-10-30,1.7719837000000003
2017-10-31,1.7746837000000002
2017-11-01,1.7746837000000002
2017-11-02,1.7759837000000003
2017-11-03,1.7774837
2017-11-06,1.7787837000000002
2017-11-07,1.7778837000000003
2017-11-08,1.7781837000000003
2017-11-09,1.7764837000000002
2017-11-10,1.7768837000000002
2017-11-13,1.7762837000000002
2017-11-14,1.7762837000000002
2017-11-15,1.7775837000000003
2017-11-16,1.7789837000000002
2017-11-17,1.7797837000000003
2017-11-20,1.7805837000000002
2017-11-21,1.7808837000000002
2017-11-22,1.7816837000000003
2017-11-23,1.7826837000000002
2017-11-24,1.7823837000000002
2017-11-27,1.7823837000000002
2017-11-28,1.7837837000000003
2017-11-29,1.7846837000000002
2017-11-30,1.7846837000000002
2017-12-01,1.7850837000000002
2017-12-04,1.7855837
2017-12-05,1.7847837000000002
2017-12-06,1.7854837000000001
2017-12-07,1.7859837000000003
2017-12-08,1.7870837000000002
2017-12-11,1.7871837000000002
2017-12-12,1.7866837000000002
2017-12-13,1.7868837000000002
2017-12-14,1.7882837000000003
2017-12-15,1.7898837000000003
2017-12-18,1.7896837000000003
2017-12-19,1.7894837000000001
2017-12-20,1.7878837000000003
2017-12-21,1.7853837000000001
2017-12-22,1.7870837000000002
2017-12-27,1.7879837000000003
2017-12-28,1.7895837000000003
2017-12-29,1.7908837000000002
2018-01-03,1.7900837000000003
2018-01-04,1.7911837000000002
2018-01-05,1.7925837000000002
2018-01-08,1.7926837000000002
2018-01-09,1.7924837000000002
2018-01-10,1.7891837000000002
2018-01-11,1.7879837000000003
2018-01-12,1.7901837000000003
2018-01-15,1.7898837000000003
2018-01-16,1.7903837000000002
2018-01-17,1.7906837000000002
2018-01-18,1.7890837000000002
2018-01-19,1.7859837000000003
2018-01-22,1.7835837000000003
2018-01-23,1.7828837000000002
2018-01-24,1.7864837000000002
2018-01-25,1.7856837000000003
2018-01-26,1.7892837000000001
2018-01-29,1.7874837000000003
2018-01-30,1.7830837000000002
2018-01-31,1.7847837000000002
2018-02-01,1.7844837000000002
2018-02-02,1.7801837000000003
2018-02-05,1.7723837000000002
2018-02-07,1.7766837000000002
2018-02-08,1.7749837000000002
2018-02-09,1.7752837000000001
2018-02-12,1.7715837000000003
2018-02-13,1.7721837000000003
2018-02-14,1.7766837000000002
2018-02-15,1.7682837000000002
2018-02-16,1.7704837000000002
2018-02-19,1.7760837000000003
2018-02-20,1.7765837000000002
2018-02-21,1.7765837000000002
2018-02-22,1.7706837000000002
2018-02-23,1.7733837000000003
2018-02-26,1.7792837000000001
2018-02-27,1.7810837000000002
2018-02-28,1.7785837000000002
2018-03-01,1.7815837000000003
2018-03-02,1.7862837000000003
2018-03-05,1.7825837000000002
2018-03-06,1.7820837000000003
2018-03-07,1.7825837000000002
2018-03-08,1.7825837000000002
2018-03-09,1.7860837000000003
2018-03-12,1.7856837000000003
2018-03-13,1.7870837000000002
2018-03-14,1.7898837000000003
2018-03-15,1.7890837000000002
2018-03-16,1.7905837000000002
2018-03-19,1.7902837000000003
2018-03-20,1.7904837000000002
2018-03-21,1.7920837000000003
2018-03-22,1.7905837000000002
2018-03-23,1.7933837000000001
2018-03-26,1.7940837000000003
2018-03-27,1.7936837
2018-03-28,1.7951837000000002
2018-03-29,1.7950837000000002
2018-04-03,1.7951837000000002
2018-04-04,1.7954837000000001
2018-04-05,1.7951837000000002
2018-04-06,1.7957837
2018-04-09,1.7964837000000002
2018-04-10,1.7966837000000002
2018-04-11,1.7973837000000001
2018-04-12,1.7972837000000002
2018-04-13,1.7982837000000003
2018-04-16,1.7980837000000003
2018-04-17,1.7977837
2018-04-18,1.7985837000000002
2018-04-19,1.7976837
2018-04-20,1.7966837000000002
2018-04-23,1.7948837000000002
2018-04-24,1.7948837000000002
2018-04-26,1.7906837000000002
2018-04-27,1.7951837000000002
2018-04-30,1.7982837000000003
2018-05-01,1.7996837
2018-05-02,1.7978837
2018-05-03,1.7986837000000002
2018-05-04,1.8008837000000002
2018-05-07,1.8019837
2018-05-08,1.8017837
2018-05-09,1.8005837000000002
2018-05-10,1.8010837000000002
2018-05-11,1.8040837000000003
2018-05-14,1.8054837000000001
2018-05-15,1.8038837
2018-05-16,1.7970837000000002
2018-05-17,1.7937837
2018-05-18,1.7936837
2018-05-21,1.7997837
2018-05-22,1.8002837000000003
2018-05-23,1.8013837000000001
2018-05-24,1.8028837000000002
2018-05-25,1.8046837000000002
2018-05-28,1.8056837000000001
2018-05-29,1.8061837000000003
2018-05-30,1.8005837000000002
2018-05-31,1.8027837000000002
2018-06-01,1.8039837
2018-06-05,1.8069837000000002
2018-06-06,1.8069837000000002
2018-06-07,1.8060837000000003
2018-06-08,1.8071837000000002
2018-06-11,1.8072837000000002
2018-06-12,1.8074837000000001
2018-06-13,1.8077837
2018-06-14,1.8084837000000002
2018-06-15,1.8099837
2018-06-18,1.8102837000000003
2018-06-19,1.8111837000000002
2018-06-20,1.8099837
2018-06-21,1.8106837000000002
2018-06-22,1.8112837000000002
2018-06-25,1.8117837000000003
2018-06-26,1.8117837000000003
2018-06-27,1.8128837
2018-06-28,1.8127837000000002
2018-06-29,1.8149837000000004
2018-07-02,1.8161837000000003
2018-07-03,1.8167837000000002
2018-07-04,1.8158837
2018-07-05,1.8153837000000004
2018-07-06,1.8151837000000004
2018-07-09,1.8154837000000001
2018-07-10,1.8163837000000003
2018-07-11,1.8169837000000002
2018-07-12,1.8166837
2018-07-13,1.8182837000000003
2018-07-16,1.8192837000000002
2018-07-17,1.8180837000000003
2018-07-18,1.8193837000000004
2018-07-19,1.8200837
2018-07-20,1.8210837000000004
2018-07-23,1.8206837
2018-07-24,1.8185837
2018-07-25,1.8193837000000004
2018-07-26,1.8195837000000004
2018-07-27,1.8201837000000003
2018-07-30,1.8209837000000002
2018-07-31,1.8204837
2018-08-01,1.8213837000000002
2018-08-02,1.8198837
2018-08-03,1.8213837000000002
2018-08-06,1.8235837000000004
2018-08-07,1.8241837000000003
2018-08-08,1.8233837000000004
2018-08-09,1.8267837
2018-08-10,1.8299837
2018-08-13,1.8301837
2018-08-14,1.8293837000000002
2018-08-15,1.8295837000000001
2018-08-16,1.8287837000000002
2018-08-17,1.8298837000000003
2018-08-20,1.8307837
2018-08-21,1.8305837
2018-08-22,1.8312837000000002
2018-08-23,1.8311837000000004
2018-08-24,1.8324837
2018-08-27,1.8325837000000003
2018-08-28,1.8325837000000003
2018-08-29,1.8327837000000002
2018-08-30,1.8347837
2018-08-31,1.8353837000000004
2018-09-03,1.8359837000000003
2018-09-04,1.8364837
2018-09-05,1.8364837
2018-09-06,1.8370837
2018-09-07,1.8373837000000002
2018-09-10,1.8366837
2018-09-11,1.8369837000000002
2018-09-12,1.8363837000000003
2018-09-13,1.8369837000000002
2018-09-14,1.8373837000000002
2018-09-17,1.8368837
2018-09-18,1.8362837
2018-09-19,1.8342837000000003
2018-09-20,1.8315837000000001
2018-09-21,1.8328837000000002
2018-09-24,1.8333837000000002
2018-09-25,1.8329837000000002
2018-09-26,1.8319837
2018-09-27,1.8345837000000003
2018-09-28,1.8359837
2018-10-01,1.8366837000000003
2018-10-02,1.8356837000000001
2018-10-03,1.8377837000000001
2018-10-04,1.8321837000000003
2018-10-05,1.8290837000000002
2018-10-08,1.8260837000000003
2018-10-09,1.8259837000000003
2018-10-10,1.8279837000000003
2018-10-11,1.8298837000000001
2018-10-12,1.8313837000000002
2018-10-15,1.8323837000000003
2018-10-16,1.8329837000000002
2018-10-17,1.8337837000000001
2018-10-18,1.8323837000000003
2018-10-19,1.8338837000000001
2018-10-23,1.8346837000000003
2018-10-24,1.8352837000000002
2018-10-25,1.8383837000000003
2018-10-26,1.8391837000000002
2018-10-29,1.8395837000000002
2018-10-30,1.8405837000000003
2018-10-31,1.8393837000000002
2018-11-01,1.8387837000000002
2018-11-02,1.8397837000000001
2018-11-05,1.8365837000000003
2018-11-06,1.8371837000000002
2018-11-07,1.8334837000000002
2018-11-08,1.8325837000000003
2018-11-09,1.8319837
2018-11-12,1.8332837000000002
2018-11-13,1.8336837000000001
2018-11-14,1.8345837000000003
2018-11-15,1.8348837000000002
2018-11-16,1.8354837000000002
2018-11-19,1.8364837000000003
2018-11-20,1.8356837000000001
2018-11-21,1.8363837000000003
2018-11-22,1.8370837000000002
2018-11-23,1.8375837000000002
2018-11-26,1.8381837000000003
2018-11-27,1.8401837000000003
2018-11-28,1.8413837000000002
2018-11-29,1.8416837000000001
2018-11-30,1.8419837000000001
2018-12-03,1.8416837000000001
2018-12-04,1.8425837000000003
2018-12-05,1.8406837000000003
2018-12-06,1.8403837000000003
2018-12-07,1.8380837000000003
2018-12-10,1.8383837000000003
2018-12-11,1.8372837000000002
2018-12-12,1.8398837000000001
2018-12-13,1.8411837000000002
2018-12-14,1.8428837000000002
2018-12-17,1.8425837000000003
2018-12-18,1.8396837000000001
2018-12-19,1.8372837000000002
2018-12-20,1.8325837000000003
2018-12-21,1.8371837000000002
2018-12-24,1.8362837000000003
2018-12-27,1.8369837000000002
2018-12-28,1.8345837000000003
2018-12-31,1.8309837000000002
2019-01-03,1.8256837000000001
2019-01-04,1.8119837000000003
2019-01-07,1.8243837000000003
2019-01-08,1.8283837000000003
2019-01-09,1.8310837000000002
2019-01-10,1.8321837000000003
2019-01-11,1.8338837000000001
2019-01-14,1.8314837000000002
2019-01-15,1.8329837000000002
2019-01-16,1.8350837000000002
2019-01-17,1.8353837000000002
2019-01-18,1.8362837000000003
2019-01-21,1.8371837000000002
2019-01-22,1.8372837000000002
2019-01-23,1.8361837000000003
2019-01-24,1.8369837000000002
2019-01-25,1.8375837000000002
2019-01-28,1.8386837000000003
2019-01-29,1.8384837000000003
2019-01-30,1.8380837000000003
2019-01-31,1.8391837000000002
