Date,Price
2004-06-30,1.0
2004-07-01,1.0
2004-07-02,1.001
2004-07-05,1.0014
2004-07-06,1.002
2004-07-07,0.9997
2004-07-08,1.0013
2004-07-09,0.9984
2004-07-12,0.9958
2004-07-13,0.9961
2004-07-14,0.9935
2004-07-15,0.9926
2004-07-16,0.9943
2004-07-19,0.9946
2004-07-20,0.9956
2004-07-21,1.0017
2004-07-22,1.0042
2004-07-23,1.0065
2004-07-26,1.005
2004-07-27,1.0092
2004-07-28,1.012
2004-07-29,1.0136
2004-07-30,1.0138
2004-08-01,1.0187
2004-08-03,1.018
2004-08-04,1.0172
2004-08-05,1.0175
2004-08-06,1.0195
2004-08-09,1.0155
2004-08-10,1.0133
2004-08-11,1.0148
2004-08-12,1.0163
2004-08-13,1.0169
2004-08-16,1.0161
2004-08-17,1.0108
2004-08-18,1.0114
2004-08-19,1.011
2004-08-20,1.0108
2004-08-23,1.0105
2004-08-24,1.012
2004-08-25,1.0116
2004-08-26,1.0145
2004-08-27,1.0148
2004-08-30,1.0164
2004-08-31,1.0186
2004-09-01,1.0194
2004-09-02,1.0198
2004-09-03,1.0175
2004-09-06,1.0176
2004-09-07,1.0213
2004-09-08,1.0198
2004-09-09,1.0215
2004-09-10,1.0243
2004-09-13,1.0235
2004-09-14,1.0249
2004-09-15,1.0295
2004-09-16,1.032
2004-09-17,1.0351
2004-09-20,1.032
2004-09-21,1.0326
2004-09-22,1.0369
2004-09-23,1.0376
2004-09-24,1.0383
2004-09-27,1.046
2004-09-28,1.0463
2004-09-29,1.0487
2004-09-30,1.05
2004-10-01,1.0504
2004-10-04,1.0518
2004-10-05,1.0523
2004-10-06,1.0544
2004-10-07,1.0589
2004-10-08,1.0573
2004-10-11,1.0528
2004-10-12,1.0525
2004-10-13,1.0549
2004-10-14,1.0545
2004-10-15,1.0567
2004-10-18,1.053
2004-10-19,1.0565
2004-10-20,1.0533
2004-10-21,1.0527
2004-10-22,1.0479
2004-10-26,1.0447
2004-10-27,1.045
2004-10-28,1.0475
2004-10-29,1.0575
2004-11-01,1.0586
2004-11-02,1.0632
2004-11-03,1.0644
2004-11-04,1.0718
2004-11-05,1.0764
2004-11-08,1.0775
2004-11-09,1.0762
2004-11-10,1.0781
2004-11-11,1.077
2004-11-12,1.0792
2004-11-15,1.083
2004-11-16,1.0807
2004-11-17,1.079
2004-11-18,1.0793
2004-11-19,1.0808
2004-11-22,1.0804
2004-11-23,1.0769
2004-11-24,1.0797
2004-11-25,1.0827
2004-11-26,1.0914
2004-11-29,1.0923
2004-11-30,1.0949
2004-12-01,1.0943
2004-12-02,1.0943
2004-12-03,1.0991
2004-12-06,1.0995
2004-12-07,1.1012
2004-12-08,1.1102
2004-12-09,1.0992
2004-12-10,1.0954
2004-12-13,1.0988
2004-12-14,1.0989
2004-12-15,1.0979
2004-12-16,1.1001
2004-12-17,1.1015
2004-12-20,1.1027
2004-12-21,1.109
2004-12-22,1.1087
2004-12-23,1.1111
2004-12-24,1.11
2004-12-29,1.1135
2004-12-30,1.117
2004-12-31,1.1203
2005-01-01,1.1238
2005-01-06,1.1272
2005-01-07,1.126
2005-01-10,1.1246
2005-01-11,1.1266
2005-01-12,1.1273
2005-01-13,1.1262
2005-01-14,1.1292
2005-01-17,1.1327
2005-01-18,1.1357
2005-01-19,1.1395
2005-01-20,1.1397
2005-01-21,1.1409
2005-01-24,1.1423
2005-01-25,1.1434
2005-01-26,1.1449
2005-01-27,1.1448
2005-01-28,1.1461
2005-02-01,1.1528
2005-02-02,1.1609
2005-02-03,1.1578
2005-02-04,1.1508
2005-02-07,1.151
2005-02-08,1.1534
2005-02-09,1.1532
2005-02-10,1.1518
2005-02-11,1.1452
2005-02-14,1.1517
2005-02-15,1.1571
2005-02-16,1.1535
2005-02-17,1.1615
2005-02-18,1.1669
2005-02-21,1.1695
2005-02-22,1.1806
2005-02-23,1.1756
2005-02-24,1.1666
2005-02-25,1.1625
2005-02-28,1.1682
2005-03-01,1.1753
2005-03-02,1.1678
2005-03-03,1.1713
2005-03-04,1.1673
2005-03-07,1.1652
2005-03-08,1.1661
2005-03-09,1.1704
2005-03-10,1.1749
2005-03-11,1.1733
2005-03-14,1.1635
2005-03-15,1.1715
2005-03-16,1.17
2005-03-17,1.1662
2005-03-18,1.1571
2005-03-21,1.1677
2005-03-22,1.171
2005-03-23,1.1676
2005-03-24,1.1575
2005-03-29,1.1536
2005-03-30,1.1474
2005-03-31,1.1415
2005-04-01,1.1364
2005-04-05,1.1394
2005-04-06,1.1401
2005-04-07,1.141
2005-04-08,1.1419
2005-04-11,1.1418
2005-04-12,1.1368
2005-04-13,1.1319
2005-04-14,1.1303
2005-04-15,1.1251
2005-04-18,1.1136
2005-04-19,1.0882
2005-04-20,1.0992
2005-04-21,1.1047
2005-04-22,1.0971
2005-04-26,1.1029
2005-04-27,1.1005
2005-04-28,1.0929
2005-04-29,1.0987
2005-05-01,1.0985
2005-05-03,1.1035
2005-05-04,1.1033
2005-05-05,1.1058
2005-05-06,1.0964
2005-05-09,1.0881
2005-05-10,1.083
2005-05-11,1.0828
2005-05-12,1.082
2005-05-13,1.0956
2005-05-16,1.1027
2005-05-17,1.1096
2005-05-18,1.1118
2005-05-19,1.1142
2005-05-20,1.1192
2005-05-23,1.1238
2005-05-24,1.1325
2005-05-25,1.1311
2005-05-26,1.1313
2005-05-27,1.1261
2005-05-30,1.1265
2005-05-31,1.1318
2005-06-01,1.1328
2005-06-02,1.1237
2005-06-03,1.1324
2005-06-07,1.1365
2005-06-08,1.1367
2005-06-09,1.1405
2005-06-10,1.145
2005-06-13,1.1454
2005-06-14,1.1495
2005-06-15,1.1546
2005-06-16,1.1588
2005-06-17,1.163
2005-06-20,1.1675
2005-06-21,1.17
2005-06-22,1.1645
2005-06-23,1.1607
2005-06-24,1.1636
2005-06-27,1.1594
2005-06-28,1.1647
2005-06-29,1.1726
2005-06-30,1.179
2005-07-01,1.1953
2005-07-04,1.1893
2005-07-05,1.1894
2005-07-06,1.1942
2005-07-07,1.196
2005-07-08,1.1888
2005-07-11,1.1863
2005-07-12,1.1963
2005-07-13,1.1977
2005-07-14,1.1989
2005-07-15,1.1934
2005-07-18,1.1931
2005-07-19,1.1944
2005-07-20,1.1942
2005-07-21,1.1992
2005-07-22,1.1986
2005-07-25,1.2018
2005-07-26,1.2087
2005-07-27,1.2092
2005-07-28,1.2109
2005-07-29,1.2113
2005-08-01,1.2095
2005-08-02,1.2097
2005-08-03,1.2052
2005-08-04,1.205
2005-08-05,1.2044
2005-08-08,1.2026
2005-08-09,1.2034
2005-08-10,1.2022
2005-08-11,1.2024
2005-08-12,1.2049
2005-08-15,1.2071
2005-08-16,1.2053
2005-08-17,1.208
2005-08-18,1.211
2005-08-19,1.2084
2005-08-22,1.2043
2005-08-23,1.2102
2005-08-24,1.2174
2005-08-25,1.2193
2005-08-26,1.219
2005-08-29,1.211
2005-08-30,1.2088
2005-08-31,1.2162
2005-09-01,1.2162
2005-09-02,1.2188
2005-09-05,1.219
2005-09-06,1.2201
2005-09-07,1.2195
2005-09-08,1.2221
2005-09-09,1.2264
2005-09-12,1.2235
2005-09-13,1.218
2005-09-14,1.2167
2005-09-15,1.2295
2005-09-16,1.2344
2005-09-19,1.2384
2005-09-20,1.2409
2005-09-21,1.2431
2005-09-22,1.2447
2005-09-23,1.2387
2005-09-26,1.245
2005-09-27,1.2463
2005-09-28,1.2478
2005-09-29,1.2554
2005-09-30,1.2541
2005-10-01,1.25
2005-10-04,1.2537
2005-10-05,1.2536
2005-10-06,1.2491
2005-10-07,1.2344
2005-10-10,1.2385
2005-10-11,1.2448
2005-10-12,1.2424
2005-10-13,1.2369
2005-10-14,1.2276
2005-10-17,1.2231
2005-10-18,1.2198
2005-10-19,1.222
2005-10-20,1.2097
2005-10-21,1.2107
2005-10-25,1.2002
2005-10-26,1.2079
2005-10-27,1.2107
2005-10-28,1.217
2005-10-31,1.2103
2005-11-01,1.2169
2005-11-02,1.2195
2005-11-03,1.222
2005-11-04,1.227
2005-11-07,1.2293
2005-11-08,1.2306
2005-11-09,1.2332
2005-11-10,1.2318
2005-11-11,1.2288
2005-11-14,1.2317
2005-11-15,1.2352
2005-11-16,1.2362
2005-11-17,1.2369
2005-11-18,1.2375
2005-11-21,1.2385
2005-11-22,1.2352
2005-11-23,1.2328
2005-11-24,1.2297
2005-11-25,1.2358
2005-11-28,1.2395
2005-11-29,1.2384
2005-11-30,1.2361
2005-12-01,1.2476
2005-12-02,1.237
2005-12-05,1.2378
2005-12-06,1.2351
2005-12-07,1.2227
2005-12-08,1.2259
2005-12-09,1.2325
2005-12-12,1.2227
2005-12-13,1.2261
2005-12-14,1.2273
2005-12-15,1.228
2005-12-16,1.236
2005-12-19,1.2392
2005-12-20,1.2445
2005-12-21,1.2454
2005-12-22,1.249
2005-12-23,1.2505
2005-12-28,1.2489
2005-12-29,1.2459
2005-12-30,1.2515
2006-01-01,1.2607
2006-01-05,1.2513
2006-01-06,1.2475
2006-01-09,1.2478
2006-01-10,1.2465
2006-01-11,1.2474
2006-01-12,1.2501
2006-01-13,1.2485
2006-01-16,1.2476
2006-01-17,1.2495
2006-01-18,1.2521
2006-01-19,1.2457
2006-01-20,1.2508
2006-01-23,1.252
2006-01-24,1.2472
2006-01-25,1.2482
2006-01-26,1.247
2006-01-27,1.2472
2006-01-31,1.2482
2006-02-01,1.2605
2006-02-02,1.26
2006-02-03,1.263
2006-02-07,1.2552
2006-02-08,1.2539
2006-02-09,1.2512
2006-02-10,1.2534
2006-02-13,1.2501
2006-02-14,1.2527
2006-02-15,1.2566
2006-02-16,1.2539
2006-02-17,1.2571
2006-02-20,1.2615
2006-02-21,1.26
2006-02-22,1.2615
2006-02-23,1.2693
2006-02-24,1.2684
2006-02-27,1.2656
2006-02-28,1.2654
2006-03-01,1.2739
2006-03-02,1.2723
2006-03-03,1.278
2006-03-06,1.2779
2006-03-07,1.2793
2006-03-08,1.2878
2006-03-09,1.2835
2006-03-10,1.2923
2006-03-13,1.2978
2006-03-14,1.3037
2006-03-15,1.3186
2006-03-16,1.3118
2006-03-17,1.3101
2006-03-20,1.3181
2006-03-21,1.3264
2006-03-22,1.3211
2006-03-23,1.3276
2006-03-24,1.326
2006-03-27,1.3375
2006-03-28,1.3961
2006-03-29,1.3929
2006-03-30,1.3958
2006-03-31,1.3945
2006-04-01,1.3755
2006-04-06,1.3812
2006-04-07,1.3852
2006-04-10,1.3841
2006-04-11,1.3759
2006-04-12,1.3738
2006-04-13,1.367
2006-04-18,1.3619
2006-04-19,1.3599
2006-04-20,1.3599
2006-04-21,1.3642
2006-04-24,1.3684
2006-04-26,1.3734
2006-04-27,1.3806
2006-04-28,1.3861
2006-05-01,1.3921
2006-05-02,1.3857
2006-05-03,1.381
2006-05-04,1.3858
2006-05-05,1.3831
2006-05-08,1.3925
2006-05-09,1.3929
2006-05-10,1.4086
2006-05-11,1.4153
2006-05-12,1.4073
2006-05-15,1.4005
2006-05-16,1.3921
2006-05-17,1.3974
2006-05-18,1.4052
2006-05-19,1.3953
2006-05-22,1.3931
2006-05-23,1.3876
2006-05-24,1.3796
2006-05-25,1.3892
2006-05-26,1.3773
2006-05-29,1.3821
2006-05-30,1.3844
2006-05-31,1.3859
2006-06-01,1.3784
2006-06-02,1.3785
2006-06-06,1.3877
2006-06-07,1.3823
2006-06-08,1.3915
2006-06-09,1.3889
2006-06-13,1.3843
2006-06-14,1.3834
2006-06-15,1.3762
2006-06-16,1.3734
2006-06-19,1.3839
2006-06-20,1.3872
2006-06-21,1.3846
2006-06-22,1.39
2006-06-23,1.3978
2006-06-26,1.4015
2006-06-27,1.4011
2006-06-28,1.4061
2006-06-29,1.4035
2006-06-30,1.4089
2006-07-01,1.4079
2006-07-04,1.4086
2006-07-05,1.4104
2006-07-06,1.4179
2006-07-07,1.4223
2006-07-10,1.43
2006-07-11,1.4333
2006-07-12,1.4347
2006-07-13,1.4347
2006-07-14,1.4342
2006-07-17,1.4189
2006-07-18,1.4087
2006-07-19,1.4036
2006-07-20,1.3957
2006-07-21,1.4061
2006-07-24,1.4039
2006-07-25,1.4084
2006-07-26,1.4123
2006-07-27,1.4137
2006-07-28,1.4249
2006-07-31,1.4204
2006-08-01,1.4255
2006-08-02,1.4206
2006-08-03,1.4084
2006-08-04,1.4081
2006-08-07,1.4054
2006-08-08,1.405
2006-08-09,1.4101
2006-08-10,1.404
2006-08-11,1.3969
2006-08-14,1.3942
2006-08-15,1.3922
2006-08-16,1.3919
2006-08-17,1.3793
2006-08-18,1.3856
2006-08-21,1.3824
2006-08-22,1.3762
2006-08-23,1.3742
2006-08-24,1.3785
2006-08-25,1.3804
2006-08-28,1.3818
2006-08-29,1.3816
2006-08-30,1.3842
2006-08-31,1.3795
2006-09-01,1.3838
2006-09-04,1.3797
2006-09-05,1.387
2006-09-06,1.3899
2006-09-07,1.3858
2006-09-08,1.3808
2006-09-11,1.382
2006-09-12,1.3784
2006-09-13,1.375
2006-09-14,1.3761
2006-09-15,1.3713
2006-09-18,1.3718
2006-09-19,1.376
2006-09-20,1.3793
2006-09-21,1.3749
2006-09-22,1.3736
2006-09-25,1.3674
2006-09-26,1.3631
2006-09-27,1.3637
2006-09-28,1.3791
2006-09-29,1.3798
2006-10-01,1.387
2006-10-03,1.3917
2006-10-04,1.391
2006-10-05,1.3904
2006-10-06,1.3952
2006-10-09,1.3954
2006-10-10,1.398
2006-10-11,1.4
2006-10-12,1.4004
2006-10-13,1.3997
2006-10-16,1.4037
2006-10-17,1.4061
2006-10-18,1.4091
2006-10-19,1.4084
2006-10-20,1.4074
2006-10-24,1.4107
2006-10-25,1.4156
2006-10-26,1.4188
2006-10-27,1.4287
2006-10-30,1.4251
2006-10-31,1.4248
2006-11-01,1.4272
2006-11-02,1.4317
2006-11-03,1.43
2006-11-06,1.4266
2006-11-07,1.4287
2006-11-08,1.4338
2006-11-09,1.438
2006-11-10,1.44
2006-11-13,1.4409
2006-11-14,1.4439
2006-11-15,1.4468
2006-11-16,1.4478
2006-11-17,1.4443
2006-11-20,1.4458
2006-11-21,1.4404
2006-11-22,1.4408
2006-11-23,1.4456
2006-11-24,1.4557
2006-11-27,1.4589
2006-11-28,1.4573
2006-11-29,1.4479
2006-11-30,1.4547
2006-12-01,1.4554
2006-12-04,1.4536
2006-12-05,1.448
2006-12-06,1.4496
2006-12-07,1.4539
2006-12-08,1.455
2006-12-11,1.4517
2006-12-12,1.4499
2006-12-13,1.459
2006-12-14,1.4772
2006-12-15,1.4822
2006-12-18,1.481
2006-12-19,1.4791
2006-12-20,1.48
2006-12-21,1.4792
2006-12-22,1.4787
2006-12-27,1.4788
2006-12-28,1.4832
2006-12-29,1.4895
2007-01-01,1.4923
2007-01-04,1.493
2007-01-05,1.4887
2007-01-08,1.4911
2007-01-09,1.4893
2007-01-10,1.4892
2007-01-11,1.4886
2007-01-12,1.4909
2007-01-15,1.4933
2007-01-16,1.4933
2007-01-17,1.4922
2007-01-18,1.4932
2007-01-19,1.4952
2007-01-22,1.5004
2007-01-23,1.5073
2007-01-24,1.5085
2007-01-25,1.509
2007-01-26,1.508
2007-01-30,1.505
2007-01-31,1.5082
2007-02-01,1.5091
2007-02-02,1.5135
2007-02-05,1.5145
2007-02-07,1.5198
2007-02-08,1.525
2007-02-09,1.5285
2007-02-12,1.5274
2007-02-13,1.5241
2007-02-14,1.5268
2007-02-15,1.5274
2007-02-16,1.5315
2007-02-19,1.5322
2007-02-20,1.5249
2007-02-21,1.5101
2007-02-22,1.5131
2007-02-23,1.5215
2007-02-26,1.5241
2007-02-27,1.5193
2007-02-28,1.5089
2007-03-01,1.4944
2007-03-02,1.5004
2007-03-05,1.5042
2007-03-06,1.4859
2007-03-07,1.4904
2007-03-08,1.5011
2007-03-09,1.5015
2007-03-12,1.5055
2007-03-13,1.5043
2007-03-14,1.5025
2007-03-15,1.4945
2007-03-16,1.5001
2007-03-19,1.4959
2007-03-20,1.5023
2007-03-21,1.5066
2007-03-22,1.503
2007-03-23,1.5087
2007-03-26,1.5065
2007-03-27,1.5104
2007-03-28,1.5089
2007-03-29,1.5058
2007-03-30,1.5064
2007-04-01,1.4799
2007-04-05,1.5031
2007-04-10,1.5022
2007-04-11,1.5028
2007-04-12,1.4972
2007-04-13,1.4956
2007-04-16,1.4935
2007-04-17,1.4927
2007-04-18,1.4944
2007-04-19,1.491
2007-04-20,1.4897
2007-04-23,1.4925
2007-04-24,1.4922
2007-04-26,1.4904
2007-04-27,1.4985
2007-04-30,1.4955
2007-05-01,1.5026
2007-05-02,1.4987
2007-05-03,1.4991
2007-05-04,1.5008
2007-05-07,1.5008
2007-05-08,1.5049
2007-05-09,1.5077
2007-05-10,1.5098
2007-05-11,1.5117
2007-05-14,1.5059
2007-05-15,1.5079
2007-05-16,1.5046
2007-05-17,1.502
2007-05-18,1.5116
2007-05-21,1.5127
2007-05-22,1.5149
2007-05-23,1.5179
2007-05-24,1.5194
2007-05-25,1.5186
2007-05-28,1.5051
2007-05-29,1.5029
2007-05-30,1.5042
2007-05-31,1.4964
2007-06-01,1.4991
2007-06-05,1.5001
2007-06-06,1.4998
2007-06-07,1.4927
2007-06-08,1.4793
2007-06-11,1.4655
2007-06-12,1.4728
2007-06-13,1.479
2007-06-14,1.4721
2007-06-15,1.4722
2007-06-18,1.4752
2007-06-19,1.481
2007-06-20,1.4796
2007-06-21,1.4815
2007-06-22,1.4853
2007-06-25,1.484
2007-06-26,1.4768
2007-06-27,1.4679
2007-06-28,1.4493
2007-06-29,1.4504
2007-07-01,1.4503
2007-07-03,1.4499
2007-07-04,1.4468
2007-07-05,1.4497
2007-07-06,1.4498
2007-07-09,1.4524
2007-07-10,1.4591
2007-07-11,1.4532
2007-07-12,1.4491
2007-07-13,1.4502
2007-07-16,1.449
2007-07-17,1.45
2007-07-18,1.4532
2007-07-19,1.4452
2007-07-20,1.4523
2007-07-23,1.4558
2007-07-24,1.4504
2007-07-25,1.4527
2007-07-26,1.4494
2007-07-27,1.4538
2007-07-30,1.4405
2007-07-31,1.442
2007-08-01,1.4408
2007-08-02,1.4133
2007-08-03,1.4143
2007-08-06,1.4114
2007-08-07,1.4008
2007-08-08,1.4167
2007-08-09,1.4241
2007-08-10,1.4336
2007-08-13,1.4169
2007-08-14,1.4177
2007-08-15,1.4158
2007-08-16,1.3973
2007-08-17,1.386
2007-08-20,1.3722
2007-08-21,1.4025
2007-08-22,1.4114
2007-08-23,1.4179
2007-08-24,1.431
2007-08-27,1.4302
2007-08-28,1.4409
2007-08-29,1.4455
2007-08-30,1.4363
2007-08-31,1.4472
2007-09-01,1.4561
2007-09-04,1.4542
2007-09-05,1.4639
2007-09-06,1.4715
2007-09-07,1.462
2007-09-10,1.4682
2007-09-11,1.4595
2007-09-12,1.4595
2007-09-13,1.4569
2007-09-14,1.4574
2007-09-17,1.4679
2007-09-18,1.4707
2007-09-19,1.4608
2007-09-20,1.4582
2007-09-21,1.4627
2007-09-24,1.4545
2007-09-25,1.459
2007-09-26,1.4628
2007-09-27,1.4652
2007-09-28,1.4685
2007-09-30,1.4708
2007-10-04,1.4804
2007-10-07,1.4824
2007-10-08,1.48
2007-10-09,1.4809
2007-10-10,1.4813
2007-10-11,1.4867
2007-10-14,1.4821
2007-10-15,1.4863
2007-10-16,1.489
2007-10-17,1.4961
2007-10-18,1.4977
2007-10-22,1.4918
2007-10-23,1.489
2007-10-24,1.4909
2007-10-25,1.4883
2007-10-28,1.4973
2007-10-29,1.5002
2007-10-30,1.4972
2007-10-31,1.502
2007-11-01,1.5012
2007-11-04,1.4842
2007-11-05,1.4677
2007-11-06,1.4626
2007-11-07,1.4752
2007-11-08,1.4652
2007-11-11,1.4561
2007-11-12,1.4395
2007-11-13,1.442
2007-11-14,1.4553
2007-11-15,1.4465
2007-11-18,1.4432
2007-11-19,1.4392
2007-11-20,1.4148
2007-11-21,1.411
2007-11-22,1.4039
2007-11-25,1.408
2007-11-26,1.4097
2007-11-27,1.4094
2007-11-28,1.4064
2007-11-29,1.4044
2007-11-30,1.4145
2007-12-03,1.4117
2007-12-04,1.4133
2007-12-05,1.4066
2007-12-06,1.4132
2007-12-09,1.42
2007-12-10,1.4142
2007-12-11,1.4061
2007-12-12,1.3916
2007-12-13,1.3861
2007-12-16,1.3794
2007-12-17,1.3704
2007-12-18,1.3582
2007-12-19,1.3729
2007-12-20,1.374
2007-12-23,1.3836
2007-12-26,1.4031
2007-12-27,1.4104
2007-12-30,1.4109
2007-12-31,1.4219
2008-01-03,1.405
2008-01-06,1.3969
2008-01-07,1.3767
2008-01-08,1.3728
2008-01-09,1.3636
2008-01-10,1.3585
2008-01-13,1.346
2008-01-14,1.3229
2008-01-15,1.3291
2008-01-16,1.301
2008-01-17,1.2968
2008-01-20,1.2742
2008-01-21,1.2616
2008-01-22,1.2269
2008-01-23,1.2449
2008-01-24,1.2806
2008-01-28,1.2916
2008-01-29,1.2856
2008-01-30,1.2782
2008-01-31,1.2605
2008-02-03,1.271
2008-02-04,1.2676
2008-02-06,1.2497
2008-02-07,1.2276
2008-02-10,1.229
2008-02-11,1.2188
2008-02-12,1.2094
2008-02-13,1.2041
2008-02-14,1.1921
2008-02-17,1.1662
2008-02-18,1.1805
2008-02-19,1.1838
2008-02-20,1.1779
2008-02-21,1.1803
2008-02-24,1.1733
2008-02-25,1.1838
2008-02-26,1.1857
2008-02-27,1.1898
2008-02-28,1.2001
2008-02-29,1.1948
2008-03-03,1.1851
2008-03-04,1.1829
2008-03-05,1.189
2008-03-06,1.1924
2008-03-09,1.1689
2008-03-10,1.1608
2008-03-11,1.1426
2008-03-12,1.1559
2008-03-13,1.1514
2008-03-16,1.14
2008-03-17,1.1116
2008-03-18,1.0986
2008-03-19,1.1247
2008-03-24,1.1228
2008-03-25,1.1397
2008-03-26,1.1486
2008-03-27,1.1502
2008-03-30,1.1725
2008-03-31,1.1852
2008-04-06,1.2345
2008-04-07,1.2305
2008-04-08,1.2177
2008-04-09,1.2089
2008-04-10,1.1933
2008-04-13,1.1927
2008-04-14,1.1766
2008-04-15,1.1856
2008-04-16,1.1993
2008-04-17,1.2169
2008-04-20,1.2106
2008-04-21,1.2165
2008-04-22,1.205
2008-04-23,1.2123
2008-04-27,1.212
2008-04-28,1.2168
2008-04-29,1.2176
2008-04-30,1.2214
2008-05-01,1.212
2008-05-04,1.2216
2008-05-05,1.2221
2008-05-06,1.218
2008-05-07,1.2065
2008-05-08,1.2133
2008-05-11,1.214
2008-05-12,1.2255
2008-05-13,1.2342
2008-05-14,1.2247
2008-05-15,1.2363
2008-05-18,1.2316
2008-05-19,1.2343
2008-05-20,1.2343
2008-05-21,1.2293
2008-05-22,1.2156
2008-05-25,1.2129
2008-05-26,1.1965
2008-05-27,1.1909
2008-05-28,1.189
2008-05-29,1.1841
2008-05-31,1.2046
2008-06-03,1.1925
2008-06-04,1.2026
2008-06-05,1.2138
2008-06-08,1.2164
2008-06-09,1.2046
2008-06-10,1.2033
2008-06-11,1.203
2008-06-12,1.1853
2008-06-15,1.1868
2008-06-16,1.1805
2008-06-17,1.1843
2008-06-18,1.1788
2008-06-19,1.1556
2008-06-22,1.1472
2008-06-23,1.1405
2008-06-24,1.149
2008-06-25,1.1465
2008-06-26,1.1441
2008-06-29,1.1276
2008-06-30,1.118
2008-07-01,1.1179
2008-07-02,1.1201
2008-07-03,1.1028
2008-07-06,1.1201
2008-07-07,1.1139
2008-07-08,1.1078
2008-07-09,1.1167
2008-07-10,1.103
2008-07-13,1.1032
2008-07-14,1.093
2008-07-15,1.0888
2008-07-16,1.0823
2008-07-17,1.0932
2008-07-20,1.0937
2008-07-21,1.1045
2008-07-22,1.1027
2008-07-23,1.1245
2008-07-24,1.1585
2008-07-27,1.1424
2008-07-28,1.1409
2008-07-29,1.1366
2008-07-30,1.1506
2008-07-31,1.1588
2008-08-03,1.148
2008-08-04,1.1505
2008-08-05,1.1453
2008-08-06,1.1637
2008-08-07,1.1713
2008-08-10,1.185
2008-08-11,1.1947
2008-08-12,1.1942
2008-08-13,1.1854
2008-08-14,1.1822
2008-08-17,1.1847
2008-08-18,1.1794
2008-08-19,1.1783
2008-08-20,1.1809
2008-08-21,1.1744
2008-08-24,1.1737
2008-08-25,1.1805
2008-08-26,1.1778
2008-08-27,1.1777
2008-08-28,1.1803
2008-08-31,1.1883
2008-09-01,1.1879
2008-09-02,1.1942
2008-09-03,1.1984
2008-09-04,1.1825
2008-09-07,1.1741
2008-09-08,1.1863
2008-09-09,1.186
2008-09-10,1.1767
2008-09-11,1.1737
2008-09-14,1.1828
2008-09-15,1.1683
2008-09-16,1.1433
2008-09-17,1.1561
2008-09-18,1.118
2008-09-21,1.1385
2008-09-22,1.153
2008-09-23,1.1406
2008-09-24,1.1478
2008-09-25,1.1384
2008-09-28,1.1297
2008-09-29,1.1201
2008-09-30,1.0878
2008-10-01,1.1059
2008-10-02,1.1177
2008-10-05,1.1028
2008-10-06,1.0684
2008-10-07,1.0629
2008-10-08,1.0359
2008-10-09,1.0458
2008-10-12,0.9909
2008-10-13,0.9981
2008-10-14,1.0393
2008-10-15,1.0305
2008-10-16,0.9957
2008-10-19,1.0058
2008-10-20,1.0226
2008-10-21,1.0419
2008-10-22,1.0305
2008-10-23,1.004
2008-10-27,0.9912
2008-10-28,0.9677
2008-10-29,0.9842
2008-10-30,0.982
2008-10-31,0.9973
2008-11-03,1.0145
2008-11-04,1.0171
2008-11-05,1.0341
2008-11-06,1.0129
2008-11-09,1.0023
2008-11-10,1.0124
2008-11-11,0.9988
2008-11-12,0.9956
2008-11-13,0.9803
2008-11-16,0.9892
2008-11-17,0.9792
2008-11-18,0.9629
2008-11-19,0.9539
2008-11-20,0.9334
2008-11-23,0.9261
2008-11-24,0.9206
2008-11-25,0.9354
2008-11-26,0.9327
2008-11-27,0.9423
2008-11-30,0.9662
2008-12-01,0.969
2008-12-02,0.9634
2008-12-03,0.9684
2008-12-04,0.9778
2008-12-07,0.9796
2008-12-08,0.9979
2008-12-09,0.9958
2008-12-10,0.9879
2008-12-11,0.9867
2008-12-14,0.9747
2008-12-15,0.9689
2008-12-16,0.971
2008-12-17,0.9715
2008-12-18,0.9715
2008-12-21,0.9729
2008-12-22,0.9771
2008-12-23,0.9789
2008-12-28,0.9806
2008-12-29,0.9884
2008-12-30,0.9899
2008-12-31,0.986
2009-01-05,0.9905
2009-01-06,1.0012
2009-01-07,0.9847
2009-01-08,0.9779
2009-01-11,0.984
2009-01-12,0.9826
2009-01-13,0.9866
2009-01-14,0.9925
2009-01-15,0.9871
2009-01-18,0.9829
2009-01-19,0.98
2009-01-20,0.9705
2009-01-21,0.9626
2009-01-22,0.9709
2009-01-26,0.9616
2009-01-27,0.9687
2009-01-28,0.9743
2009-01-29,0.9834
2009-01-31,0.9885
2009-02-02,0.9865
2009-02-03,0.9857
2009-02-04,0.9809
2009-02-08,0.9853
2009-02-09,0.983
2009-02-10,0.9797
2009-02-11,0.9759
2009-02-12,0.9811
2009-02-15,0.9859
2009-02-16,0.9752
2009-02-17,0.9696
2009-02-18,0.9506
2009-02-19,0.9514
2009-02-22,0.9414
2009-02-23,0.9303
2009-02-24,0.925
2009-02-25,0.9284
2009-02-26,0.9379
2009-02-28,0.9378
2009-03-02,0.9181
2009-03-03,0.9105
2009-03-04,0.9212
2009-03-05,0.929
2009-03-08,0.9276
2009-03-09,0.9247
2009-03-10,0.9261
2009-03-11,0.931
2009-03-12,0.9232
2009-03-15,0.9348
2009-03-16,0.9424
2009-03-17,0.9486
2009-03-18,0.9524
2009-03-19,0.9514
2009-03-22,0.9375
2009-03-23,0.9364
2009-03-24,0.9485
2009-03-25,0.9526
2009-03-26,0.9543
2009-03-29,0.9668
2009-03-30,0.9615
2009-03-31,0.9539
2009-04-05,0.9431
2009-04-06,0.9392
2009-04-07,0.9309
2009-04-08,0.9298
2009-04-13,0.9307
2009-04-14,0.9408
2009-04-15,0.9417
2009-04-16,0.9546
2009-04-19,0.9661
2009-04-20,0.9715
2009-04-21,0.96
2009-04-22,0.9605
2009-04-23,0.9541
2009-04-26,0.9576
2009-04-27,0.9559
2009-04-28,0.9617
2009-04-29,0.9714
2009-04-30,0.9851
2009-05-03,0.9884
2009-05-04,0.997
2009-05-05,1.0076
2009-05-06,1.0143
2009-05-07,1.0187
2009-05-10,1.0278
2009-05-11,1.0228
2009-05-12,1.0128
2009-05-13,1.0134
2009-05-14,1.0018
2009-05-17,1.0127
2009-05-18,1.0003
2009-05-19,1.0135
2009-05-20,1.0102
2009-05-21,1.0089
2009-05-24,1.0
2009-05-25,0.9946
2009-05-26,0.986
2009-05-27,0.9889
2009-05-28,0.9756
2009-05-31,0.9899
2009-06-02,1.0004
2009-06-03,1.0079
2009-06-04,0.9971
2009-06-07,1.0051
2009-06-08,1.0003
2009-06-09,1.0061
2009-06-10,1.0062
2009-06-11,0.998
2009-06-14,1.0015
2009-06-15,1.0032
2009-06-16,0.9929
2009-06-17,0.9894
2009-06-18,0.9933
2009-06-21,0.9935
2009-06-22,0.9974
2009-06-23,0.9893
2009-06-24,0.987
2009-06-25,0.9922
2009-06-28,0.9978
2009-06-29,0.9972
2009-06-30,1.0016
2009-07-01,1.001
2009-07-02,0.9996
2009-07-05,0.9931
2009-07-06,0.991
2009-07-07,0.9913
2009-07-08,0.9872
2009-07-09,0.987
2009-07-12,0.9897
2009-07-13,0.9877
2009-07-14,0.9886
2009-07-15,0.994
2009-07-16,1.0007
2009-07-19,0.9992
2009-07-20,1.002
2009-07-21,1.0133
2009-07-22,1.0197
2009-07-23,1.0195
2009-07-26,1.029
2009-07-27,1.043
2009-07-28,1.0483
2009-07-29,1.0434
2009-07-30,1.0444
2009-07-31,1.0536
2009-08-03,1.058
2009-08-04,1.0753
2009-08-05,1.0747
2009-08-06,1.0793
2009-08-09,1.0825
2009-08-10,1.097
2009-08-11,1.0937
2009-08-12,1.0914
2009-08-13,1.1049
2009-08-16,1.1124
2009-08-17,1.0889
2009-08-18,1.083
2009-08-19,1.093
2009-08-20,1.0881
2009-08-23,1.0848
2009-08-24,1.0949
2009-08-25,1.0912
2009-08-26,1.0887
2009-08-27,1.0864
2009-08-30,1.0896
2009-08-31,1.0884
2009-09-01,1.0898
2009-09-02,1.0876
2009-09-03,1.0875
2009-09-06,1.0904
2009-09-07,1.0973
2009-09-08,1.1041
2009-09-09,1.1046
2009-09-10,1.1113
2009-09-13,1.1197
2009-09-14,1.1143
2009-09-15,1.1105
2009-09-16,1.1141
2009-09-17,1.1246
2009-09-20,1.1279
2009-09-21,1.134
2009-09-22,1.1285
2009-09-23,1.1319
2009-09-24,1.1248
2009-09-27,1.1153
2009-09-28,1.1127
2009-09-29,1.1235
2009-09-30,1.1254
2009-10-01,1.1243
2009-10-04,1.1132
2009-10-05,1.11
2009-10-06,1.1085
2009-10-07,1.1174
2009-10-08,1.119
2009-10-11,1.1239
2009-10-12,1.1243
2009-10-13,1.1236
2009-10-14,1.1288
2009-10-15,1.136
2009-10-18,1.1386
2009-10-19,1.1389
2009-10-20,1.1441
2009-10-21,1.13
2009-10-22,1.1324
2009-10-26,1.137
2009-10-27,1.1288
2009-10-28,1.1272
2009-10-29,1.1182
2009-10-31,1.1309
2009-11-02,1.1203
2009-11-03,1.1184
2009-11-04,1.1217
2009-11-05,1.1239
2009-11-08,1.1325
2009-11-09,1.1355
2009-11-10,1.1413
2009-11-11,1.1369
2009-11-12,1.1424
2009-11-15,1.1425
2009-11-16,1.1491
2009-11-17,1.1391
2009-11-18,1.1304
2009-11-19,1.1335
2009-11-22,1.1267
2009-11-23,1.1304
2009-11-24,1.1282
2009-11-25,1.1304
2009-11-26,1.1379
2009-11-29,1.1242
2009-11-30,1.1375
2009-12-01,1.1421
2009-12-02,1.1416
2009-12-03,1.1488
2009-12-06,1.1487
2009-12-07,1.1632
2009-12-08,1.1593
2009-12-09,1.1592
2009-12-10,1.1575
2009-12-13,1.1628
2009-12-14,1.1589
2009-12-15,1.1668
2009-12-16,1.1655
2009-12-17,1.163
2009-12-20,1.1619
2009-12-21,1.1633
2009-12-22,1.1798
2009-12-23,1.1793
2009-12-28,1.1801
2009-12-29,1.1881
2009-12-30,1.1878
2009-12-31,1.1903
2010-01-05,1.1929
2010-01-06,1.1975
2010-01-07,1.2037
2010-01-10,1.2051
2010-01-11,1.2109
2010-01-12,1.2061
2010-01-13,1.2064
2010-01-14,1.2074
2010-01-17,1.2053
2010-01-18,1.2037
2010-01-19,1.1961
2010-01-20,1.2003
2010-01-21,1.1932
2010-01-24,1.179
2010-01-25,1.1734
2010-01-26,1.1766
2010-01-27,1.1679
2010-01-28,1.1734
2010-01-31,1.1611
2010-02-02,1.1632
2010-02-03,1.1666
2010-02-04,1.1631
2010-02-07,1.1446
2010-02-08,1.1435
2010-02-09,1.1371
2010-02-10,1.1426
2010-02-11,1.1387
2010-02-14,1.1436
2010-02-15,1.1299
2010-02-16,1.1398
2010-02-17,1.1496
2010-02-18,1.1429
2010-02-21,1.1478
2010-02-22,1.1553
2010-02-23,1.155
2010-02-24,1.1522
2010-02-25,1.1532
2010-02-28,1.1483
2010-03-01,1.1603
2010-03-02,1.1683
2010-03-03,1.1763
2010-03-04,1.1747
2010-03-07,1.176
2010-03-08,1.1793
2010-03-09,1.1812
2010-03-10,1.1832
2010-03-11,1.1835
2010-03-14,1.1843
2010-03-15,1.1843
2010-03-16,1.1785
2010-03-17,1.1813
2010-03-18,1.1861
2010-03-21,1.1866
2010-03-22,1.1849
2010-03-23,1.1885
2010-03-24,1.1896
2010-03-25,1.19
2010-03-28,1.1904
2010-03-29,1.1968
2010-03-30,1.1988
2010-03-31,1.1969
2010-04-05,1.2014
2010-04-06,1.2103
2010-04-07,1.2115
2010-04-08,1.2104
2010-04-11,1.2091
2010-04-12,1.216
2010-04-13,1.2158
2010-04-14,1.2228
2010-04-15,1.2227
2010-04-18,1.2217
2010-04-19,1.2138
2010-04-20,1.2176
2010-04-21,1.2239
2010-04-22,1.2119
2010-04-25,1.2109
2010-04-26,1.2123
2010-04-27,1.2077
2010-04-28,1.1967
2010-04-29,1.1976
2010-04-30,1.2014
2010-05-03,1.2005
2010-05-04,1.2025
2010-05-05,1.1846
2010-05-06,1.1738
2010-05-09,1.1527
2010-05-10,1.1598
2010-05-11,1.1594
2010-05-12,1.1576
2010-05-13,1.175
2010-05-16,1.17
2010-05-17,1.159
2010-05-18,1.1543
2010-05-19,1.1468
2010-05-20,1.14
2010-05-23,1.1162
2010-05-24,1.1201
2010-05-25,1.1038
2010-05-26,1.1072
2010-05-27,1.1145
2010-05-30,1.1231
2010-05-31,1.1213
2010-06-01,1.1191
2010-06-02,1.1063
2010-06-03,1.1138
2010-06-07,1.1078
2010-06-08,1.098
2010-06-09,1.1008
2010-06-10,1.1023
2010-06-13,1.1097
2010-06-14,1.11
2010-06-15,1.1147
2010-06-16,1.1291
2010-06-17,1.1212
2010-06-20,1.1231
2010-06-21,1.1244
2010-06-22,1.1161
2010-06-23,1.1071
2010-06-24,1.107
2010-06-27,1.0997
2010-06-28,1.0962
2010-06-29,1.0908
2010-06-30,1.0828
2010-07-01,1.0632
2010-07-04,1.0637
2010-07-05,1.0658
2010-07-06,1.0666
2010-07-07,1.0607
2010-07-08,1.0763
2010-07-11,1.0842
2010-07-12,1.0846
2010-07-13,1.0777
2010-07-14,1.0836
2010-07-15,1.0811
2010-07-18,1.0766
2010-07-19,1.0735
2010-07-20,1.0777
2010-07-21,1.079
2010-07-22,1.071
2010-07-25,1.0754
2010-07-26,1.0806
2010-07-27,1.08
2010-07-28,1.0825
2010-07-29,1.085
2010-07-31,1.0893
2010-08-02,1.0945
2010-08-03,1.1015
2010-08-04,1.0878
2010-08-05,1.0907
2010-08-08,1.0886
2010-08-09,1.0893
2010-08-10,1.0841
2010-08-11,1.0787
2010-08-12,1.0708
2010-08-15,1.0735
2010-08-16,1.0745
2010-08-17,1.0737
2010-08-18,1.0706
2010-08-19,1.0759
2010-08-22,1.0672
2010-08-23,1.0702
2010-08-24,1.0718
2010-08-25,1.0661
2010-08-26,1.0633
2010-08-29,1.0618
2010-08-30,1.0703
2010-08-31,1.073
2010-09-01,1.0805
2010-09-02,1.0834
2010-09-05,1.0876
2010-09-06,1.0928
2010-09-07,1.1
2010-09-08,1.0946
2010-09-09,1.1002
2010-09-12,1.1009
2010-09-13,1.103
2010-09-14,1.1113
2010-09-15,1.1128
2010-09-16,1.1122
2010-09-19,1.1205
2010-09-20,1.1202
2010-09-21,1.1291
2010-09-22,1.1286
2010-09-23,1.1266
2010-09-26,1.1216
2010-09-27,1.1306
2010-09-28,1.1272
2010-09-29,1.1251
2010-09-30,1.1155
2010-10-03,1.1226
2010-10-04,1.1223
2010-10-05,1.1199
2010-10-06,1.1281
2010-10-07,1.1283
2010-10-10,1.1251
2010-10-11,1.1255
2010-10-12,1.1211
2010-10-13,1.1208
2010-10-14,1.132
2010-10-17,1.1316
2010-10-18,1.1356
2010-10-19,1.1306
2010-10-20,1.128
2010-10-21,1.1337
2010-10-25,1.1441
2010-10-26,1.1441
2010-10-27,1.1363
2010-10-28,1.1366
2010-10-31,1.1387
2010-11-01,1.1384
2010-11-02,1.1442
2010-11-03,1.1439
2010-11-04,1.1427
2010-11-07,1.1467
2010-11-08,1.1497
2010-11-09,1.1424
2010-11-10,1.1408
2010-11-11,1.1474
2010-11-14,1.1393
2010-11-15,1.1388
2010-11-16,1.1347
2010-11-17,1.1213
2010-11-18,1.121
2010-11-21,1.1203
2010-11-22,1.1268
2010-11-23,1.1175
2010-11-24,1.1203
2010-11-25,1.1201
2010-11-28,1.1223
2010-11-29,1.1216
2010-11-30,1.122
2010-12-01,1.1219
2010-12-02,1.1301
2010-12-05,1.1338
2010-12-06,1.1336
2010-12-07,1.1345
2010-12-08,1.1376
2010-12-09,1.1446
2010-12-12,1.1419
2010-12-13,1.1477
2010-12-14,1.1475
2010-12-15,1.1502
2010-12-16,1.1518
2010-12-19,1.1562
2010-12-20,1.1586
2010-12-21,1.1634
2010-12-22,1.1679
2010-12-23,1.1704
2010-12-28,1.167
2010-12-29,1.165
2010-12-30,1.1648
2010-12-31,1.1573
2011-01-05,1.1629
2011-01-06,1.1663
2011-01-09,1.1609
2011-01-10,1.1626
2011-01-11,1.1613
2011-01-12,1.1662
2011-01-13,1.1768
2011-01-16,1.1739
2011-01-17,1.172
2011-01-18,1.1773
2011-01-19,1.1836
2011-01-20,1.1762
2011-01-23,1.1751
2011-01-24,1.1774
2011-01-25,1.1841
2011-01-26,1.1855
2011-01-27,1.1781
2011-01-31,1.1727
2011-02-01,1.1794
2011-02-02,1.185
2011-02-03,1.1854
2011-02-06,1.1898
2011-02-07,1.195
2011-02-08,1.1951
2011-02-09,1.1948
2011-02-10,1.1891
2011-02-13,1.1869
2011-02-14,1.1931
2011-02-15,1.1939
2011-02-16,1.1924
2011-02-17,1.1959
2011-02-20,1.2007
2011-02-21,1.1928
2011-02-22,1.1843
2011-02-23,1.1811
2011-02-24,1.1798
2011-02-27,1.1813
2011-02-28,1.1899
2011-03-01,1.1966
2011-03-02,1.191
2011-03-03,1.1969
2011-03-06,1.2078
2011-03-07,1.2114
2011-03-08,1.214
2011-03-09,1.2153
2011-03-10,1.2097
2011-03-13,1.1978
2011-03-14,1.1957
2011-03-15,1.1791
2011-03-16,1.1836
2011-03-17,1.1931
2011-03-20,1.2026
2011-03-21,1.2076
2011-03-22,1.2117
2011-03-23,1.213
2011-03-24,1.2174
2011-03-27,1.2228
2011-03-28,1.225
2011-03-29,1.2291
2011-03-30,1.2347
2011-03-31,1.2397
2011-04-03,1.241
2011-04-04,1.2453
2011-04-05,1.2507
2011-04-06,1.2478
2011-04-07,1.251
2011-04-10,1.2547
2011-04-11,1.2622
2011-04-12,1.2551
2011-04-13,1.2555
2011-04-14,1.2556
2011-04-17,1.2501
2011-04-18,1.2531
2011-04-19,1.2445
2011-04-20,1.2503
2011-04-25,1.2585
2011-04-26,1.2578
2011-04-27,1.2569
2011-04-28,1.2633
2011-04-30,1.2622
2011-05-02,1.2561
2011-05-03,1.2529
2011-05-04,1.2531
2011-05-05,1.2511
2011-05-08,1.2502
2011-05-09,1.2538
2011-05-10,1.2529
2011-05-11,1.2605
2011-05-12,1.2528
2011-05-15,1.254
2011-05-16,1.2514
2011-05-17,1.2529
2011-05-18,1.2563
2011-05-19,1.2677
2011-05-22,1.2747
2011-05-23,1.266
2011-05-24,1.2599
2011-05-25,1.2521
2011-05-26,1.2516
2011-05-29,1.2592
2011-05-30,1.2616
2011-05-31,1.2607
2011-06-01,1.2655
2011-06-02,1.258
2011-06-06,1.2514
2011-06-07,1.2481
2011-06-08,1.2486
2011-06-09,1.2485
2011-06-12,1.2472
2011-06-13,1.2488
2011-06-14,1.2511
2011-06-15,1.2514
2011-06-16,1.2406
2011-06-19,1.2424
2011-06-20,1.2326
2011-06-21,1.2379
2011-06-22,1.2406
2011-06-23,1.2351
2011-06-26,1.2361
2011-06-27,1.2353
2011-06-28,1.2376
2011-06-29,1.236
2011-06-30,1.2449
2011-07-03,1.2483
2011-07-04,1.2565
2011-07-05,1.258
2011-07-06,1.2595
2011-07-07,1.2562
2011-07-10,1.2532
2011-07-11,1.2511
2011-07-12,1.2455
2011-07-13,1.2392
2011-07-14,1.2378
2011-07-17,1.2312
2011-07-18,1.2269
2011-07-19,1.2219
2011-07-20,1.2304
2011-07-21,1.2357
2011-07-24,1.2415
2011-07-25,1.2407
2011-07-26,1.2403
2011-07-27,1.2369
2011-07-28,1.2338
2011-07-31,1.2401
2011-08-01,1.2462
2011-08-02,1.2433
2011-08-03,1.2346
2011-08-04,1.2342
2011-08-07,1.2107
2011-08-08,1.1923
2011-08-09,1.1752
2011-08-10,1.1971
2011-08-11,1.1988
2011-08-14,1.2028
2011-08-15,1.2108
2011-08-16,1.2105
2011-08-17,1.212
2011-08-18,1.208
2011-08-21,1.1977
2011-08-22,1.1921
2011-08-23,1.1914
2011-08-24,1.1954
2011-08-25,1.2006
2011-08-28,1.202
2011-08-29,1.2071
2011-08-30,1.2057
2011-08-31,1.2099
2011-09-01,1.2189
2011-09-04,1.2153
2011-09-05,1.2134
2011-09-06,1.2049
2011-09-07,1.2068
2011-09-08,1.2089
2011-09-11,1.209
2011-09-12,1.1907
2011-09-13,1.1967
2011-09-14,1.1881
2011-09-15,1.1941
2011-09-18,1.2003
2011-09-19,1.1999
2011-09-20,1.1996
2011-09-21,1.2048
2011-09-22,1.1992
2011-09-25,1.1961
2011-09-26,1.1993
2011-09-27,1.2056
2011-09-28,1.2032
2011-09-29,1.2092
2011-09-30,1.215
2011-10-03,1.2105
2011-10-04,1.2081
2011-10-05,1.213
2011-10-06,1.2167
2011-10-09,1.2278
2011-10-10,1.2282
2011-10-11,1.2326
2011-10-12,1.2196
2011-10-13,1.2181
2011-10-16,1.2131
2011-10-17,1.2154
2011-10-18,1.2092
2011-10-19,1.2146
2011-10-20,1.2149
2011-10-24,1.2114
2011-10-25,1.2188
2011-10-26,1.219
2011-10-27,1.2185
2011-10-30,1.2261
2011-10-31,1.2285
2011-11-01,1.2236
2011-11-02,1.2139
2011-11-03,1.2124
2011-11-06,1.2218
2011-11-07,1.226
2011-11-08,1.2234
2011-11-09,1.2282
2011-11-10,1.2242
2011-11-13,1.2285
2011-11-14,1.2273
2011-11-15,1.2284
2011-11-16,1.2257
2011-11-17,1.228
2011-11-20,1.2251
2011-11-21,1.2268
2011-11-22,1.2248
2011-11-23,1.2204
2011-11-24,1.2138
2011-11-27,1.2115
2011-11-28,1.2065
2011-11-29,1.214
2011-11-30,1.2255
2011-12-01,1.2263
2011-12-04,1.2266
2011-12-05,1.224
2011-12-06,1.2224
2011-12-07,1.2235
2011-12-08,1.2158
2011-12-11,1.2138
2011-12-12,1.2209
2011-12-13,1.2203
2011-12-14,1.2244
2011-12-15,1.2203
2011-12-18,1.2126
2011-12-19,1.2084
2011-12-20,1.2037
2011-12-21,1.2069
2011-12-22,1.1988
2011-12-27,1.2027
2011-12-28,1.2017
2011-12-29,1.2011
2011-12-31,1.2082
2012-01-04,1.2197
2012-01-05,1.2125
2012-01-08,1.2055
2012-01-09,1.2055
2012-01-10,1.2031
2012-01-11,1.2068
2012-01-12,1.2048
2012-01-15,1.2052
2012-01-16,1.2026
2012-01-17,1.2083
2012-01-18,1.2105
2012-01-19,1.2148
2012-01-22,1.2145
2012-01-23,1.2184
2012-01-24,1.2157
2012-01-25,1.2096
2012-01-26,1.2126
2012-01-30,1.2175
2012-01-31,1.2166
2012-02-01,1.2171
2012-02-02,1.2233
2012-02-06,1.2211
2012-02-07,1.2194
2012-02-08,1.2238
2012-02-09,1.2232
2012-02-12,1.2271
2012-02-13,1.2307
2012-02-14,1.2156
2012-02-15,1.2071
2012-02-16,1.207
2012-02-19,1.2094
2012-02-20,1.2196
2012-02-21,1.2265
2012-02-22,1.2266
2012-02-23,1.2271
2012-02-26,1.2184
2012-02-27,1.2136
2012-02-28,1.2119
2012-02-29,1.2133
2012-03-01,1.2105
2012-03-04,1.2203
2012-03-05,1.2163
2012-03-06,1.2181
2012-03-07,1.2207
2012-03-08,1.2275
2012-03-11,1.2334
2012-03-12,1.2388
2012-03-13,1.2382
2012-03-14,1.2458
2012-03-15,1.2465
2012-03-18,1.2443
2012-03-19,1.2435
2012-03-20,1.2392
2012-03-21,1.2391
2012-03-22,1.2348
2012-03-25,1.2325
2012-03-26,1.2363
2012-03-27,1.2364
2012-03-28,1.2407
2012-03-29,1.2465
2012-03-31,1.2516
2012-04-01,1.2515
2012-04-02,1.2487
2012-04-03,1.2461
2012-04-04,1.2511
2012-04-09,1.2509
2012-04-10,1.2499
2012-04-11,1.2453
2012-04-12,1.2465
2012-04-15,1.2428
2012-04-16,1.235
2012-04-17,1.2335
2012-04-18,1.2428
2012-04-19,1.2444
2012-04-22,1.2539
2012-04-23,1.252
2012-04-25,1.2502
2012-04-26,1.2518
2012-04-29,1.258
2012-04-30,1.2654
2012-05-01,1.2732
2012-05-02,1.28
2012-05-03,1.2777
2012-05-06,1.2742
2012-05-07,1.2676
2012-05-08,1.269
2012-05-09,1.2676
2012-05-10,1.2679
2012-05-13,1.2661
2012-05-14,1.2631
2012-05-15,1.2595
2012-05-16,1.246
2012-05-17,1.2482
2012-05-20,1.2435
2012-05-21,1.2431
2012-05-22,1.2506
2012-05-23,1.2513
2012-05-24,1.2547
2012-05-27,1.2521
2012-05-28,1.248
2012-05-29,1.2477
2012-05-30,1.25
2012-05-31,1.2485
2012-06-04,1.2413
2012-06-05,1.2378
2012-06-06,1.2491
2012-06-07,1.2554
2012-06-10,1.2543
2012-06-11,1.253
2012-06-12,1.2443
2012-06-13,1.2342
2012-06-14,1.2406
2012-06-17,1.2449
2012-06-18,1.2483
2012-06-19,1.25
2012-06-20,1.245
2012-06-21,1.2439
2012-06-24,1.2393
2012-06-25,1.2438
2012-06-26,1.2397
2012-06-27,1.2485
2012-06-28,1.2478
2012-06-30,1.25
2012-07-02,1.2589
2012-07-03,1.2557
2012-07-04,1.263
2012-07-05,1.2673
2012-07-08,1.2641
2012-07-09,1.2627
2012-07-10,1.2599
2012-07-11,1.2616
2012-07-12,1.266
2012-07-15,1.2692
2012-07-16,1.2652
2012-07-17,1.2639
2012-07-18,1.2673
2012-07-19,1.2768
2012-07-22,1.2743
2012-07-23,1.271
2012-07-24,1.2728
2012-07-25,1.2712
2012-07-26,1.275
2012-07-29,1.2813
2012-07-30,1.2751
2012-07-31,1.2788
2012-08-01,1.2722
2012-08-02,1.2804
2012-08-05,1.2725
2012-08-06,1.2786
2012-08-07,1.2809
2012-08-08,1.2805
2012-08-09,1.284
2012-08-12,1.2753
2012-08-13,1.2755
2012-08-14,1.281
2012-08-15,1.2811
2012-08-16,1.2839
2012-08-19,1.2971
2012-08-20,1.2945
2012-08-21,1.2989
2012-08-22,1.2929
2012-08-23,1.2922
2012-08-26,1.2872
2012-08-27,1.2914
2012-08-28,1.2952
2012-08-29,1.2958
2012-08-30,1.2992
2012-08-31,1.302
2012-09-03,1.3019
2012-09-04,1.308
2012-09-05,1.3038
2012-09-06,1.3085
2012-09-09,1.3226
2012-09-10,1.3228
2012-09-11,1.322
2012-09-12,1.3349
2012-09-13,1.3356
2012-09-16,1.3388
2012-09-17,1.3471
2012-09-18,1.3468
2012-09-19,1.3464
2012-09-20,1.3494
2012-09-23,1.3468
2012-09-24,1.3431
2012-09-25,1.3446
2012-09-26,1.3371
2012-09-27,1.3363
2012-09-30,1.3406
2012-10-01,1.3379
2012-10-02,1.3489
2012-10-03,1.3518
2012-10-04,1.3469
2012-10-07,1.3483
2012-10-08,1.3544
2012-10-09,1.3524
2012-10-10,1.3521
2012-10-11,1.3453
2012-10-14,1.3521
2012-10-15,1.3579
2012-10-16,1.3586
2012-10-17,1.3726
2012-10-18,1.3875
2012-10-22,1.3843
2012-10-23,1.3887
2012-10-24,1.3875
2012-10-25,1.3901
2012-10-28,1.389
2012-10-29,1.3836
2012-10-30,1.3814
2012-10-31,1.3879
2012-11-01,1.3805
2012-11-04,1.3714
2012-11-05,1.3732
2012-11-06,1.3786
2012-11-07,1.3826
2012-11-08,1.3832
2012-11-11,1.383
2012-11-12,1.3829
2012-11-13,1.38
2012-11-14,1.3814
2012-11-15,1.3775
2012-11-18,1.3735
2012-11-19,1.374
2012-11-20,1.3792
2012-11-21,1.3724
2012-11-22,1.3786
2012-11-25,1.3812
2012-11-26,1.3818
2012-11-27,1.3838
2012-11-28,1.3883
2012-11-29,1.395
2012-11-30,1.4091
2012-12-03,1.4064
2012-12-04,1.3988
2012-12-05,1.3988
2012-12-06,1.4
2012-12-09,1.4021
2012-12-10,1.3975
2012-12-11,1.3919
2012-12-12,1.3951
2012-12-13,1.3919
2012-12-16,1.4006
2012-12-17,1.3985
2012-12-18,1.4008
2012-12-19,1.4156
2012-12-20,1.4311
2012-12-23,1.4304
2012-12-26,1.4299
2012-12-27,1.4316
2012-12-30,1.4396
2012-12-31,1.436
2013-01-03,1.4525
2013-01-06,1.4492
2013-01-07,1.4543
2013-01-08,1.4564
2013-01-09,1.4573
2013-01-10,1.4618
2013-01-13,1.4605
2013-01-14,1.462
2013-01-15,1.4655
2013-01-16,1.4607
2013-01-17,1.464
2013-01-20,1.455
2013-01-21,1.4568
2013-01-22,1.458
2013-01-23,1.4594
2013-01-24,1.4672
2013-01-28,1.473
2013-01-29,1.4729
2013-01-30,1.4897
2013-01-31,1.4825
2013-02-03,1.4842
2013-02-04,1.4836
2013-02-06,1.4771
2013-02-07,1.4788
2013-02-10,1.4839
2013-02-11,1.4809
2013-02-12,1.4783
2013-02-13,1.4772
2013-02-14,1.4808
2013-02-17,1.4723
2013-02-18,1.4752
2013-02-19,1.4828
2013-02-20,1.4826
2013-02-21,1.4711
2013-02-24,1.4816
2013-02-25,1.4844
2013-02-26,1.4841
2013-02-27,1.4989
2013-02-28,1.5043
2013-03-03,1.5058
2013-03-04,1.4846
2013-03-05,1.4842
2013-03-06,1.4992
2013-03-07,1.5101
2013-03-10,1.5124
2013-03-11,1.514
2013-03-12,1.5158
2013-03-13,1.5083
2013-03-14,1.5198
2013-03-17,1.5297
2013-03-18,1.5153
2013-03-19,1.5197
2013-03-20,1.5226
2013-03-21,1.512
2013-03-24,1.5064
2013-03-25,1.5101
2013-03-26,1.5142
2013-03-27,1.5275
2013-03-31,1.5304
2013-04-04,1.5292
2013-04-07,1.527
2013-04-08,1.5187
2013-04-09,1.5216
2013-04-10,1.5279
2013-04-11,1.5255
2013-04-14,1.5311
2013-04-15,1.534
2013-04-16,1.5217
2013-04-17,1.5354
2013-04-18,1.5269
2013-04-21,1.533
2013-04-22,1.5393
2013-04-23,1.5478
2013-04-25,1.5575
2013-04-28,1.5652
2013-04-29,1.5805
2013-04-30,1.5879
2013-05-01,1.5921
2013-05-02,1.5855
2013-05-05,1.5789
2013-05-06,1.5966
2013-05-07,1.6046
2013-05-08,1.6063
2013-05-09,1.5984
2013-05-12,1.6006
2013-05-13,1.6094
2013-05-14,1.6021
2013-05-15,1.5995
2013-05-16,1.5941
2013-05-19,1.5914
2013-05-20,1.5965
2013-05-21,1.5919
2013-05-22,1.5972
2013-05-23,1.5898
2013-05-26,1.5729
2013-05-27,1.5579
2013-05-28,1.5579
2013-05-29,1.5652
2013-05-30,1.5599
2013-05-31,1.5721
2013-06-04,1.5593
2013-06-05,1.551
2013-06-06,1.5421
2013-06-09,1.5342
2013-06-10,1.5463
2013-06-11,1.5475
2013-06-12,1.5381
2013-06-13,1.5269
2013-06-16,1.5333
2013-06-17,1.5401
2013-06-18,1.5472
2013-06-19,1.5404
2013-06-20,1.5253
2013-06-23,1.5117
2013-06-24,1.5093
2013-06-25,1.5064
2013-06-26,1.5305
2013-06-27,1.54
2013-06-30,1.5444
2013-07-01,1.5324
2013-07-02,1.5461
2013-07-03,1.5337
2013-07-04,1.54
2013-07-07,1.5482
2013-07-08,1.5481
2013-07-09,1.5626
2013-07-10,1.5759
2013-07-11,1.582
2013-07-14,1.5828
2013-07-15,1.5945
2013-07-16,1.5924
2013-07-17,1.5908
2013-07-18,1.5829
2013-07-21,1.5764
2013-07-22,1.5821
2013-07-23,1.5886
2013-07-24,1.5897
2013-07-25,1.5795
2013-07-28,1.5838
2013-07-29,1.5782
2013-07-30,1.5734
2013-07-31,1.5677
2013-08-01,1.5742
2013-08-04,1.5832
2013-08-05,1.5846
2013-08-06,1.5819
2013-08-07,1.5669
2013-08-08,1.5663
2013-08-11,1.5671
2013-08-12,1.5618
2013-08-13,1.5662
2013-08-14,1.5622
2013-08-15,1.5598
2013-08-18,1.5522
2013-08-19,1.5609
2013-08-20,1.5637
2013-08-21,1.5764
2013-08-22,1.569
2013-08-25,1.5716
2013-08-26,1.5777
2013-08-27,1.5841
2013-08-28,1.5758
2013-08-29,1.5798
2013-08-31,1.5841
2013-09-02,1.6016
2013-09-03,1.6056
2013-09-04,1.5978
2013-09-05,1.5949
2013-09-08,1.5939
2013-09-09,1.5982
2013-09-10,1.6004
2013-09-11,1.5998
2013-09-12,1.5953
2013-09-15,1.6012
2013-09-16,1.6119
2013-09-17,1.61
2013-09-18,1.6124
2013-09-19,1.6279
2013-09-22,1.6125
2013-09-23,1.6098
2013-09-24,1.6131
2013-09-25,1.6323
2013-09-26,1.6323
2013-09-29,1.6411
2013-09-30,1.6245
2013-10-01,1.631
2013-10-02,1.6394
2013-10-03,1.641
2013-10-06,1.6402
2013-10-07,1.6393
2013-10-08,1.6366
2013-10-09,1.6305
2013-10-10,1.6263
2013-10-13,1.6434
2013-10-14,1.633
2013-10-15,1.6419
2013-10-16,1.6407
2013-10-17,1.6423
2013-10-20,1.6309
2013-10-21,1.6537
2013-10-22,1.6539
2013-10-23,1.6647
2013-10-24,1.6534
2013-10-28,1.6742
2013-10-29,1.676
2013-10-30,1.6884
2013-10-31,1.6913
2013-11-03,1.6941
2013-11-04,1.6963
2013-11-05,1.7024
2013-11-06,1.7002
2013-11-07,1.7022
2013-11-10,1.7131
2013-11-11,1.7037
2013-11-12,1.703
2013-11-13,1.7044
2013-11-14,1.7123
2013-11-17,1.7033
2013-11-18,1.6953
2013-11-19,1.6876
2013-11-20,1.6739
2013-11-21,1.6633
2013-11-24,1.6639
2013-11-25,1.658
2013-11-26,1.6665
2013-11-27,1.6626
2013-11-28,1.6627
2013-11-30,1.6571
2013-12-02,1.6517
2013-12-03,1.6493
2013-12-04,1.6433
2013-12-05,1.6457
2013-12-08,1.6499
2013-12-09,1.6457
2013-12-10,1.6405
2013-12-11,1.6388
2013-12-12,1.6387
2013-12-15,1.6391
2013-12-16,1.6532
2013-12-17,1.6542
2013-12-18,1.638
2013-12-19,1.6477
2013-12-22,1.6495
2013-12-23,1.6574
2013-12-26,1.6718
2013-12-29,1.6664
2013-12-30,1.6721
2013-12-31,1.6645
2014-01-05,1.6678
2014-01-06,1.6775
2014-01-07,1.6802
2014-01-08,1.6852
2014-01-09,1.6897
2014-01-12,1.7089
2014-01-13,1.7183
2014-01-14,1.6949
2014-01-15,1.711
2014-01-16,1.7168
2014-01-19,1.7073
2014-01-20,1.7066
2014-01-21,1.7155
2014-01-22,1.7313
2014-01-23,1.7135
2014-01-27,1.7047
2014-01-28,1.702
2014-01-29,1.7142
2014-01-30,1.7041
2014-01-31,1.712
2014-02-03,1.7041
2014-02-04,1.6879
2014-02-06,1.6915
2014-02-09,1.7019
2014-02-10,1.6963
2014-02-11,1.6987
2014-02-12,1.7019
2014-02-13,1.6976
2014-02-16,1.7062
2014-02-17,1.7106
2014-02-18,1.7162
2014-02-19,1.7234
2014-02-20,1.7172
2014-02-23,1.7249
2014-02-24,1.7419
2014-02-25,1.7376
2014-02-26,1.7472
2014-02-27,1.7353
2014-02-28,1.747
2014-03-03,1.7486
2014-03-04,1.7567
2014-03-05,1.7703
2014-03-06,1.7898
2014-03-09,1.7903
2014-03-10,1.7826
2014-03-11,1.787
2014-03-12,1.7861
2014-03-13,1.7915
2014-03-16,1.7803
2014-03-17,1.7779
2014-03-18,1.7858
2014-03-19,1.7968
2014-03-20,1.8095
2014-03-23,1.7903
2014-03-24,1.7837
2014-03-25,1.7889
2014-03-26,1.7897
2014-03-27,1.7927
2014-03-30,1.7942
2014-03-31,1.7983
2014-04-03,1.7862
2014-04-06,1.7852
2014-04-07,1.7705
2014-04-08,1.7637
2014-04-09,1.7745
2014-04-10,1.7872
2014-04-13,1.7785
2014-04-14,1.7695
2014-04-15,1.7684
2014-04-16,1.7775
2014-04-21,1.7906
2014-04-22,1.7919
2014-04-23,1.7985
2014-04-27,1.8117
2014-04-28,1.7936
2014-04-29,1.8072
2014-04-30,1.8332
2014-05-01,1.8178
2014-05-04,1.8311
2014-05-05,1.8205
2014-05-06,1.8166
2014-05-07,1.825
2014-05-08,1.822
2014-05-11,1.8107
2014-05-12,1.8122
2014-05-13,1.826
2014-05-14,1.829
2014-05-15,1.8216
2014-05-18,1.8199
2014-05-19,1.8108
2014-05-20,1.8008
2014-05-21,1.7934
2014-05-22,1.8044
2014-05-25,1.8272
2014-05-26,1.8251
2014-05-27,1.8276
2014-05-28,1.8468
2014-05-29,1.8466
2014-05-31,1.8465
2014-06-03,1.8413
2014-06-04,1.8444
2014-06-05,1.845
2014-06-08,1.8611
2014-06-09,1.8607
2014-06-10,1.8574
2014-06-11,1.8608
2014-06-12,1.8672
2014-06-15,1.8567
2014-06-16,1.8607
2014-06-17,1.8601
2014-06-18,1.8638
2014-06-19,1.8646
2014-06-22,1.8562
2014-06-23,1.8544
2014-06-24,1.8517
2014-06-25,1.8442
2014-06-26,1.8496
2014-06-29,1.8515
2014-06-30,1.8465
2014-07-01,1.8477
2014-07-02,1.8454
2014-07-03,1.8511
2014-07-06,1.8649
2014-07-07,1.8567
2014-07-08,1.8482
2014-07-09,1.836
2014-07-10,1.8325
2014-07-13,1.8208
2014-07-14,1.8308
2014-07-15,1.8317
2014-07-16,1.8245
2014-07-17,1.8243
2014-07-20,1.8217
2014-07-21,1.8248
2014-07-22,1.8314
2014-07-23,1.8332
2014-07-24,1.8346
2014-07-27,1.8296
2014-07-28,1.8238
2014-07-29,1.8302
2014-07-30,1.8418
2014-07-31,1.8479
2014-08-03,1.8188
2014-08-04,1.8091
2014-08-05,1.8153
2014-08-06,1.8164
2014-08-07,1.8182
2014-08-10,1.801
2014-08-11,1.8049
2014-08-12,1.8034
2014-08-13,1.81
2014-08-14,1.8167
2014-08-17,1.8202
2014-08-18,1.8211
2014-08-19,1.8313
2014-08-20,1.8431
2014-08-21,1.8438
2014-08-24,1.8603
2014-08-25,1.8722
2014-08-26,1.879
2014-08-27,1.885
2014-08-28,1.8887
2014-08-31,1.889
2014-09-01,1.879
2014-09-02,1.8865
2014-09-03,1.8902
2014-09-04,1.8848
2014-09-07,1.8906
2014-09-08,1.8855
2014-09-09,1.8815
2014-09-10,1.8823
2014-09-11,1.8903
2014-09-14,1.8818
2014-09-15,1.8771
2014-09-16,1.8604
2014-09-17,1.8455
2014-09-18,1.8481
2014-09-21,1.8572
2014-09-22,1.869
2014-09-23,1.8736
2014-09-24,1.875
2014-09-25,1.8845
2014-09-28,1.8728
2014-09-29,1.8743
2014-09-30,1.873
2014-10-01,1.8774
2014-10-02,1.8642
2014-10-05,1.866
2014-10-06,1.8675
2014-10-07,1.8541
2014-10-08,1.8466
2014-10-09,1.8473
2014-10-12,1.8308
2014-10-13,1.8192
2014-10-14,1.8197
2014-10-15,1.8172
2014-10-16,1.8064
2014-10-19,1.8082
2014-10-20,1.8214
2014-10-21,1.8282
2014-10-22,1.8496
2014-10-23,1.8535
2014-10-27,1.8737
2014-10-28,1.8798
2014-10-29,1.8853
2014-10-30,1.8983
2014-10-31,1.9044
2014-11-03,1.9099
2014-11-04,1.9105
2014-11-05,1.9013
2014-11-06,1.903
2014-11-09,1.903
2014-11-10,1.9099
2014-11-11,1.9081
2014-11-12,1.9055
2014-11-13,1.9012
2014-11-16,1.9073
2014-11-17,1.9076
2014-11-18,1.9162
2014-11-19,1.9125
2014-11-20,1.9207
2014-11-23,1.9211
2014-11-24,1.918
2014-11-25,1.9047
2014-11-26,1.9179
2014-11-27,1.9211
2014-11-30,1.9045
2014-12-01,1.905
2014-12-02,1.9049
2014-12-03,1.9275
2014-12-04,1.9384
2014-12-07,1.9363
2014-12-08,1.9357
2014-12-09,1.9243
2014-12-10,1.9063
2014-12-11,1.8999
2014-12-14,1.9021
2014-12-15,1.9042
2014-12-16,1.8992
2014-12-17,1.898
2014-12-18,1.9068
2014-12-21,1.9202
2014-12-22,1.9405
2014-12-23,1.9401
2014-12-28,1.9442
2014-12-29,1.9584
2014-12-30,1.9523
2014-12-31,1.9472
2015-01-05,1.9515
2015-01-06,1.9195
2015-01-07,1.9225
2015-01-08,1.9228
2015-01-11,1.932
2015-01-12,1.9377
2015-01-13,1.9463
2015-01-14,1.9545
2015-01-15,1.9463
2015-01-18,1.9238
2015-01-19,1.926
2015-01-20,1.9295
2015-01-21,1.9419
2015-01-22,1.9449
2015-01-26,1.9506
2015-01-27,1.9607
2015-01-28,1.9807
2015-01-29,1.9882
2015-01-31,1.9721
2015-02-02,1.966
2015-02-03,1.9558
2015-02-04,1.9526
2015-02-08,1.9505
2015-02-09,1.9495
2015-02-10,1.951
2015-02-11,1.9484
2015-02-12,1.9461
2015-02-15,1.9583
2015-02-16,1.9546
2015-02-17,1.9448
2015-02-18,1.9376
2015-02-19,1.9314
2015-02-22,1.9359
2015-02-23,1.9438
2015-02-24,1.9435
2015-02-25,1.964
2015-02-26,1.9639
2015-02-28,1.9702
2015-03-02,1.9709
2015-03-03,1.9761
2015-03-04,1.974
2015-03-05,1.9683
2015-03-08,1.9834
2015-03-09,1.9784
2015-03-10,1.9781
2015-03-11,1.9599
2015-03-12,1.9702
2015-03-15,1.9751
2015-03-16,1.9845
2015-03-17,1.9837
2015-03-18,1.9752
2015-03-19,1.9766
2015-03-22,1.98
2015-03-23,1.9709
2015-03-24,1.9732
2015-03-25,1.9725
2015-03-26,1.9563
2015-03-29,1.9582
2015-03-30,1.9507
2015-03-31,1.9592
2015-04-06,1.9564
2015-04-07,1.9759
2015-04-08,1.9838
2015-04-09,1.9885
2015-04-12,1.9868
2015-04-13,1.9889
2015-04-14,1.9935
2015-04-15,1.9904
2015-04-16,2.0017
2015-04-19,1.9912
2015-04-20,1.98
2015-04-21,1.9847
2015-04-22,1.9793
2015-04-23,1.9731
2015-04-27,1.9726
2015-04-28,1.9794
2015-04-29,1.9575
2015-04-30,1.9648
2015-05-03,1.9657
2015-05-04,1.9642
2015-05-05,1.9745
2015-05-06,1.9679
2015-05-07,1.9609
2015-05-10,1.9631
2015-05-11,1.97
2015-05-12,1.9719
2015-05-13,1.9728
2015-05-14,1.9656
2015-05-17,1.9738
2015-05-18,1.976
2015-05-19,1.9723
2015-05-20,1.9709
2015-05-21,1.9776
2015-05-24,1.9726
2015-05-25,1.9871
2015-05-26,1.9879
2015-05-27,1.9703
2015-05-28,1.9773
2015-05-31,1.9981
2015-06-02,1.9864
2015-06-03,1.987
2015-06-04,1.9861
2015-06-07,1.9845
2015-06-08,1.9861
2015-06-09,1.9741
2015-06-10,1.9554
2015-06-11,1.9803
2015-06-14,1.9877
2015-06-15,1.9777
2015-06-16,1.9724
2015-06-17,1.9644
2015-06-18,1.9536
2015-06-21,1.9586
2015-06-22,1.9555
2015-06-23,1.9567
2015-06-24,1.9524
2015-06-25,1.9414
2015-06-28,1.945
2015-06-29,1.9188
2015-06-30,1.9265
2015-07-01,1.94
2015-07-02,1.9527
2015-07-05,1.9453
2015-07-06,1.923
2015-07-07,1.9296
2015-07-08,1.9194
2015-07-09,1.9116
2015-07-12,1.9106
2015-07-13,1.9144
2015-07-14,1.9309
2015-07-15,1.9489
2015-07-16,1.9633
2015-07-19,1.9682
2015-07-20,1.972
2015-07-21,1.9726
2015-07-22,1.9852
2015-07-23,1.9803
2015-07-26,1.9807
2015-07-27,1.9748
2015-07-28,1.9644
2015-07-29,1.9634
2015-07-30,1.9611
2015-07-31,1.9748
2015-08-03,1.9773
2015-08-04,1.9789
2015-08-05,1.9834
2015-08-06,1.9813
2015-08-09,1.9567
2015-08-10,1.9561
2015-08-11,1.9427
2015-08-12,1.921
2015-08-13,1.9195
2015-08-16,1.9074
2015-08-17,1.9117
2015-08-18,1.9168
2015-08-19,1.9253
2015-08-20,1.9143
2015-08-23,1.8847
2015-08-24,1.8384
2015-08-25,1.8371
2015-08-26,1.8259
2015-08-27,1.8385
2015-08-30,1.8397
2015-08-31,1.8334
2015-09-01,1.8256
2015-09-02,1.8129
2015-09-03,1.8091
2015-09-06,1.8008
2015-09-07,1.8122
2015-09-08,1.8213
2015-09-09,1.8364
2015-09-10,1.8371
2015-09-13,1.8371
2015-09-14,1.8484
2015-09-15,1.8354
2015-09-16,1.8403
2015-09-17,1.8563
2015-09-20,1.8644
2015-09-21,1.85
2015-09-22,1.8502
2015-09-23,1.8337
2015-09-24,1.8362
2015-09-27,1.8347
2015-09-28,1.8371
2015-09-29,1.8093
2015-09-30,1.8116
2015-10-01,1.8199
2015-10-04,1.8124
2015-10-05,1.8197
2015-10-06,1.8272
2015-10-07,1.8233
2015-10-08,1.8142
2015-10-11,1.8215
2015-10-12,1.8282
2015-10-13,1.8323
2015-10-14,1.8394
2015-10-15,1.8458
2015-10-18,1.8578
2015-10-19,1.8612
2015-10-20,1.8821
2015-10-21,1.8798
2015-10-22,1.881
2015-10-26,1.8978
2015-10-27,1.9078
2015-10-28,1.9092
2015-10-29,1.9137
2015-10-31,1.9018
2015-11-02,1.8937
2015-11-03,1.9111
2015-11-04,1.9239
2015-11-05,1.9289
2015-11-08,1.933
2015-11-09,1.93
2015-11-10,1.9081
2015-11-11,1.904
2015-11-12,1.9083
2015-11-15,1.9062
2015-11-16,1.8923
2015-11-17,1.9064
2015-11-18,1.9022
2015-11-19,1.9047
2015-11-22,1.9093
2015-11-23,1.9312
2015-11-24,1.932
2015-11-25,1.9295
2015-11-26,1.9296
2015-11-29,1.9325
2015-11-30,1.9403
2015-12-01,1.9522
2015-12-02,1.9515
2015-12-03,1.9477
2015-12-06,1.9323
2015-12-07,1.9269
2015-12-08,1.9221
2015-12-09,1.9271
2015-12-10,1.9176
2015-12-13,1.9222
2015-12-14,1.908
2015-12-15,1.9098
2015-12-16,1.9217
2015-12-17,1.9407
2015-12-20,1.9438
2015-12-21,1.9447
2015-12-22,1.9443
2015-12-23,1.949
2015-12-28,1.9523
2015-12-29,1.9663
2015-12-30,1.9806
2015-12-31,1.9866
2016-01-05,1.9715
2016-01-06,1.961
2016-01-07,1.9429
2016-01-10,1.9288
2016-01-11,1.9108
2016-01-12,1.9117
2016-01-13,1.923
2016-01-14,1.9182
2016-01-17,1.9294
2016-01-18,1.9111
2016-01-19,1.9116
2016-01-20,1.9074
2016-01-21,1.9024
2016-01-24,1.9231
2016-01-25,1.9414
2016-01-26,1.9368
2016-01-27,1.929
2016-01-28,1.9333
2016-01-31,1.9328
2016-02-01,1.9328
2016-02-02,1.9387
2016-02-03,1.9116
2016-02-04,1.9198
2016-02-07,1.9264
2016-02-08,1.9264
2016-02-09,1.888
2016-02-10,1.8782
2016-02-11,1.8741
2016-02-14,1.8525
2016-02-15,1.8776
2016-02-16,1.8875
2016-02-17,1.891
2016-02-18,1.8925
2016-02-21,1.8902
2016-02-22,1.8909
2016-02-23,1.8942
2016-02-24,1.9133
2016-02-25,1.912
2016-02-28,1.9063
2016-02-29,1.9245
2016-03-01,1.9321
2016-03-02,1.9495
2016-03-03,1.9694
2016-03-06,1.9708
2016-03-07,1.9785
2016-03-08,1.9763
2016-03-09,1.9893
2016-03-10,2.0102
2016-03-13,2.0211
2016-03-14,2.0424
2016-03-15,2.043
2016-03-16,2.0332
2016-03-17,2.0343
2016-03-20,2.0467
2016-03-21,2.0539
2016-03-22,2.0597
2016-03-23,2.0635
2016-03-28,2.0547
2016-03-29,2.0503
2016-03-30,2.066
2016-03-31,2.076
2016-04-03,2.0632
2016-04-04,2.0781
2016-04-05,2.0656
2016-04-06,2.0737
2016-04-07,2.083
2016-04-10,2.0781
2016-04-11,2.0732
2016-04-12,2.0795
2016-04-13,2.0912
2016-04-14,2.1103
2016-04-17,2.1153
2016-04-18,2.1022
2016-04-19,2.1101
2016-04-20,2.1267
2016-04-21,2.1314
2016-04-25,2.1251
2016-04-26,2.1154
2016-04-27,2.0891
2016-04-28,2.0926
2016-04-30,2.0904
2016-05-02,2.083
2016-05-03,2.103
2016-05-04,2.1034
2016-05-05,2.1198
2016-05-08,2.1275
2016-05-09,2.1257
2016-05-10,2.1416
2016-05-11,2.1568
2016-05-12,2.1542
2016-05-15,2.1446
2016-05-16,2.1557
2016-05-17,2.1755
2016-05-18,2.1754
2016-05-19,2.1573
2016-05-22,2.1599
2016-05-23,2.161
2016-05-24,2.1573
2016-05-25,2.1652
2016-05-26,2.1777
2016-05-29,2.195
2016-05-30,2.2096
2016-05-31,2.2131
2016-06-01,2.2046
2016-06-02,2.1896
2016-06-06,2.2015
2016-06-07,2.2132
2016-06-08,2.2054
2016-06-09,2.1926
2016-06-12,2.189
2016-06-13,2.1695
2016-06-14,2.1371
2016-06-15,2.1359
2016-06-16,2.1249
2016-06-19,2.0998
2016-06-20,2.1201
2016-06-21,2.1189
2016-06-22,2.106
2016-06-23,2.1141
2016-06-26,2.0639
2016-06-27,2.063
2016-06-28,2.0689
2016-06-29,2.1051
2016-06-30,2.1344
2016-07-03,2.1399
2016-07-04,2.1464
2016-07-05,2.149
2016-07-06,2.1459
2016-07-07,2.1427
2016-07-10,2.1308
2016-07-11,2.1531
2016-07-12,2.1646
2016-07-13,2.1602
2016-07-14,2.1767
2016-07-17,2.1729
2016-07-18,2.1824
2016-07-19,2.1839
2016-07-20,2.1935
2016-07-21,2.2098
2016-07-24,2.2114
2016-07-25,2.2341
2016-07-26,2.2306
2016-07-27,2.2227
2016-07-28,2.2291
2016-07-31,2.2313
2016-08-01,2.2346
2016-08-02,2.2359
2016-08-03,2.2249
2016-08-04,2.2212
2016-08-07,2.2193
2016-08-08,2.2358
2016-08-09,2.239
2016-08-10,2.2345
2016-08-11,2.2361
2016-08-14,2.247
2016-08-15,2.245
2016-08-16,2.2363
2016-08-17,2.2443
2016-08-18,2.2488
2016-08-21,2.2505
2016-08-22,2.2689
2016-08-23,2.2778
2016-08-24,2.2766
2016-08-25,2.2669
2016-08-28,2.2516
2016-08-29,2.2476
2016-08-30,2.2522
2016-08-31,2.2553
2016-09-01,2.2588
2016-09-04,2.2615
2016-09-05,2.279
2016-09-06,2.2763
2016-09-07,2.2997
2016-09-08,2.3043
2016-09-11,2.2979
2016-09-12,2.2593
2016-09-13,2.2653
2016-09-14,2.2617
2016-09-15,2.2597
2016-09-18,2.278
2016-09-19,2.2747
2016-09-20,2.2809
2016-09-21,2.2725
2016-09-22,2.2764
2016-09-25,2.2716
2016-09-26,2.2567
2016-09-27,2.2561
2016-09-28,2.2585
2016-09-29,2.2601
2016-09-30,2.2675
2016-10-03,2.2779
2016-10-04,2.2797
2016-10-05,2.26
2016-10-06,2.2439
2016-10-09,2.2326
2016-10-10,2.2192
2016-10-11,2.2232
2016-10-12,2.22
2016-10-13,2.2139
2016-10-16,2.2204
2016-10-17,2.1998
2016-10-18,2.175
2016-10-19,2.1838
2016-10-20,2.1817
2016-10-24,2.1741
2016-10-25,2.1855
2016-10-26,2.1628
2016-10-27,2.167
2016-10-30,2.1767
2016-10-31,2.1778
2016-11-01,2.1655
2016-11-02,2.1383
2016-11-03,2.1194
2016-11-06,2.1047
2016-11-07,2.146
2016-11-08,2.1433
2016-11-09,2.091
2016-11-10,2.1373
2016-11-13,2.1404
2016-11-14,2.1445
2016-11-15,2.1585
2016-11-16,2.1761
2016-11-17,2.1663
2016-11-20,2.1648
2016-11-21,2.1677
2016-11-22,2.1553
2016-11-23,2.1531
2016-11-24,2.1596
2016-11-27,2.1586
2016-11-28,2.1643
2016-11-29,2.1647
2016-11-30,2.1547
2016-12-01,2.1665
2016-12-04,2.1673
2016-12-05,2.1449
2016-12-06,2.1602
2016-12-07,2.1618
2016-12-08,2.1718
2016-12-11,2.1759
2016-12-12,2.1763
2016-12-13,2.1614
2016-12-14,2.1476
2016-12-15,2.1105
2016-12-18,2.1138
2016-12-19,2.1282
2016-12-20,2.1328
2016-12-21,2.1412
2016-12-22,2.1575
2016-12-27,2.157
2016-12-28,2.1639
2016-12-29,2.1688
2016-12-31,2.1663
2017-01-04,2.1888
2017-01-05,2.1784
2017-01-08,2.1842
2017-01-09,2.1898
2017-01-10,2.1893
2017-01-11,2.1895
2017-01-12,2.1904
2017-01-15,2.1865
2017-01-16,2.191
2017-01-17,2.1873
2017-01-18,2.1813
2017-01-19,2.1912
2017-01-22,2.1857
2017-01-23,2.1822
2017-01-24,2.1814
2017-01-25,2.1978
2017-01-26,2.205
2017-01-30,2.1951
2017-01-31,2.1898
2017-02-01,2.1872
2017-02-02,2.1909
2017-02-06,2.1782
2017-02-07,2.1745
2017-02-08,2.1632
2017-02-09,2.177
2017-02-12,2.1831
2017-02-13,2.1886
2017-02-14,2.1886
2017-02-15,2.1988
2017-02-16,2.1863
2017-02-19,2.1817
2017-02-20,2.1786
2017-02-21,2.1785
2017-02-22,2.1654
2017-02-23,2.1625
2017-02-26,2.1518
2017-02-27,2.1618
2017-02-28,2.1796
2017-03-01,2.1907
2017-03-02,2.2037
2017-03-05,2.203
2017-03-06,2.2035
2017-03-07,2.2131
2017-03-08,2.2139
2017-03-09,2.203
2017-03-12,2.218
2017-03-13,2.2158
2017-03-14,2.2048
2017-03-15,2.1945
2017-03-16,2.1877
2017-03-19,2.195
2017-03-20,2.1619
2017-03-21,2.1556
2017-03-22,2.1431
2017-03-23,2.1476
2017-03-26,2.1546
2017-03-27,2.1483
2017-03-28,2.1582
2017-03-29,2.1694
2017-03-30,2.1759
2017-03-31,2.1804
2017-04-04,2.1776
2017-04-05,2.184
2017-04-06,2.1886
2017-04-09,2.1738
2017-04-10,2.1755
2017-04-11,2.1815
2017-04-12,2.1744
2017-04-17,2.17
2017-04-18,2.1654
2017-04-19,2.1526
2017-04-20,2.1497
2017-04-23,2.1494
2017-04-25,2.1564
2017-04-26,2.1762
2017-04-27,2.1893
2017-04-30,2.2031
2017-05-01,2.2005
2017-05-02,2.2046
2017-05-03,2.1987
2017-05-04,2.189
2017-05-07,2.1766
2017-05-08,2.1894
2017-05-09,2.181
2017-05-10,2.1874
2017-05-11,2.2103
2017-05-14,2.2002
2017-05-15,2.1979
2017-05-16,2.1923
2017-05-17,2.1902
2017-05-18,2.1733
2017-05-21,2.1747
2017-05-22,2.1739
2017-05-23,2.1688
2017-05-24,2.1785
2017-05-25,2.1799
2017-05-28,2.1763
2017-05-29,2.1655
2017-05-30,2.1619
2017-05-31,2.1608
2017-06-01,2.1687
2017-06-05,2.1811
2017-06-06,2.1819
2017-06-07,2.1753
2017-06-08,2.1756
2017-06-11,2.1741
2017-06-12,2.1748
2017-06-13,2.1774
2017-06-14,2.185
2017-06-15,2.1923
2017-06-18,2.2011
2017-06-19,2.2019
2017-06-20,2.194
2017-06-21,2.1853
2017-06-22,2.1916
2017-06-25,2.1935
2017-06-26,2.1953
2017-06-27,2.197
2017-06-28,2.2074
2017-06-29,2.2212
2017-06-30,2.2169
2017-07-03,2.2121
2017-07-04,2.2084
2017-07-05,2.2059
2017-07-06,2.2072
2017-07-09,2.2114
2017-07-10,2.215
2017-07-11,2.2241
2017-07-12,2.2218
2017-07-13,2.238
2017-07-16,2.2542
2017-07-17,2.2616
2017-07-18,2.2654
2017-07-19,2.2671
2017-07-20,2.254
2017-07-23,2.2594
2017-07-24,2.2594
2017-07-25,2.2666
2017-07-26,2.2596
2017-07-27,2.2524
2017-07-30,2.2449
2017-07-31,2.2508
2017-08-01,2.2547
2017-08-02,2.2625
2017-08-03,2.2656
2017-08-06,2.2656
2017-08-07,2.2691
2017-08-08,2.2736
2017-08-09,2.2772
2017-08-10,2.2828
2017-08-13,2.2668
2017-08-14,2.2719
2017-08-15,2.2856
2017-08-16,2.2899
2017-08-17,2.2988
2017-08-20,2.2905
2017-08-21,2.2882
2017-08-22,2.2905
2017-08-23,2.2877
2017-08-24,2.2783
2017-08-27,2.2653
2017-08-28,2.2625
2017-08-29,2.2507
2017-08-30,2.2625
2017-08-31,2.2791
2017-09-03,2.2781
2017-09-04,2.2724
2017-09-05,2.2708
2017-09-06,2.2721
2017-09-07,2.2716
2017-09-10,2.2735
2017-09-11,2.2672
2017-09-12,2.2626
2017-09-13,2.2666
2017-09-14,2.2743
2017-09-17,2.2648
2017-09-18,2.2592
2017-09-19,2.2555
2017-09-20,2.2633
2017-09-21,2.2605
2017-09-24,2.2651
2017-09-25,2.2753
2017-09-26,2.2721
2017-09-27,2.2711
2017-09-28,2.2683
2017-09-30,2.2702
2017-10-02,2.267
2017-10-03,2.2738
2017-10-04,2.2748
2017-10-05,2.2726
2017-10-08,2.2786
2017-10-09,2.28
2017-10-10,2.2799
2017-10-11,2.2843
2017-10-12,2.2876
2017-10-15,2.2973
2017-10-16,2.2926
2017-10-17,2.3033
2017-10-18,2.3095
2017-10-19,2.3132
2017-10-23,2.302
2017-10-24,2.2915
2017-10-25,2.2935
2017-10-26,2.2908
2017-10-29,2.2875
2017-10-30,2.2937
2017-10-31,2.3003
2017-11-01,2.2949
2017-11-02,2.2985
2017-11-05,2.295
2017-11-06,2.3004
2017-11-07,2.2988
2017-11-08,2.2972
2017-11-09,2.2871
2017-11-12,2.2832
2017-11-13,2.2797
2017-11-14,2.286
2017-11-15,2.272
2017-11-16,2.2817
2017-11-19,2.2839
2017-11-20,2.2853
2017-11-21,2.2802
2017-11-22,2.2846
2017-11-23,2.2845
2017-11-27,2.2893
2017-11-28,2.2898
2017-11-29,2.2959
2017-11-30,2.3105
2017-12-01,2.3038
2017-12-04,2.3033
2017-12-05,2.3057
2017-12-06,2.2775
2017-12-07,2.2754
2017-12-08,2.2863
2017-12-11,2.2894
2017-12-12,2.2772
2017-12-13,2.2864
2017-12-14,2.2843
2017-12-15,2.2961
2017-12-18,2.292
2017-12-19,2.3036
2017-12-20,2.3018
2017-12-21,2.2999
2017-12-22,2.3042
2017-12-27,2.2973
2017-12-28,2.308
2017-12-29,2.3095
2018-01-03,2.3115
2018-01-04,2.3171
2018-01-05,2.3185
2018-01-08,2.3133
2018-01-09,2.3176
2018-01-10,2.2999
2018-01-11,2.2853
2018-01-12,2.2991
2018-01-15,2.2913
2018-01-16,2.295
2018-01-17,2.2921
2018-01-18,2.2868
2018-01-19,2.2926
2018-01-22,2.2915
2018-01-23,2.291
2018-01-24,2.2848
2018-01-25,2.2946
2018-01-26,2.2894
2018-01-30,2.2857
2018-01-31,2.3051
2018-02-01,2.2913
2018-02-02,2.2875
2018-02-05,2.2558
2018-02-07,2.2589
2018-02-08,2.2542
2018-02-09,2.2336
2018-02-12,2.2312
2018-02-13,2.24
2018-02-14,2.2383
2018-02-15,2.2357
2018-02-16,2.2449
2018-02-19,2.2462
2018-02-20,2.2461
2018-02-21,2.2386
2018-02-22,2.2412
2018-02-23,2.25
2018-02-26,2.2441
2018-02-27,2.2445
2018-02-28,2.2384
2018-03-01,2.2288
2018-03-02,2.2207
2018-03-05,2.2201
2018-03-06,2.2282
2018-03-07,2.2258
2018-03-08,2.2261
2018-03-09,2.2296
2018-03-12,2.2322
2018-03-13,2.2259
2018-03-14,2.2287
2018-03-15,2.2295
2018-03-16,2.2338
2018-03-19,2.2375
2018-03-20,2.2342
2018-03-21,2.2465
2018-03-22,2.2394
2018-03-23,2.2318
2018-03-26,2.2248
2018-03-27,2.2328
2018-03-28,2.2185
2018-03-31,2.2151
2018-04-04,2.22
2018-04-05,2.2212
2018-04-06,2.2239
2018-04-09,2.2233
2018-04-10,2.2285
2018-04-11,2.2325
2018-04-12,2.2249
2018-04-13,2.2298
2018-04-16,2.2254
2018-04-17,2.2253
2018-04-18,2.2305
2018-04-19,2.225
2018-04-20,2.2123
2018-04-23,2.2133
2018-04-24,2.214
2018-04-26,2.2112
2018-04-27,2.2267
2018-04-30,2.24
2018-05-01,2.2369
2018-05-02,2.2455
2018-05-03,2.2544
2018-05-04,2.2523
2018-05-07,2.2566
2018-05-08,2.2626
2018-05-09,2.2734
2018-05-10,2.2838
2018-05-11,2.2937
2018-05-14,2.298
2018-05-15,2.3042
2018-05-16,2.2985
2018-05-17,2.3035
2018-05-18,2.3087
2018-05-21,2.307
2018-05-22,2.311
2018-05-23,2.3096
2018-05-24,2.3105
2018-05-25,2.3093
2018-05-28,2.3111
2018-05-29,2.3097
2018-05-30,2.3047
2018-05-31,2.3056
2018-06-01,2.3169
2018-06-05,2.3246
2018-06-06,2.3411
2018-06-07,2.3446
2018-06-08,2.3489
2018-06-11,2.3471
2018-06-12,2.3488
2018-06-13,2.3485
2018-06-14,2.3398
2018-06-15,2.3391
2018-06-18,2.3361
2018-06-19,2.3337
2018-06-20,2.3444
2018-06-21,2.3482
2018-06-22,2.3532
2018-06-25,2.3478
2018-06-26,2.3482
2018-06-27,2.3392
2018-06-28,2.3485
2018-06-29,2.3492
2018-07-02,2.3429
2018-07-03,2.3506
2018-07-04,2.3466
2018-07-05,2.3504
2018-07-06,2.3463
2018-07-09,2.3455
2018-07-10,2.3418
2018-07-11,2.3403
2018-07-12,2.3453
2018-07-13,2.3575
2018-07-16,2.3491
2018-07-17,2.3471
2018-07-18,2.3382
2018-07-19,2.3403
2018-07-20,2.3431
2018-07-23,2.3289
2018-07-24,2.3394
2018-07-25,2.3368
2018-07-26,2.3375
2018-07-27,2.3494
2018-07-30,2.333
2018-07-31,2.3423
2018-08-01,2.3322
2018-08-02,2.3344
2018-08-03,2.3388
2018-08-06,2.3402
2018-08-07,2.3425
2018-08-08,2.3465
2018-08-09,2.3614
2018-08-10,2.3616
2018-08-13,2.353
2018-08-14,2.3503
2018-08-15,2.3636
2018-08-16,2.3646
2018-08-17,2.3742
2018-08-20,2.3778
2018-08-21,2.3792
2018-08-22,2.3819
2018-08-23,2.3755
2018-08-24,2.3882
2018-08-27,2.3924
2018-08-28,2.39
2018-08-29,2.3919
2018-08-30,2.3926
2018-08-31,2.3901
2018-09-03,2.3831
2018-09-04,2.3894
2018-09-05,2.3873
2018-09-06,2.3738
2018-09-07,2.3786
2018-09-10,2.3699
2018-09-11,2.3859
2018-09-12,2.3867
2018-09-13,2.3926
2018-09-14,2.4066
2018-09-17,2.3943
2018-09-18,2.4026
2018-09-19,2.4097
2018-09-20,2.4075
2018-09-21,2.4072
2018-09-24,2.405
2018-09-25,2.4108
2018-09-26,2.4131
2018-09-27,2.4081
2018-09-28,2.4218
2018-10-01,2.4151
2018-10-02,2.4145
2018-10-03,2.4142
2018-10-04,2.4106
2018-10-05,2.4031
2018-10-08,2.3942
2018-10-09,2.3832
2018-10-10,2.389
2018-10-11,2.344
2018-10-12,2.3456
2018-10-15,2.3457
2018-10-16,2.3383
2018-10-17,2.3465
2018-10-18,2.3406
2018-10-19,2.3103
2018-10-23,2.3067
2018-10-24,2.2961
2018-10-25,2.2897
2018-10-26,2.2874
2018-10-29,2.2869
2018-10-30,2.294
2018-10-31,2.3027
2018-11-01,2.309
2018-11-02,2.3043
2018-11-05,2.296
2018-11-06,2.2935
2018-11-07,2.3044
2018-11-08,2.3061
2018-11-09,2.31
2018-11-12,2.3183
2018-11-13,2.2964
2018-11-14,2.2947
2018-11-15,2.2956
2018-11-16,2.2897
2018-11-19,2.2922
2018-11-20,2.2809
2018-11-21,2.2682
2018-11-22,2.271
2018-11-23,2.2619
2018-11-26,2.2486
2018-11-27,2.2508
2018-11-28,2.2594
2018-11-29,2.2709
2018-11-30,2.2768
2018-12-03,2.2778
2018-12-04,2.2677
2018-12-05,2.2532
2018-12-06,2.254
2018-12-07,2.2534
2018-12-10,2.2356
2018-12-11,2.2434
2018-12-12,2.2529
2018-12-13,2.2498
2018-12-14,2.2533
2018-12-17,2.2519
2018-12-18,2.2377
2018-12-19,2.2388
2018-12-20,2.2373
2018-12-21,2.2224
2018-12-24,2.2287
2018-12-27,2.2338
2018-12-28,2.2436
2018-12-31,2.2397
2019-01-03,2.2261
2019-01-04,2.2266
2019-01-07,2.2303
2019-01-08,2.2483
2019-01-09,2.2591
2019-01-10,2.2566
2019-01-11,2.2618
2019-01-14,2.257
2019-01-15,2.2614
2019-01-16,2.271
2019-01-17,2.2779
2019-01-18,2.2775
2019-01-21,2.2802
2019-01-22,2.2822
2019-01-23,2.2707
2019-01-24,2.2706
2019-01-25,2.2704
2019-01-29,2.2556
2019-01-30,2.2485
2019-01-31,2.2552
